%YAML 1.1
%TAG !u! tag:unity3d.com,2011:
--- !u!1045 &1
EditorBuildSettings:
  m_ObjectHideFlags: 0
  serializedVersion: 2
  m_Scenes:
  - enabled: 1
    path: Assets/_Scenes/Menu.unity
    guid: 3387cca993625b6438f395b54e35288e
  - enabled: 1
    path: Assets/_Scenes/Beginning.unity
    guid: fcf3fcc0cfa475247a7bd78bc23ccc8e
  - enabled: 1
    path: Assets/_Scenes/Playground.unity
    guid: 102b1033f00097d4e98a781f4baec4b8
  - enabled: 1
    path: Assets/_Scenes/Finish.unity
    guid: 1da70ba9be9f3194eb15f64c8560edfb
  m_configObjects: {}
