# Blender v2.79 (sub 0) OBJ File: ''
# www.blender.org
mtllib AFInit.mtl
o Plane.003_Plane.000
v 0.275221 0.000000 -0.453258
v 0.275221 0.000000 -0.749231
v 0.878004 0.000000 -0.749231
v 0.878004 0.000000 -0.453258
v 0.275221 -0.000000 0.730638
v 0.275221 -0.000000 0.434664
v 0.878004 -0.000000 0.434664
v 0.878004 -0.000000 0.730638
v -1.121996 -0.000000 0.730638
v -0.634834 -0.000000 0.730638
v -0.634834 0.064722 0.730638
v -1.121996 0.064722 0.730638
v 0.878004 0.064722 0.730638
v 0.275221 0.064722 0.730638
v 0.275221 0.064722 0.434664
v 0.878004 0.064722 0.434664
v -1.121996 0.000000 -0.157284
v -1.121996 0.000000 -0.453258
v -0.634834 0.000000 -0.453258
v -0.634834 0.000000 -0.157284
v -1.121996 -0.000000 0.138689
v -0.634834 -0.000000 0.138689
v -1.121996 -0.000000 0.434664
v -0.634834 -0.000000 0.434664
v -1.121996 0.000000 -0.749231
v -0.634834 0.000000 -0.749231
v -1.121996 0.064722 0.138690
v -1.121996 0.064722 -0.157284
v -0.130555 0.000000 -0.157284
v -0.130555 0.000000 -0.453258
v 0.275221 0.000000 -0.157284
v -0.130555 -0.000000 0.730638
v -0.130555 0.064722 0.730638
v -0.130555 -0.000000 0.138689
v 0.275221 -0.000000 0.138689
v 0.878004 0.064722 -0.453258
v 0.275221 0.064722 -0.453258
v -0.130555 -0.000000 0.434664
v -0.130555 0.000000 -0.749231
v -0.634834 0.064722 -0.749231
v -0.130555 0.064722 -0.749231
v -0.130555 0.064722 -0.157284
v -0.130555 0.064722 -0.453258
v 0.275221 0.064722 -0.157284
v 0.275221 0.064722 0.138690
v -0.130555 0.064722 0.434664
v -0.130555 0.064722 0.138690
v -0.634834 0.064722 0.138690
v -0.634834 0.064722 0.434664
v -1.121996 0.064722 -0.453258
v -1.121996 0.064722 -0.749231
v 0.001273 0.163409 0.566491
v 0.143393 0.163409 0.566491
v 0.143393 0.163409 0.138690
v 0.001273 0.163409 0.138690
v 0.275221 0.064722 -0.749231
v 0.275221 0.163409 0.598809
v 0.746176 0.163409 0.598809
v 0.746176 0.163409 0.566491
v -0.130555 0.163409 0.598809
v 0.143393 0.163409 -0.585084
v 0.746176 0.163409 -0.585084
v 0.746176 0.163409 -0.617404
v 0.275221 0.163409 -0.617404
v -1.121996 0.064722 0.434664
v 0.001273 0.163409 -0.157284
v 0.143393 0.163409 -0.157284
v 0.001273 0.163409 -0.585084
v -0.990168 0.163409 -0.453258
v -0.766662 0.163409 -0.585084
v -0.634834 0.163409 -0.617404
v -0.990168 0.163409 -0.617404
v -0.130555 0.163409 -0.617404
v -0.634834 0.163409 0.598809
v -0.766662 0.163409 0.566491
v -0.990168 0.163409 -0.157284
v -0.766662 0.163409 -0.157284
v -0.990168 0.163409 0.138690
v -0.766662 0.163409 0.138690
v -0.990168 0.163409 0.434664
v 0.878004 0.064722 -0.749231
v -0.634834 0.064722 -0.453258
v -0.634834 0.064722 -0.157284
v -0.990168 0.163409 0.598809
vt 0.379951 0.665666
vt 0.379951 0.572430
vt 0.191477 0.572430
vt 0.191477 0.665666
vt 0.284713 0.191477
vt 0.191477 0.191477
vt 0.191477 0.379951
vt 0.284713 0.379951
vt 0.381953 0.808523
vt 0.570428 0.808523
vt 0.570428 0.762906
vt 0.381953 0.762906
vt 0.808523 0.379951
vt 0.808523 0.191477
vt 0.762906 0.191477
vt 0.762906 0.379951
vt 0.572430 0.808523
vt 0.760904 0.808523
vt 0.760904 0.762906
vt 0.572430 0.762906
vt 0.475189 0.191477
vt 0.381953 0.191477
vt 0.381953 0.379951
vt 0.475189 0.379951
vt 0.570428 0.760904
vt 0.570428 0.667668
vt 0.381953 0.667668
vt 0.381953 0.760904
vt 0.760904 0.191477
vt 0.667668 0.191477
vt 0.667668 0.379951
vt 0.760904 0.379951
vt 0.760904 0.760904
vt 0.760904 0.667668
vt 0.572430 0.667668
vt 0.572430 0.760904
vt 0.094237 0.001001
vt 0.001001 0.001001
vt 0.001001 0.189475
vt 0.094237 0.189475
vt 0.572430 0.951380
vt 0.665666 0.951380
vt 0.665666 0.905763
vt 0.572430 0.905763
vt 0.284713 0.001001
vt 0.191477 0.001001
vt 0.191477 0.189475
vt 0.284713 0.189475
vt 0.191477 0.856142
vt 0.379951 0.856142
vt 0.379951 0.810525
vt 0.191477 0.810525
vt 0.475189 0.001001
vt 0.381953 0.001001
vt 0.381953 0.189475
vt 0.475189 0.189475
vt 0.381953 0.856142
vt 0.570428 0.856142
vt 0.570428 0.810525
vt 0.381953 0.810525
vt 0.570428 0.001001
vt 0.477191 0.001001
vt 0.477191 0.189475
vt 0.570428 0.189475
vt 0.475189 0.475189
vt 0.475189 0.381953
vt 0.286715 0.381953
vt 0.286715 0.475189
vt 0.570428 0.191477
vt 0.477191 0.191477
vt 0.477191 0.379951
vt 0.570428 0.379951
vt 0.475189 0.570428
vt 0.475189 0.477191
vt 0.286715 0.477191
vt 0.286715 0.570428
vt 0.665666 0.001001
vt 0.572430 0.001001
vt 0.572430 0.189475
vt 0.665666 0.189475
vt 0.191477 0.808523
vt 0.379951 0.808523
vt 0.379951 0.762906
vt 0.191477 0.762906
vt 0.998999 0.189475
vt 0.998999 0.096239
vt 0.953382 0.096239
vt 0.953382 0.189475
vt 0.286715 0.998999
vt 0.379951 0.998999
vt 0.379951 0.953382
vt 0.286715 0.953382
vt 0.998999 0.856142
vt 0.998999 0.762906
vt 0.953382 0.762906
vt 0.953382 0.856142
vt 0.191477 0.998999
vt 0.284713 0.998999
vt 0.284713 0.953382
vt 0.191477 0.953382
vt 0.998999 0.665666
vt 0.998999 0.572430
vt 0.953382 0.572430
vt 0.953382 0.665666
vt 0.096239 0.998999
vt 0.189475 0.998999
vt 0.189475 0.953382
vt 0.096239 0.953382
vt 0.808523 0.381953
vt 0.762906 0.381953
vt 0.762906 0.570428
vt 0.808523 0.570428
vt 0.572430 0.856142
vt 0.760904 0.856142
vt 0.760904 0.810525
vt 0.572430 0.810525
vt 0.998999 0.475189
vt 0.998999 0.381953
vt 0.953382 0.381953
vt 0.953382 0.475189
vt 0.001001 0.903761
vt 0.189475 0.903761
vt 0.189475 0.858144
vt 0.001001 0.858144
vt 0.998999 0.379951
vt 0.998999 0.286715
vt 0.953382 0.286715
vt 0.953382 0.379951
vt 0.858144 0.951380
vt 0.951380 0.951380
vt 0.951380 0.905763
vt 0.858144 0.905763
vt 0.808523 0.760904
vt 0.808523 0.572430
vt 0.762906 0.572430
vt 0.762906 0.760904
vt 0.191477 0.903761
vt 0.379951 0.903761
vt 0.379951 0.858144
vt 0.191477 0.858144
vt 0.998999 0.284713
vt 0.998999 0.191477
vt 0.953382 0.191477
vt 0.953382 0.284713
vt 0.570428 0.903761
vt 0.570428 0.858144
vt 0.381953 0.858144
vt 0.381953 0.903761
vt 0.998999 0.094237
vt 0.998999 0.001001
vt 0.953382 0.001001
vt 0.953382 0.094237
vt 0.858144 0.903761
vt 0.951380 0.903761
vt 0.951380 0.858144
vt 0.858144 0.858144
vt 0.856142 0.379951
vt 0.856142 0.191477
vt 0.810525 0.191477
vt 0.810525 0.379951
vt 0.760904 0.951380
vt 0.760904 0.905763
vt 0.667668 0.905763
vt 0.667668 0.951380
vt 0.951380 0.760904
vt 0.951380 0.667668
vt 0.905763 0.667668
vt 0.905763 0.760904
vt 0.572430 0.903761
vt 0.760904 0.903761
vt 0.760904 0.858144
vt 0.572430 0.858144
vt 0.856142 0.570428
vt 0.856142 0.381953
vt 0.810525 0.381953
vt 0.810525 0.570428
vt 0.189475 0.475189
vt 0.189475 0.381953
vt 0.001001 0.381953
vt 0.001001 0.475189
vt 0.856142 0.762906
vt 0.762906 0.762906
vt 0.762906 0.856142
vt 0.856142 0.856142
vt 0.284713 0.381953
vt 0.191477 0.381953
vt 0.191477 0.570428
vt 0.284713 0.570428
vt 0.001001 0.951380
vt 0.189475 0.951380
vt 0.189475 0.905763
vt 0.001001 0.905763
vt 0.951380 0.665666
vt 0.951380 0.572430
vt 0.905763 0.572430
vt 0.905763 0.665666
vt 0.191477 0.951380
vt 0.379951 0.951380
vt 0.379951 0.905763
vt 0.191477 0.905763
vt 0.998999 0.951380
vt 0.998999 0.858144
vt 0.953382 0.858144
vt 0.953382 0.951380
vt 0.381953 0.951380
vt 0.570428 0.951380
vt 0.570428 0.905763
vt 0.381953 0.905763
vt 0.998999 0.760904
vt 0.998999 0.667668
vt 0.953382 0.667668
vt 0.953382 0.760904
vt 0.001001 0.998999
vt 0.094237 0.998999
vt 0.094237 0.953382
vt 0.001001 0.953382
vt 0.998999 0.570428
vt 0.998999 0.477191
vt 0.953382 0.477191
vt 0.953382 0.570428
vt 0.903761 0.572430
vt 0.810525 0.572430
vt 0.810525 0.665666
vt 0.903761 0.665666
vt 0.903761 0.667668
vt 0.810525 0.667668
vt 0.810525 0.760904
vt 0.903761 0.760904
vt 0.951380 0.001001
vt 0.858144 0.001001
vt 0.858144 0.094237
vt 0.951380 0.094237
vt 0.001001 0.665666
vt 0.189475 0.665666
vt 0.189475 0.572430
vt 0.001001 0.572430
vt 0.951380 0.096239
vt 0.858144 0.096239
vt 0.858144 0.189475
vt 0.951380 0.189475
vt 0.570428 0.570428
vt 0.570428 0.381953
vt 0.477191 0.381953
vt 0.477191 0.570428
vt 0.951380 0.191477
vt 0.858144 0.191477
vt 0.858144 0.284713
vt 0.951380 0.284713
vt 0.951380 0.286715
vt 0.858144 0.286715
vt 0.858144 0.379951
vt 0.951380 0.379951
vt 0.951380 0.381953
vt 0.858144 0.381953
vt 0.858144 0.475189
vt 0.951380 0.475189
vt 0.001001 0.570428
vt 0.189475 0.570428
vt 0.189475 0.477191
vt 0.001001 0.477191
vt 0.379951 0.379951
vt 0.379951 0.191477
vt 0.286715 0.191477
vt 0.286715 0.379951
vt 0.001001 0.379951
vt 0.189475 0.379951
vt 0.189475 0.286715
vt 0.001001 0.286715
vt 0.379951 0.189475
vt 0.379951 0.001001
vt 0.286715 0.001001
vt 0.286715 0.189475
vt 0.001001 0.284713
vt 0.189475 0.284713
vt 0.189475 0.191477
vt 0.001001 0.191477
vt 0.951380 0.477191
vt 0.858144 0.477191
vt 0.858144 0.570428
vt 0.951380 0.570428
vt 0.189475 0.189475
vt 0.189475 0.001001
vt 0.096239 0.001001
vt 0.096239 0.189475
vt 0.001001 0.856142
vt 0.189475 0.856142
vt 0.189475 0.762906
vt 0.001001 0.762906
vt 0.760904 0.570428
vt 0.760904 0.381953
vt 0.667668 0.381953
vt 0.667668 0.570428
vt 0.572430 0.665666
vt 0.760904 0.665666
vt 0.760904 0.572430
vt 0.572430 0.572430
vt 0.760904 0.189475
vt 0.760904 0.001001
vt 0.667668 0.001001
vt 0.667668 0.189475
vt 0.191477 0.760904
vt 0.379951 0.760904
vt 0.379951 0.667668
vt 0.191477 0.667668
vt 0.665666 0.570428
vt 0.665666 0.381953
vt 0.572430 0.381953
vt 0.572430 0.570428
vt 0.001001 0.760904
vt 0.189475 0.760904
vt 0.189475 0.667668
vt 0.001001 0.667668
vt 0.665666 0.379951
vt 0.665666 0.191477
vt 0.572430 0.191477
vt 0.572430 0.379951
vt 0.856142 0.858144
vt 0.762906 0.858144
vt 0.762906 0.951380
vt 0.856142 0.951380
vt 0.951380 0.762906
vt 0.858144 0.762906
vt 0.858144 0.856142
vt 0.951380 0.856142
vt 0.381953 0.665666
vt 0.570428 0.665666
vt 0.570428 0.572430
vt 0.381953 0.572430
vt 0.856142 0.189475
vt 0.856142 0.001001
vt 0.762906 0.001001
vt 0.762906 0.189475
vt 0.381953 0.998999
vt 0.475189 0.998999
vt 0.475189 0.953382
vt 0.381953 0.953382
vn 0.0000 -1.0000 -0.0000
vn 0.0000 0.0000 1.0000
vn 0.0000 0.0000 -1.0000
vn -1.0000 -0.0000 0.0000
vn 1.0000 -0.0000 0.0000
vn 0.0000 1.0000 0.0000
vn -0.5993 0.8005 0.0000
vn 0.0000 0.8005 -0.5993
vn 0.5993 0.8005 0.0000
vn 0.0000 0.8005 0.5993
usemtl None.003
s 1
f 1/1/1 2/2/1 3/3/1 4/4/1
f 5/5/1 6/6/1 7/7/1 8/8/1
f 9/9/2 10/10/2 11/11/2 12/12/2
f 5/13/2 8/14/2 13/15/2 14/16/2
f 7/17/3 6/18/3 15/19/3 16/20/3
f 17/21/1 18/22/1 19/23/1 20/24/1
f 21/25/1 17/26/1 20/27/1 22/28/1
f 23/29/1 21/30/1 22/31/1 24/32/1
f 9/33/1 23/34/1 24/35/1 10/36/1
f 18/37/1 25/38/1 26/39/1 19/40/1
f 17/41/4 21/42/4 27/43/4 28/44/4
f 29/45/1 30/46/1 1/47/1 31/48/1
f 32/49/2 5/50/2 14/51/2 33/52/2
f 34/53/1 29/54/1 31/55/1 35/56/1
f 1/57/2 4/58/2 36/59/2 37/60/2
f 38/61/1 34/62/1 35/63/1 6/64/1
f 10/65/1 24/66/1 38/67/1 32/68/1
f 32/69/1 38/70/1 6/71/1 5/72/1
f 19/73/1 26/74/1 39/75/1 30/76/1
f 30/77/1 39/78/1 2/79/1 1/80/1
f 39/81/3 26/82/3 40/83/3 41/84/3
f 30/85/4 29/86/4 42/87/4 43/88/4
f 35/89/5 31/90/5 44/91/5 45/92/5
f 34/93/4 38/94/4 46/95/4 47/96/4
f 24/97/5 22/98/5 48/99/5 49/100/5
f 8/101/5 7/102/5 16/103/5 13/104/5
f 25/105/4 18/106/4 50/107/4 51/108/4
f 52/109/6 53/110/6 54/111/6 55/112/6
f 2/113/3 39/114/3 41/115/3 56/116/3
f 31/117/5 1/118/5 37/119/5 44/120/5
f 57/121/6 58/122/6 59/123/6 53/124/6
f 60/125/6 57/126/6 53/127/6 52/128/6
f 29/129/4 34/130/4 47/131/4 42/132/4
f 61/133/6 62/134/6 63/135/6 64/136/6
f 26/137/3 25/138/3 51/139/3 40/140/3
f 21/141/4 23/142/4 65/143/4 27/144/4
f 66/145/6 67/146/6 61/147/6 68/148/6
f 69/149/6 70/150/6 71/151/6 72/152/6
f 68/153/6 61/154/6 64/155/6 73/156/6
f 70/157/6 68/158/6 73/159/6 71/160/6
f 55/161/6 54/162/6 67/163/6 66/164/6
f 18/165/4 17/166/4 28/167/4 50/168/4
f 38/169/3 24/170/3 49/171/3 46/172/3
f 74/173/6 60/174/6 52/175/6 75/176/6
f 76/177/6 77/178/6 70/179/6 69/180/6
f 78/181/6 79/182/6 77/183/6 76/184/6
f 80/185/6 75/186/6 79/187/6 78/188/6
f 10/189/2 32/190/2 33/191/2 11/192/2
f 4/193/5 3/194/5 81/195/5 36/196/5
f 19/197/2 30/198/2 43/199/2 82/200/2
f 20/201/5 19/202/5 82/203/5 83/204/5
f 3/205/3 2/206/3 56/207/3 81/208/3
f 22/209/5 20/210/5 83/211/5 48/212/5
f 6/213/5 35/214/5 45/215/5 15/216/5
f 84/217/6 74/218/6 75/219/6 80/220/6
f 28/221/7 27/222/7 78/223/7 76/224/7
f 50/225/7 28/226/7 76/227/7 69/228/7
f 51/229/7 50/230/7 69/231/7 72/232/7
f 40/233/8 51/234/8 72/235/8 71/236/8
f 36/237/9 81/238/9 63/239/9 62/240/9
f 14/241/10 13/242/10 58/243/10 57/244/10
f 65/245/7 12/246/7 84/247/7 80/248/7
f 27/249/7 65/250/7 80/251/7 78/252/7
f 13/253/9 16/254/9 59/255/9 58/256/9
f 12/257/10 11/258/10 74/259/10 84/260/10
f 41/261/8 40/262/8 71/263/8 73/264/8
f 46/265/8 49/266/8 75/267/8 52/268/8
f 68/269/10 70/270/10 82/271/10 43/272/10
f 83/273/9 82/274/9 70/275/9 77/276/9
f 48/277/9 83/278/9 77/279/9 79/280/9
f 49/281/9 48/282/9 79/283/9 75/284/9
f 11/285/10 33/286/10 60/287/10 74/288/10
f 33/289/10 14/290/10 57/291/10 60/292/10
f 81/293/8 56/294/8 64/295/8 63/296/8
f 56/297/8 41/298/8 73/299/8 64/300/8
f 16/301/8 15/302/8 53/303/8 59/304/8
f 62/305/10 61/306/10 37/307/10 36/308/10
f 66/309/7 68/310/7 43/311/7 42/312/7
f 44/313/9 37/314/9 61/315/9 67/316/9
f 55/317/7 66/318/7 42/319/7 47/320/7
f 45/321/9 44/322/9 67/323/9 54/324/9
f 52/325/7 55/326/7 47/327/7 46/328/7
f 15/329/9 45/330/9 54/331/9 53/332/9
f 23/333/4 9/334/4 12/335/4 65/336/4
