# Blender v2.79 (sub 0) OBJ File: 'Objekte.blend'
# www.blender.org
mtllib Strebe1.mtl
o Cube.003_Cube.004
v -0.592325 -0.122118 0.852285
v -0.363589 0.150555 0.903826
v -0.560850 -0.133325 -1.000000
v -0.560850 0.133325 -1.000000
v -0.510198 -0.151052 0.874765
v -0.305311 0.089084 0.950932
v -0.469474 -0.133325 -1.000000
v -0.469474 0.133325 -1.000000
v -0.533489 -0.013895 0.856562
v -0.455702 0.080577 0.870021
v -0.560850 0.044442 -1.000000
v -0.560850 -0.044442 -1.000000
v -0.469474 0.044442 -1.000000
v -0.469474 -0.044442 -1.000000
v -0.386357 0.026623 0.910937
v -0.455328 -0.053603 0.886974
v -0.615042 -0.133325 -1.000000
v -0.641570 -0.111193 0.842933
v -0.508231 0.102120 0.849703
v -0.434352 0.182238 0.866061
v -0.615042 0.133325 -1.000000
v -0.615042 -0.044442 -1.000000
v -0.415282 -0.044442 -1.000000
v -0.415282 -0.133325 -1.000000
v -0.463224 -0.173538 0.888443
v -0.415282 0.133325 -1.000000
v -0.288946 0.061379 0.957362
v -0.413760 -0.080936 0.903777
v -0.583278 0.001656 0.842957
v -0.615042 0.044442 -1.000000
v -0.415282 0.044442 -1.000000
v -0.353232 -0.004349 0.928935
v -0.560850 -0.133325 -0.818182
v -0.566129 -0.148558 -0.642320
v -0.577055 -0.180089 -0.472831
v -0.587960 -0.211562 -0.303319
v -0.598551 -0.242923 -0.133794
v -0.598694 -0.250609 0.033138
v -0.587427 -0.229987 0.195933
v -0.573649 -0.205428 0.356218
v -0.565670 -0.178401 0.515487
v -0.569641 -0.148388 0.678072
v -0.402890 0.123442 0.700214
v -0.468902 0.083303 0.508628
v -0.511294 0.058861 0.348795
v -0.552292 0.034028 0.189992
v -0.583631 0.011475 0.029556
v -0.596509 0.021673 -0.135209
v -0.588708 0.052931 -0.304163
v -0.577709 0.084671 -0.473570
v -0.566711 0.116411 -0.642977
v -0.560850 0.133325 -0.818182
v -0.484521 -0.172808 0.696061
v -0.477023 -0.195964 0.527473
v -0.482554 -0.216440 0.363231
v -0.495342 -0.235949 0.199174
v -0.506607 -0.253483 0.034115
v -0.506850 -0.242241 -0.133561
v -0.496388 -0.210995 -0.303098
v -0.485507 -0.179592 -0.472637
v -0.474600 -0.148116 -0.642147
v -0.469474 -0.133325 -0.818182
v -0.469474 0.133325 -0.818182
v -0.475181 0.116856 -0.642803
v -0.486160 0.085171 -0.473374
v -0.497134 0.053503 -0.303939
v -0.504315 0.022237 -0.134918
v -0.490470 0.007569 0.031253
v -0.458627 0.025641 0.194944
v -0.418582 0.043335 0.359054
v -0.379994 0.057911 0.526182
v -0.325549 0.082623 0.728926
v -0.469474 -0.044442 -0.818182
v -0.475035 -0.060490 -0.642639
v -0.485996 -0.092122 -0.473189
v -0.496947 -0.123724 -0.303728
v -0.506561 -0.155124 -0.134407
v -0.501770 -0.166424 0.032582
v -0.483886 -0.149022 0.196917
v -0.462534 -0.129409 0.360507
v -0.447187 -0.109524 0.524767
v -0.434279 -0.078896 0.704856
v -0.469474 0.044442 -0.818182
v -0.475181 0.027973 -0.642803
v -0.486160 -0.003712 -0.473374
v -0.497134 -0.035380 -0.303939
v -0.505523 -0.066745 -0.134794
v -0.495982 -0.078569 0.031685
v -0.470874 -0.060605 0.195580
v -0.440113 -0.042207 0.359285
v -0.413558 -0.025450 0.524705
v -0.378550 0.003821 0.717615
v -0.517272 -0.047707 0.682100
v -0.535821 -0.088928 0.510511
v -0.554062 -0.116614 0.352186
v -0.576438 -0.142109 0.192986
v -0.594186 -0.163173 0.031323
v -0.598426 -0.155790 -0.134646
v -0.588520 -0.124294 -0.303951
v -0.577545 -0.092622 -0.473385
v -0.566565 -0.060935 -0.642813
v -0.560850 -0.044442 -0.818182
v -0.458636 0.040917 0.690859
v -0.502308 -0.002240 0.508456
v -0.532180 -0.027841 0.349823
v -0.563965 -0.052835 0.191045
v -0.588766 -0.074934 0.030170
v -0.597560 -0.067360 -0.135059
v -0.588708 -0.035952 -0.304163
v -0.577709 -0.004212 -0.473570
v -0.566711 0.027528 -0.642977
v -0.560850 0.044442 -0.818182
v -0.615042 -0.133325 -0.818182
v -0.620321 -0.148558 -0.642320
v -0.631247 -0.180089 -0.472831
v -0.642153 -0.211562 -0.303319
v -0.652788 -0.242944 -0.133775
v -0.653471 -0.249948 0.033031
v -0.642519 -0.228129 0.194885
v -0.628544 -0.201412 0.353434
v -0.619580 -0.171566 0.510392
v -0.621768 -0.138836 0.670248
v -0.458483 0.143509 0.683936
v -0.526538 0.094846 0.500052
v -0.568955 0.065437 0.344249
v -0.609300 0.037141 0.188108
v -0.639535 0.012585 0.029167
v -0.651217 0.021613 -0.135134
v -0.642900 0.052931 -0.304163
v -0.631902 0.084671 -0.473570
v -0.620903 0.116411 -0.642977
v -0.615042 0.133325 -0.818182
v -0.435793 -0.191531 0.707469
v -0.424906 -0.208563 0.536278
v -0.428873 -0.224530 0.368610
v -0.440909 -0.240542 0.201930
v -0.452001 -0.255836 0.035211
v -0.452258 -0.241248 -0.133161
v -0.441895 -0.210127 -0.302759
v -0.431050 -0.178830 -0.472339
v -0.420172 -0.147437 -0.641882
v -0.415282 -0.133325 -0.818182
v -0.415282 0.133325 -0.818182
v -0.420752 0.117539 -0.642536
v -0.431702 0.085939 -0.473074
v -0.442638 0.054380 -0.303596
v -0.449514 0.023089 -0.134414
v -0.435392 0.004473 0.032894
v -0.403550 0.019443 0.198878
v -0.364452 0.032387 0.366564
v -0.328519 0.040593 0.538597
v -0.283075 0.056350 0.746283
v -0.415282 -0.044442 -0.818182
v -0.420607 -0.059808 -0.642372
v -0.431538 -0.091356 -0.472890
v -0.442451 -0.122849 -0.303386
v -0.451900 -0.154168 -0.133973
v -0.447027 -0.169041 0.033896
v -0.429279 -0.154257 0.200152
v -0.408772 -0.138656 0.366760
v -0.395370 -0.124050 0.535057
v -0.387635 -0.101293 0.719020
v -0.415282 0.044442 -0.818182
v -0.420752 0.028656 -0.642536
v -0.431702 -0.002944 -0.473074
v -0.442638 -0.034504 -0.303596
v -0.450788 -0.065844 -0.134320
v -0.441079 -0.081470 0.033190
v -0.416050 -0.066394 0.199228
v -0.386208 -0.052420 0.366282
v -0.361960 -0.041501 0.536251
v -0.334358 -0.021191 0.733809
v -0.570281 -0.034550 0.671328
v -0.590763 -0.080349 0.504183
v -0.609799 -0.111650 0.348728
v -0.632123 -0.139784 0.191614
v -0.649315 -0.162355 0.031111
v -0.652813 -0.155846 -0.134592
v -0.642713 -0.124294 -0.303951
v -0.631738 -0.092622 -0.473385
v -0.620757 -0.060935 -0.642813
v -0.615042 -0.044442 -0.818182
v -0.512735 0.057870 0.677000
v -0.558451 0.008033 0.500942
v -0.588862 -0.021969 0.345740
v -0.620311 -0.050059 0.189374
v -0.644285 -0.073951 0.029856
v -0.652114 -0.067424 -0.134990
v -0.642900 -0.035952 -0.304163
v -0.631902 -0.004212 -0.473570
v -0.620903 0.027528 -0.642977
v -0.615042 0.044442 -0.818182
vt 0.091047 0.071684
vt 0.000173 0.071683
vt 0.000173 0.044598
vt 0.091047 0.044598
vt 0.072929 0.665328
vt 0.072929 0.709753
vt 0.027259 0.709753
vt 0.027259 0.665328
vt 0.908927 0.448827
vt 0.999802 0.448859
vt 0.999793 0.475945
vt 0.908918 0.475913
vt 0.173118 0.665328
vt 0.173118 0.709753
vt 0.127447 0.709753
vt 0.127447 0.665328
vt 0.091072 0.402874
vt 0.091057 0.448545
vt 0.000182 0.448514
vt 0.000198 0.402843
vt 0.091047 0.503376
vt 0.091047 0.549047
vt 0.000173 0.549047
vt 0.000173 0.503376
vt 0.173118 0.576479
vt 0.173118 0.620903
vt 0.127447 0.620903
vt 0.127447 0.576479
vt 0.100015 0.665328
vt 0.100015 0.709753
vt 0.091047 0.116108
vt 0.000173 0.116108
vt 0.072929 0.576479
vt 0.072929 0.620903
vt 0.027259 0.620903
vt 0.027259 0.576479
vt 0.000173 0.620903
vt 0.000173 0.576479
vt 0.908918 0.303901
vt 0.908918 0.259476
vt 0.999793 0.259476
vt 0.999793 0.303901
vt 0.908918 0.232390
vt 0.908918 0.187965
vt 0.999793 0.187965
vt 0.999793 0.232390
vt 0.091047 0.143194
vt 0.091047 0.187619
vt 0.000173 0.187619
vt 0.000173 0.143194
vt 0.091048 0.000173
vt 0.000173 0.000173
vt 0.908918 0.375411
vt 0.908918 0.330986
vt 0.999793 0.330986
vt 0.999793 0.375411
vt 0.000207 0.375757
vt 0.091082 0.375789
vt 0.000173 0.476291
vt 0.091047 0.476291
vt 0.908918 0.116109
vt 0.999793 0.116109
vt 0.999793 0.143195
vt 0.908918 0.143195
vt 0.100361 0.709753
vt 0.100361 0.665328
vt 0.000173 0.709753
vt 0.000173 0.665328
vt 0.200203 0.576479
vt 0.200203 0.620903
vt 0.908918 0.549047
vt 0.999793 0.549047
vt 0.999793 0.576133
vt 0.908918 0.576133
vt 0.100015 0.576479
vt 0.100015 0.620903
vt 0.200203 0.665328
vt 0.200203 0.709753
vt 0.100361 0.620903
vt 0.100361 0.576479
vt 0.091047 0.259476
vt 0.000173 0.259476
vt 0.000173 0.232390
vt 0.091047 0.232390
vt 0.818044 0.259476
vt 0.818044 0.232390
vt 0.727169 0.259476
vt 0.727169 0.232390
vt 0.636295 0.259476
vt 0.636295 0.232390
vt 0.545420 0.259476
vt 0.545420 0.232390
vt 0.454546 0.259476
vt 0.454546 0.232390
vt 0.363671 0.259476
vt 0.363671 0.232390
vt 0.272797 0.259476
vt 0.272797 0.232390
vt 0.181922 0.259476
vt 0.181922 0.232390
vt 0.000173 0.303901
vt 0.091047 0.303901
vt 0.091047 0.330987
vt 0.000173 0.330987
vt 0.181922 0.303901
vt 0.181922 0.330987
vt 0.272797 0.303901
vt 0.272797 0.330987
vt 0.363671 0.303901
vt 0.363671 0.330987
vt 0.454546 0.303901
vt 0.454546 0.330987
vt 0.545420 0.303901
vt 0.545420 0.330987
vt 0.636295 0.303901
vt 0.636295 0.330987
vt 0.727169 0.303901
vt 0.727169 0.330987
vt 0.818044 0.303901
vt 0.818044 0.330986
vt 0.091047 0.576133
vt 0.000173 0.576133
vt 0.181922 0.549047
vt 0.181922 0.576133
vt 0.272796 0.549047
vt 0.272796 0.576133
vt 0.363671 0.549047
vt 0.363671 0.576133
vt 0.454546 0.549047
vt 0.454546 0.576133
vt 0.545420 0.549047
vt 0.545420 0.576133
vt 0.636295 0.549047
vt 0.636295 0.576133
vt 0.727169 0.549047
vt 0.727169 0.576133
vt 0.818044 0.549047
vt 0.818044 0.576133
vt 0.181922 0.116108
vt 0.181922 0.143194
vt 0.272796 0.116108
vt 0.272796 0.143194
vt 0.363671 0.116108
vt 0.363671 0.143194
vt 0.454546 0.116109
vt 0.454546 0.143194
vt 0.545420 0.116109
vt 0.545420 0.143194
vt 0.636295 0.116109
vt 0.636295 0.143195
vt 0.727169 0.116109
vt 0.727169 0.143195
vt 0.818044 0.116109
vt 0.818044 0.143195
vt 0.999793 0.503376
vt 0.908918 0.503376
vt 0.908918 0.476291
vt 0.999793 0.476291
vt 0.818044 0.503376
vt 0.818044 0.476291
vt 0.727169 0.503376
vt 0.727169 0.476291
vt 0.636295 0.503376
vt 0.636295 0.476291
vt 0.545420 0.503376
vt 0.545420 0.476291
vt 0.454546 0.503376
vt 0.454546 0.476291
vt 0.363671 0.503376
vt 0.363671 0.476291
vt 0.272796 0.503376
vt 0.272796 0.476291
vt 0.181922 0.503376
vt 0.181922 0.476291
vt 0.999818 0.403188
vt 0.908943 0.403157
vt 0.908952 0.376071
vt 0.999827 0.376102
vt 0.818069 0.403125
vt 0.818078 0.376040
vt 0.727194 0.403094
vt 0.727203 0.376008
vt 0.636319 0.403063
vt 0.636329 0.375977
vt 0.545445 0.403031
vt 0.545454 0.375945
vt 0.454570 0.403000
vt 0.454580 0.375914
vt 0.363696 0.402969
vt 0.363705 0.375883
vt 0.272821 0.402937
vt 0.272831 0.375851
vt 0.181947 0.402906
vt 0.181956 0.375820
vt 0.000173 0.375411
vt 0.091047 0.375411
vt 0.181922 0.375411
vt 0.272797 0.375411
vt 0.363671 0.375411
vt 0.454546 0.375411
vt 0.545420 0.375411
vt 0.636295 0.375411
vt 0.727169 0.375411
vt 0.818044 0.375411
vt 0.999793 0.000174
vt 0.999793 0.044598
vt 0.908918 0.044598
vt 0.908918 0.000174
vt 0.818044 0.044598
vt 0.818044 0.000174
vt 0.727169 0.044598
vt 0.727169 0.000173
vt 0.636295 0.044598
vt 0.636295 0.000173
vt 0.545420 0.044598
vt 0.545420 0.000173
vt 0.454546 0.044598
vt 0.454546 0.000173
vt 0.363671 0.044598
vt 0.363671 0.000173
vt 0.272797 0.044598
vt 0.272797 0.000173
vt 0.181922 0.044598
vt 0.181922 0.000173
vt 0.999793 0.187620
vt 0.908918 0.187620
vt 0.818044 0.187619
vt 0.727169 0.187619
vt 0.636295 0.187619
vt 0.545420 0.187619
vt 0.454545 0.187619
vt 0.363671 0.187619
vt 0.272796 0.187619
vt 0.181922 0.187619
vt 0.000173 0.187966
vt 0.091047 0.187966
vt 0.181922 0.187966
vt 0.272797 0.187966
vt 0.363671 0.187966
vt 0.454546 0.187966
vt 0.545420 0.187965
vt 0.636295 0.187965
vt 0.727169 0.187965
vt 0.818044 0.187965
vt 0.999793 0.071684
vt 0.908918 0.071684
vt 0.818044 0.071684
vt 0.727169 0.071684
vt 0.636295 0.071684
vt 0.545420 0.071684
vt 0.454546 0.071684
vt 0.363671 0.071684
vt 0.272797 0.071684
vt 0.181922 0.071684
vt 0.818053 0.448796
vt 0.727178 0.448765
vt 0.636304 0.448733
vt 0.545429 0.448702
vt 0.454554 0.448670
vt 0.363680 0.448639
vt 0.272806 0.448608
vt 0.181931 0.448576
vt 0.091047 0.475631
vt 0.000173 0.475599
vt 0.181922 0.475662
vt 0.272796 0.475694
vt 0.363671 0.475725
vt 0.454545 0.475756
vt 0.545420 0.475788
vt 0.636294 0.475819
vt 0.727169 0.475851
vt 0.818043 0.475882
vn 0.5020 0.8638 -0.0429
vn 0.0000 0.0000 -1.0000
vn 0.0000 -1.0000 0.0000
vn -0.4753 0.1372 0.8691
vn -0.3213 -0.9432 0.0843
vn 0.6473 0.7474 -0.1495
vn -0.2817 0.0791 0.9562
vn -0.3721 0.1153 0.9210
vn 0.7711 -0.6214 0.1389
vn -1.0000 0.0000 0.0000
vn 0.7644 -0.6397 0.0810
vn 0.8573 -0.4837 0.1763
vn -0.2166 -0.9684 0.1240
vn 0.6846 0.7277 -0.0420
vn -0.3819 0.1159 0.9169
vn -0.3092 0.0320 0.9505
vn 0.0000 1.0000 0.0000
vn -0.4331 0.0099 0.9013
vn -0.2025 0.0883 0.9753
vn -0.3931 -0.8925 0.2211
vn 0.0000 -0.9954 -0.0961
vn 0.0000 -0.9829 -0.1842
vn 0.0005 -0.9832 -0.1827
vn -0.0082 -0.9991 -0.0423
vn -0.0358 -0.9884 0.1473
vn -0.0842 -0.9797 0.1819
vn -0.1590 -0.9664 0.2018
vn -0.2838 -0.9086 0.3065
vn 0.3013 0.9392 -0.1646
vn 0.2307 0.9357 -0.2670
vn 0.1363 0.9705 -0.1986
vn 0.0719 0.9817 -0.1766
vn 0.0300 0.9901 -0.1374
vn 0.0069 0.9991 0.0417
vn -0.0004 0.9831 0.1830
vn 0.0000 0.9830 0.1837
vn 0.0000 0.9830 0.1838
vn 0.0000 0.9956 0.0936
vn 0.4492 0.8655 -0.2216
vn 0.3198 0.8901 -0.3247
vn 0.1752 0.9616 -0.2111
vn 0.0932 0.9775 -0.1890
vn 0.0400 0.9874 -0.1534
vn 0.0093 0.9983 0.0576
vn -0.0004 0.9833 0.1820
vn 0.0000 0.9829 0.1842
vn 0.0000 0.9954 0.0961
vn -0.5977 -0.8007 0.0407
vn -0.4314 -0.8838 0.1814
vn -0.2594 -0.9585 0.1184
vn -0.1564 -0.9798 0.1245
vn -0.0837 -0.9902 0.1119
vn -0.0167 -0.9966 -0.0809
vn 0.0174 -0.9833 -0.1813
vn 0.0159 -0.9831 -0.1824
vn 0.0141 -0.9831 -0.1827
vn 0.0065 -0.9958 -0.0913
vn -0.0065 0.9958 0.0913
vn -0.0141 0.9831 0.1827
vn -0.0159 0.9831 0.1824
vn -0.0170 0.9833 0.1812
vn 0.0184 0.9950 0.0978
vn 0.0893 0.9892 -0.1164
vn 0.1671 0.9773 -0.1301
vn 0.2785 0.9522 -0.1252
vn 0.4635 0.8637 -0.1980
vn 0.0000 -0.9963 -0.0863
vn 0.0000 -0.9831 -0.1829
vn 0.0000 -0.9832 -0.1825
vn 0.0002 -0.9833 -0.1819
vn -0.0058 -0.9990 -0.0440
vn -0.0241 -0.9911 0.1312
vn -0.0583 -0.9848 0.1635
vn -0.1106 -0.9771 0.1817
vn -0.1721 -0.9676 0.1850
vn -0.8796 0.4456 -0.1664
vn -0.9247 0.3788 -0.0392
vn -0.9660 0.2561 0.0365
vn -0.9827 0.1646 0.0844
vn -0.9936 0.0844 0.0751
vn -0.9997 0.0238 0.0094
vn -0.9981 -0.0039 -0.0618
vn -0.9978 -0.0064 -0.0656
vn -0.9978 -0.0057 -0.0656
vn -0.9995 -0.0026 -0.0315
vn 1.0000 0.0000 0.0000
vn 0.9996 0.0025 0.0292
vn 0.9979 0.0056 0.0652
vn 0.9979 0.0064 0.0652
vn 0.9983 0.0016 0.0586
vn 0.9994 -0.0309 -0.0180
vn 0.9923 -0.0966 -0.0772
vn 0.9801 -0.1823 -0.0784
vn 0.9597 -0.2800 -0.0241
vn 0.9112 -0.4083 0.0538
vn 0.9995 0.0000 0.0311
vn 0.9979 0.0000 0.0645
vn 0.9979 0.0000 0.0644
vn 0.9990 -0.0071 0.0430
vn 0.9964 -0.0398 -0.0750
vn 0.9818 -0.1045 -0.1587
vn 0.9639 -0.1936 -0.1829
vn 0.9396 -0.3084 -0.1481
vn 0.8816 -0.4569 -0.1182
vn -0.7830 0.6167 -0.0810
vn -0.8852 0.4367 0.1603
vn -0.9444 0.2832 0.1671
vn -0.9661 0.1741 0.1905
vn -0.9839 0.0910 0.1536
vn -0.9976 0.0324 0.0607
vn -0.9987 0.0050 -0.0508
vn -0.9979 0.0000 -0.0648
vn -0.9994 0.0000 -0.0334
vn -0.7832 0.6023 -0.1546
vn -0.8850 0.4634 0.0451
vn -0.9488 0.3019 0.0933
vn -0.9722 0.1909 0.1353
vn -0.9880 0.1016 0.1167
vn -0.9985 0.0359 0.0409
vn -0.9985 0.0036 -0.0547
vn -0.9979 -0.0021 -0.0651
vn -0.9979 -0.0019 -0.0651
vn -0.9995 -0.0009 -0.0331
vn 0.9995 0.0009 0.0322
vn 0.9979 0.0019 0.0650
vn 0.9979 0.0021 0.0650
vn 0.9986 -0.0046 0.0523
vn 0.9982 -0.0390 -0.0456
vn 0.9873 -0.1068 -0.1178
vn 0.9713 -0.1979 -0.1317
vn 0.9467 -0.3105 -0.0858
vn 0.8820 -0.4697 -0.0379
vn -0.0025 0.9955 0.0947
vn -0.0054 0.9830 0.1836
vn -0.0062 0.9830 0.1835
vn -0.0066 0.9833 0.1816
vn 0.0172 0.9971 0.0735
vn 0.0699 0.9880 -0.1375
vn 0.1387 0.9768 -0.1634
vn 0.2417 0.9547 -0.1738
vn 0.4203 0.8660 -0.2708
vn 0.0025 -0.9964 -0.0849
vn 0.0054 -0.9832 -0.1824
vn 0.0061 -0.9833 -0.1820
vn 0.0071 -0.9834 -0.1811
vn -0.0115 -0.9983 -0.0565
vn -0.0503 -0.9916 0.1189
vn -0.0992 -0.9849 0.1419
vn -0.1707 -0.9738 0.1501
vn -0.2559 -0.9558 0.1446
vn -0.4043 -0.9137 0.0413
vn -0.3126 -0.9451 0.0949
vn -0.2052 -0.9722 0.1126
vn -0.1243 -0.9855 0.1152
vn -0.0668 -0.9925 0.1027
vn -0.0114 -0.9970 -0.0766
vn 0.0180 -0.9835 -0.1798
vn 0.0158 -0.9834 -0.1808
vn 0.0140 -0.9833 -0.1814
vn 0.0064 -0.9966 -0.0816
vn -0.0065 0.9960 0.0889
vn -0.0140 0.9831 0.1824
vn -0.0159 0.9832 0.1820
vn -0.0178 0.9833 0.1811
vn 0.0139 0.9969 0.0775
vn 0.0756 0.9916 -0.1047
vn 0.1420 0.9822 -0.1228
vn 0.2360 0.9643 -0.1204
vn 0.3804 0.9117 -0.1553
usemtl Material
s off
f 82/1/1 16/2/1 28/3/1 162/4/1
f 11/5/2 4/6/2 8/7/2 13/8/2
f 62/9/3 7/10/3 24/11/3 142/12/3
f 15/13/4 6/14/4 2/15/4 10/16/4
f 42/17/5 53/18/5 5/19/5 1/20/5
f 72/21/6 43/22/6 2/23/6 6/24/6
f 5/25/7 16/26/7 9/27/7 1/28/7
f 16/26/8 15/13/8 10/16/8 9/27/8
f 4/6/2 11/5/2 30/29/2 21/30/2
f 82/1/9 92/31/9 15/32/9 16/2/9
f 3/33/2 12/34/2 14/35/2 7/36/2
f 12/34/2 11/5/2 13/8/2 14/35/2
f 7/36/2 14/35/2 23/37/2 24/38/2
f 102/39/10 112/40/10 11/41/10 12/42/10
f 192/43/10 132/44/10 21/45/10 30/46/10
f 172/47/11 152/48/11 27/49/11 32/50/11
f 133/51/12 162/4/12 28/3/12 25/52/12
f 113/53/10 182/54/10 22/55/10 17/56/10
f 42/17/13 1/20/13 18/57/13 122/58/13
f 72/21/14 6/24/14 27/59/14 152/60/14
f 83/61/3 13/62/3 31/63/3 163/64/3
f 10/16/15 2/15/15 20/65/15 19/66/15
f 13/8/2 8/7/2 26/67/2 31/68/2
f 16/26/16 5/25/16 25/69/16 28/70/16
f 52/71/17 4/72/17 21/73/17 132/74/17
f 12/34/2 3/33/2 17/75/2 22/76/2
f 6/14/18 15/13/18 32/77/18 27/78/18
f 102/39/17 12/42/17 22/55/17 182/54/17
f 1/28/19 9/27/19 29/79/19 18/80/19
f 103/81/20 10/82/20 19/83/20 183/84/20
f 11/41/3 112/40/3 192/43/3 30/46/3
f 112/40/21 111/85/21 191/86/21 192/43/21
f 111/85/22 110/87/22 190/88/22 191/86/22
f 110/87/22 109/89/22 189/90/22 190/88/22
f 109/89/23 108/91/23 188/92/23 189/90/23
f 108/91/24 107/93/24 187/94/24 188/92/24
f 107/93/25 106/95/25 186/96/25 187/94/25
f 106/95/26 105/97/26 185/98/26 186/96/26
f 105/97/27 104/99/27 184/100/27 185/98/27
f 104/99/28 103/81/28 183/84/28 184/100/28
f 9/101/29 93/102/29 173/103/29 29/104/29
f 93/102/30 94/105/30 174/106/30 173/103/30
f 94/105/31 95/107/31 175/108/31 174/106/31
f 95/107/32 96/109/32 176/110/32 175/108/32
f 96/109/33 97/111/33 177/112/33 176/110/33
f 97/111/34 98/113/34 178/114/34 177/112/34
f 98/113/35 99/115/35 179/116/35 178/114/35
f 99/115/36 100/117/36 180/118/36 179/116/36
f 100/117/37 101/119/37 181/120/37 180/118/37
f 101/119/38 102/39/38 182/54/38 181/120/38
f 2/23/39 43/22/39 123/121/39 20/122/39
f 43/22/40 44/123/40 124/124/40 123/121/40
f 44/123/41 45/125/41 125/126/41 124/124/41
f 45/125/42 46/127/42 126/128/42 125/126/42
f 46/127/43 47/129/43 127/130/43 126/128/43
f 47/129/44 48/131/44 128/132/44 127/130/44
f 48/131/45 49/133/45 129/134/45 128/132/45
f 49/133/46 50/135/46 130/136/46 129/134/46
f 50/135/46 51/137/46 131/138/46 130/136/46
f 51/137/47 52/71/47 132/74/47 131/138/47
f 15/32/48 92/31/48 172/47/48 32/50/48
f 92/31/49 91/139/49 171/140/49 172/47/49
f 91/139/50 90/141/50 170/142/50 171/140/50
f 90/141/51 89/143/51 169/144/51 170/142/51
f 89/143/52 88/145/52 168/146/52 169/144/52
f 88/145/53 87/147/53 167/148/53 168/146/53
f 87/147/54 86/149/54 166/150/54 167/148/54
f 86/149/55 85/151/55 165/152/55 166/150/55
f 85/151/56 84/153/56 164/154/56 165/152/56
f 84/153/57 83/61/57 163/64/57 164/154/57
f 8/155/17 63/156/17 143/157/17 26/158/17
f 63/156/58 64/159/58 144/160/58 143/157/58
f 64/159/59 65/161/59 145/162/59 144/160/59
f 65/161/60 66/163/60 146/164/60 145/162/60
f 66/163/61 67/165/61 147/166/61 146/164/61
f 67/165/62 68/167/62 148/168/62 147/166/62
f 68/167/63 69/169/63 149/170/63 148/168/63
f 69/169/64 70/171/64 150/172/64 149/170/64
f 70/171/65 71/173/65 151/174/65 150/172/65
f 71/173/66 72/21/66 152/60/66 151/174/66
f 3/175/3 33/176/3 113/177/3 17/178/3
f 33/176/67 34/179/67 114/180/67 113/177/67
f 34/179/68 35/181/68 115/182/68 114/180/68
f 35/181/69 36/183/69 116/184/69 115/182/69
f 36/183/70 37/185/70 117/186/70 116/184/70
f 37/185/71 38/187/71 118/188/71 117/186/71
f 38/187/72 39/189/72 119/190/72 118/188/72
f 39/189/73 40/191/73 120/192/73 119/190/73
f 40/191/74 41/193/74 121/194/74 120/192/74
f 41/193/75 42/17/75 122/58/75 121/194/75
f 18/195/76 29/104/76 173/103/76 122/196/76
f 122/196/77 173/103/77 174/106/77 121/197/77
f 121/197/78 174/106/78 175/108/78 120/198/78
f 120/198/79 175/108/79 176/110/79 119/199/79
f 119/199/80 176/110/80 177/112/80 118/200/80
f 118/200/81 177/112/81 178/114/81 117/201/81
f 117/201/82 178/114/82 179/116/82 116/202/82
f 116/202/83 179/116/83 180/118/83 115/203/83
f 115/203/84 180/118/84 181/120/84 114/204/84
f 114/204/85 181/120/85 182/54/85 113/53/85
f 24/205/86 23/206/86 153/207/86 142/208/86
f 142/208/87 153/207/87 154/209/87 141/210/87
f 141/210/88 154/209/88 155/211/88 140/212/88
f 140/212/89 155/211/89 156/213/89 139/214/89
f 139/214/90 156/213/90 157/215/90 138/216/90
f 138/216/91 157/215/91 158/217/91 137/218/91
f 137/218/92 158/217/92 159/219/92 136/220/92
f 136/220/93 159/219/93 160/221/93 135/222/93
f 135/222/94 160/221/94 161/223/94 134/224/94
f 134/224/95 161/223/95 162/4/95 133/51/95
f 31/63/86 26/225/86 143/226/86 163/64/86
f 163/64/96 143/226/96 144/227/96 164/154/96
f 164/154/97 144/227/97 145/228/97 165/152/97
f 165/152/98 145/228/98 146/229/98 166/150/98
f 166/150/99 146/229/99 147/230/99 167/148/99
f 167/148/100 147/230/100 148/231/100 168/146/100
f 168/146/101 148/231/101 149/232/101 169/144/101
f 169/144/102 149/232/102 150/233/102 170/142/102
f 170/142/103 150/233/103 151/234/103 171/140/103
f 171/140/104 151/234/104 152/48/104 172/47/104
f 19/83/105 20/235/105 123/236/105 183/84/105
f 183/84/106 123/236/106 124/237/106 184/100/106
f 184/100/107 124/237/107 125/238/107 185/98/107
f 185/98/108 125/238/108 126/239/108 186/96/108
f 186/96/109 126/239/109 127/240/109 187/94/109
f 187/94/110 127/240/110 128/241/110 188/92/110
f 188/92/111 128/241/111 129/242/111 189/90/111
f 189/90/112 129/242/112 130/243/112 190/88/112
f 190/88/112 130/243/112 131/244/112 191/86/112
f 191/86/113 131/244/113 132/44/113 192/43/113
f 9/101/114 10/82/114 103/81/114 93/102/114
f 93/102/115 103/81/115 104/99/115 94/105/115
f 94/105/116 104/99/116 105/97/116 95/107/116
f 95/107/117 105/97/117 106/95/117 96/109/117
f 96/109/118 106/95/118 107/93/118 97/111/118
f 97/111/119 107/93/119 108/91/119 98/113/119
f 98/113/120 108/91/120 109/89/120 99/115/120
f 99/115/121 109/89/121 110/87/121 100/117/121
f 100/117/122 110/87/122 111/85/122 101/119/122
f 101/119/123 111/85/123 112/40/123 102/39/123
f 14/245/86 13/62/86 83/61/86 73/246/86
f 73/246/124 83/61/124 84/153/124 74/247/124
f 74/247/125 84/153/125 85/151/125 75/248/125
f 75/248/126 85/151/126 86/149/126 76/249/126
f 76/249/127 86/149/127 87/147/127 77/250/127
f 77/250/128 87/147/128 88/145/128 78/251/128
f 78/251/129 88/145/129 89/143/129 79/252/129
f 79/252/130 89/143/130 90/141/130 80/253/130
f 80/253/131 90/141/131 91/139/131 81/254/131
f 81/254/132 91/139/132 92/31/132 82/1/132
f 8/155/17 4/72/17 52/71/17 63/156/17
f 63/156/133 52/71/133 51/137/133 64/159/133
f 64/159/134 51/137/134 50/135/134 65/161/134
f 65/161/135 50/135/135 49/133/135 66/163/135
f 66/163/136 49/133/136 48/131/136 67/165/136
f 67/165/137 48/131/137 47/129/137 68/167/137
f 68/167/138 47/129/138 46/127/138 69/169/138
f 69/169/139 46/127/139 45/125/139 70/171/139
f 70/171/140 45/125/140 44/123/140 71/173/140
f 71/173/141 44/123/141 43/22/141 72/21/141
f 3/175/3 7/10/3 62/9/3 33/176/3
f 33/176/142 62/9/142 61/255/142 34/179/142
f 34/179/143 61/255/143 60/256/143 35/181/143
f 35/181/144 60/256/144 59/257/144 36/183/144
f 36/183/145 59/257/145 58/258/145 37/185/145
f 37/185/146 58/258/146 57/259/146 38/187/146
f 38/187/147 57/259/147 56/260/147 39/189/147
f 39/189/148 56/260/148 55/261/148 40/191/148
f 40/191/149 55/261/149 54/262/149 41/193/149
f 41/193/150 54/262/150 53/18/150 42/17/150
f 5/19/151 53/18/151 133/263/151 25/264/151
f 53/18/152 54/262/152 134/265/152 133/263/152
f 54/262/153 55/261/153 135/266/153 134/265/153
f 55/261/154 56/260/154 136/267/154 135/266/154
f 56/260/155 57/259/155 137/268/155 136/267/155
f 57/259/156 58/258/156 138/269/156 137/268/156
f 58/258/157 59/257/157 139/270/157 138/269/157
f 59/257/158 60/256/158 140/271/158 139/270/158
f 60/256/159 61/255/159 141/272/159 140/271/159
f 61/255/160 62/9/160 142/12/160 141/272/160
f 14/245/17 73/246/17 153/207/17 23/206/17
f 73/246/161 74/247/161 154/209/161 153/207/161
f 74/247/162 75/248/162 155/211/162 154/209/162
f 75/248/163 76/249/163 156/213/163 155/211/163
f 76/249/164 77/250/164 157/215/164 156/213/164
f 77/250/165 78/251/165 158/217/165 157/215/165
f 78/251/166 79/252/166 159/219/166 158/217/166
f 79/252/167 80/253/167 160/221/167 159/219/167
f 80/253/168 81/254/168 161/223/168 160/221/168
f 81/254/169 82/1/169 162/4/169 161/223/169
