# Blender v2.79 (sub 0) OBJ File: 'Objekte.blend'
# www.blender.org
mtllib Strebe3.mtl
o Cube.001
v 0.329427 -0.370108 -1.053532
v 0.329398 -0.103204 -1.053507
v 0.319450 -0.133325 1.434552
v 0.319450 0.133325 1.434552
v 0.420803 -0.370108 -1.053532
v 0.420773 -0.103204 -1.053507
v 0.410826 -0.133325 1.434552
v 0.410826 0.133325 1.434552
v 0.329608 -0.286224 -1.053692
v 0.329608 -0.197341 -1.053692
v 0.319450 0.044442 1.434552
v 0.319450 -0.044442 1.434552
v 0.410826 0.044442 1.434552
v 0.410826 -0.044442 1.434552
v 0.420984 -0.197341 -1.053692
v 0.420984 -0.286224 -1.053692
v 0.265258 -0.133325 1.434552
v 0.275169 -0.368317 -1.053475
v 0.275341 -0.195390 -1.053626
v 0.275130 -0.101329 -1.053441
v 0.265258 0.133325 1.434552
v 0.265258 -0.044442 1.434552
v 0.465018 -0.044442 1.434552
v 0.465018 -0.133325 1.434552
v 0.474930 -0.368317 -1.053475
v 0.465018 0.133325 1.434552
v 0.474891 -0.101329 -1.053441
v 0.475102 -0.284273 -1.053626
v 0.275341 -0.284273 -1.053626
v 0.265258 0.044442 1.434552
v 0.465018 0.044442 1.434552
v 0.475102 -0.195390 -1.053626
v 0.319450 -0.133325 1.209159
v 0.319450 -0.133325 0.983765
v 0.319450 -0.133325 0.758372
v 0.319450 -0.133325 0.532979
v 0.319450 -0.133325 0.307586
v 0.320119 -0.142375 0.081605
v 0.321967 -0.182210 -0.145410
v 0.324440 -0.241338 -0.372975
v 0.326894 -0.303069 -0.600522
v 0.328726 -0.351112 -0.827523
v 0.328602 -0.083392 -0.827415
v 0.326600 -0.033876 -0.600264
v 0.324041 0.028764 -0.372625
v 0.321600 0.087612 -0.145088
v 0.319908 0.126102 0.081790
v 0.319450 0.133325 0.307586
v 0.319450 0.133325 0.532979
v 0.319450 0.133325 0.758372
v 0.319450 0.133325 0.983765
v 0.319450 0.133325 1.209159
v 0.420101 -0.351112 -0.827523
v 0.418270 -0.303069 -0.600522
v 0.415816 -0.241338 -0.372975
v 0.413343 -0.182210 -0.145410
v 0.411495 -0.142374 0.081605
v 0.410826 -0.133325 0.307586
v 0.410826 -0.133325 0.532979
v 0.410826 -0.133325 0.758372
v 0.410826 -0.133325 0.983765
v 0.410826 -0.133325 1.209159
v 0.410826 0.133325 1.209159
v 0.410826 0.133325 0.983765
v 0.410826 0.133325 0.758372
v 0.410826 0.133325 0.532979
v 0.410826 0.133325 0.307586
v 0.411284 0.126102 0.081790
v 0.412976 0.087612 -0.145088
v 0.415417 0.028764 -0.372625
v 0.417975 -0.033876 -0.600264
v 0.419978 -0.083392 -0.827415
v 0.410826 -0.044442 1.209159
v 0.410826 -0.044442 0.983765
v 0.410826 -0.044442 0.758372
v 0.410826 -0.044442 0.532979
v 0.410826 -0.044442 0.307586
v 0.411483 -0.053708 0.081616
v 0.413343 -0.094317 -0.145411
v 0.415816 -0.154100 -0.372975
v 0.418266 -0.216459 -0.600519
v 0.420211 -0.266124 -0.827620
v 0.410826 0.044442 1.209159
v 0.410826 0.044442 0.983765
v 0.410826 0.044442 0.758372
v 0.410826 0.044442 0.532979
v 0.410826 0.044442 0.307586
v 0.411409 0.035817 0.081681
v 0.413222 -0.004385 -0.145304
v 0.415718 -0.064366 -0.372889
v 0.418261 -0.127528 -0.600514
v 0.420211 -0.177241 -0.827620
v 0.328835 -0.266124 -0.827620
v 0.326890 -0.216459 -0.600519
v 0.324440 -0.154100 -0.372975
v 0.321967 -0.094317 -0.145411
v 0.320107 -0.053708 0.081616
v 0.319450 -0.044442 0.307586
v 0.319450 -0.044442 0.532979
v 0.319450 -0.044442 0.758372
v 0.319450 -0.044442 0.983765
v 0.319450 -0.044442 1.209159
v 0.328835 -0.177241 -0.827620
v 0.326885 -0.127528 -0.600514
v 0.324342 -0.064366 -0.372889
v 0.321846 -0.004385 -0.145304
v 0.320033 0.035817 0.081681
v 0.319450 0.044442 0.307586
v 0.319450 0.044442 0.532979
v 0.319450 0.044442 0.758372
v 0.319450 0.044442 0.983765
v 0.319450 0.044442 1.209159
v 0.265258 -0.133325 1.209159
v 0.265258 -0.133325 0.983765
v 0.265258 -0.133325 0.758372
v 0.265258 -0.133325 0.532979
v 0.265258 -0.133325 0.307586
v 0.265915 -0.142155 0.081615
v 0.267749 -0.181631 -0.145388
v 0.270210 -0.240405 -0.372942
v 0.272652 -0.301795 -0.600479
v 0.274474 -0.349521 -0.827471
v 0.274343 -0.081740 -0.827356
v 0.272354 -0.032572 -0.600217
v 0.269810 0.029702 -0.372591
v 0.267384 0.088181 -0.145067
v 0.265706 0.126305 0.081799
v 0.265258 0.133325 0.307586
v 0.265258 0.133325 0.532979
v 0.265258 0.133325 0.758372
v 0.265258 0.133325 0.983765
v 0.265258 0.133325 1.209159
v 0.474234 -0.349521 -0.827471
v 0.472412 -0.301795 -0.600479
v 0.469971 -0.240405 -0.372942
v 0.467510 -0.181631 -0.145388
v 0.465676 -0.142155 0.081616
v 0.465018 -0.133325 0.307586
v 0.465018 -0.133325 0.532979
v 0.465018 -0.133325 0.758372
v 0.465018 -0.133325 0.983765
v 0.465018 -0.133325 1.209159
v 0.465018 0.133325 1.209159
v 0.465018 0.133325 0.983765
v 0.465018 0.133325 0.758372
v 0.465018 0.133325 0.532979
v 0.465018 0.133325 0.307586
v 0.465466 0.126305 0.081799
v 0.467144 0.088181 -0.145067
v 0.469571 0.029702 -0.372591
v 0.472115 -0.032572 -0.600217
v 0.474104 -0.081740 -0.827356
v 0.465018 -0.044442 1.209159
v 0.465018 -0.044442 0.983765
v 0.465018 -0.044442 0.758372
v 0.465018 -0.044442 0.532979
v 0.465018 -0.044442 0.307586
v 0.465663 -0.053482 0.081626
v 0.467511 -0.093731 -0.145389
v 0.469971 -0.153157 -0.372942
v 0.472409 -0.215172 -0.600476
v 0.474339 -0.264464 -0.827563
v 0.465018 0.044442 1.209159
v 0.465018 0.044442 0.983765
v 0.465018 0.044442 0.758372
v 0.465018 0.044442 0.532979
v 0.465018 0.044442 0.307586
v 0.465590 0.036036 0.081691
v 0.467389 -0.003800 -0.145282
v 0.469871 -0.063416 -0.372855
v 0.472401 -0.126218 -0.600468
v 0.474339 -0.175581 -0.827563
v 0.274579 -0.264464 -0.827563
v 0.272649 -0.215172 -0.600476
v 0.270210 -0.153157 -0.372942
v 0.267750 -0.093731 -0.145389
v 0.265903 -0.053482 0.081626
v 0.265258 -0.044442 0.307586
v 0.265258 -0.044442 0.532979
v 0.265258 -0.044442 0.758372
v 0.265258 -0.044442 0.983765
v 0.265258 -0.044442 1.209159
v 0.274579 -0.175581 -0.827563
v 0.272640 -0.126218 -0.600468
v 0.270111 -0.063416 -0.372855
v 0.267629 -0.003800 -0.145282
v 0.265829 0.036036 0.081691
v 0.265258 0.044442 0.307586
v 0.265258 0.044442 0.532979
v 0.265258 0.044442 0.758372
v 0.265258 0.044442 0.983765
v 0.265258 0.044442 1.209159
vt 0.091047 0.071684
vt 0.091047 0.044598
vt 0.000173 0.044598
vt 0.000173 0.071683
vt 0.072929 0.665328
vt 0.027259 0.665328
vt 0.027259 0.709753
vt 0.072929 0.709753
vt 0.908927 0.448827
vt 0.908918 0.475913
vt 0.999793 0.475945
vt 0.999802 0.448859
vt 0.173118 0.665328
vt 0.127447 0.665328
vt 0.127447 0.709753
vt 0.173118 0.709753
vt 0.091072 0.402874
vt 0.000198 0.402843
vt 0.000182 0.448514
vt 0.091057 0.448545
vt 0.091047 0.503376
vt 0.000173 0.503376
vt 0.000173 0.549047
vt 0.091047 0.549047
vt 0.173118 0.576479
vt 0.127447 0.576479
vt 0.127447 0.620903
vt 0.173118 0.620903
vt 0.100015 0.709753
vt 0.100015 0.665328
vt 0.000173 0.116108
vt 0.091047 0.116108
vt 0.072929 0.576479
vt 0.027259 0.576479
vt 0.027259 0.620903
vt 0.072929 0.620903
vt 0.000173 0.576479
vt 0.000173 0.620903
vt 0.908918 0.303901
vt 0.999793 0.303901
vt 0.999793 0.259476
vt 0.908918 0.259476
vt 0.908918 0.232390
vt 0.999793 0.232390
vt 0.999793 0.187965
vt 0.908918 0.187965
vt 0.091047 0.143194
vt 0.000173 0.143194
vt 0.000173 0.187619
vt 0.091047 0.187619
vt 0.091048 0.000173
vt 0.000173 0.000173
vt 0.908918 0.375411
vt 0.999793 0.375411
vt 0.999793 0.330986
vt 0.908918 0.330986
vt 0.091082 0.375789
vt 0.000207 0.375757
vt 0.091047 0.476291
vt 0.000173 0.476291
vt 0.908918 0.116109
vt 0.908918 0.143195
vt 0.999793 0.143195
vt 0.999793 0.116109
vt 0.100361 0.665328
vt 0.100361 0.709753
vt 0.000173 0.665328
vt 0.000173 0.709753
vt 0.200203 0.620903
vt 0.200203 0.576479
vt 0.908918 0.549047
vt 0.908918 0.576133
vt 0.999793 0.576133
vt 0.999793 0.549047
vt 0.100015 0.620903
vt 0.100015 0.576479
vt 0.200203 0.709753
vt 0.200203 0.665328
vt 0.100361 0.576479
vt 0.100361 0.620903
vt 0.091047 0.259476
vt 0.091047 0.232390
vt 0.000173 0.232390
vt 0.000173 0.259476
vt 0.818044 0.232390
vt 0.818044 0.259476
vt 0.727169 0.232390
vt 0.727169 0.259476
vt 0.636295 0.232390
vt 0.636295 0.259476
vt 0.545420 0.232390
vt 0.545420 0.259476
vt 0.454546 0.232390
vt 0.454546 0.259476
vt 0.363671 0.232390
vt 0.363671 0.259476
vt 0.272797 0.232390
vt 0.272797 0.259476
vt 0.181922 0.232390
vt 0.181922 0.259476
vt 0.000173 0.303901
vt 0.000173 0.330987
vt 0.091047 0.330987
vt 0.091047 0.303901
vt 0.181922 0.330987
vt 0.181922 0.303901
vt 0.272797 0.330987
vt 0.272797 0.303901
vt 0.363671 0.330987
vt 0.363671 0.303901
vt 0.454546 0.330987
vt 0.454546 0.303901
vt 0.545420 0.330987
vt 0.545420 0.303901
vt 0.636295 0.330987
vt 0.636295 0.303901
vt 0.727169 0.330987
vt 0.727169 0.303901
vt 0.818044 0.330986
vt 0.818044 0.303901
vt 0.000173 0.576133
vt 0.091047 0.576133
vt 0.181922 0.576133
vt 0.181922 0.549047
vt 0.272796 0.576133
vt 0.272796 0.549047
vt 0.363671 0.576133
vt 0.363671 0.549047
vt 0.454546 0.576133
vt 0.454546 0.549047
vt 0.545420 0.576133
vt 0.545420 0.549047
vt 0.636295 0.576133
vt 0.636295 0.549047
vt 0.727169 0.576133
vt 0.727169 0.549047
vt 0.818044 0.576133
vt 0.818044 0.549047
vt 0.181922 0.143194
vt 0.181922 0.116108
vt 0.272796 0.143194
vt 0.272796 0.116108
vt 0.363671 0.143194
vt 0.363671 0.116108
vt 0.454546 0.143194
vt 0.454546 0.116109
vt 0.545420 0.143194
vt 0.545420 0.116109
vt 0.636295 0.143195
vt 0.636295 0.116109
vt 0.727169 0.143195
vt 0.727169 0.116109
vt 0.818044 0.143195
vt 0.818044 0.116109
vt 0.999793 0.503376
vt 0.999793 0.476291
vt 0.908918 0.476291
vt 0.908918 0.503376
vt 0.818044 0.476291
vt 0.818044 0.503376
vt 0.727169 0.476291
vt 0.727169 0.503376
vt 0.636295 0.476291
vt 0.636295 0.503376
vt 0.545420 0.476291
vt 0.545420 0.503376
vt 0.454546 0.476291
vt 0.454546 0.503376
vt 0.363671 0.476291
vt 0.363671 0.503376
vt 0.272796 0.476291
vt 0.272796 0.503376
vt 0.181922 0.476291
vt 0.181922 0.503376
vt 0.999818 0.403188
vt 0.999827 0.376102
vt 0.908952 0.376071
vt 0.908943 0.403157
vt 0.818078 0.376040
vt 0.818069 0.403125
vt 0.727203 0.376008
vt 0.727194 0.403094
vt 0.636329 0.375977
vt 0.636319 0.403063
vt 0.545454 0.375945
vt 0.545445 0.403031
vt 0.454580 0.375914
vt 0.454570 0.403000
vt 0.363705 0.375883
vt 0.363696 0.402969
vt 0.272831 0.375851
vt 0.272821 0.402937
vt 0.181956 0.375820
vt 0.181947 0.402906
vt 0.000173 0.375411
vt 0.091047 0.375411
vt 0.181922 0.375411
vt 0.272797 0.375411
vt 0.363671 0.375411
vt 0.454546 0.375411
vt 0.545420 0.375411
vt 0.636295 0.375411
vt 0.727169 0.375411
vt 0.818044 0.375411
vt 0.999793 0.000174
vt 0.908918 0.000174
vt 0.908918 0.044598
vt 0.999793 0.044598
vt 0.818044 0.000174
vt 0.818044 0.044598
vt 0.727169 0.000173
vt 0.727169 0.044598
vt 0.636295 0.000173
vt 0.636295 0.044598
vt 0.545420 0.000173
vt 0.545420 0.044598
vt 0.454546 0.000173
vt 0.454546 0.044598
vt 0.363671 0.000173
vt 0.363671 0.044598
vt 0.272797 0.000173
vt 0.272797 0.044598
vt 0.181922 0.000173
vt 0.181922 0.044598
vt 0.908918 0.187620
vt 0.999793 0.187620
vt 0.818044 0.187619
vt 0.727169 0.187619
vt 0.636295 0.187619
vt 0.545420 0.187619
vt 0.454545 0.187619
vt 0.363671 0.187619
vt 0.272796 0.187619
vt 0.181922 0.187619
vt 0.091047 0.187966
vt 0.000173 0.187966
vt 0.181922 0.187966
vt 0.272797 0.187966
vt 0.363671 0.187966
vt 0.454546 0.187966
vt 0.545420 0.187965
vt 0.636295 0.187965
vt 0.727169 0.187965
vt 0.818044 0.187965
vt 0.999793 0.071684
vt 0.908918 0.071684
vt 0.818044 0.071684
vt 0.727169 0.071684
vt 0.636295 0.071684
vt 0.545420 0.071684
vt 0.454546 0.071684
vt 0.363671 0.071684
vt 0.272797 0.071684
vt 0.181922 0.071684
vt 0.818053 0.448796
vt 0.727178 0.448765
vt 0.636304 0.448733
vt 0.545429 0.448702
vt 0.454554 0.448670
vt 0.363680 0.448639
vt 0.272806 0.448608
vt 0.181931 0.448576
vt 0.000173 0.475599
vt 0.091047 0.475631
vt 0.181922 0.475662
vt 0.272796 0.475694
vt 0.363671 0.475725
vt 0.454545 0.475756
vt 0.545420 0.475788
vt 0.636294 0.475819
vt 0.727169 0.475851
vt 0.818043 0.475882
vn -0.0331 0.9956 -0.0880
vn 0.0000 0.0000 1.0000
vn 0.0000 -1.0000 0.0000
vn 0.0000 0.0020 -1.0000
vn 0.0000 -0.9965 0.0838
vn 0.0000 0.9962 -0.0873
vn 0.0000 -0.0019 -1.0000
vn 0.0000 0.0000 -1.0000
vn 1.0000 0.0000 0.0034
vn -1.0000 0.0000 0.0000
vn 1.0000 0.0024 0.0032
vn 1.0000 -0.0016 0.0034
vn -0.0310 -0.9961 0.0832
vn -0.0323 0.9957 -0.0869
vn -0.0011 0.0020 -1.0000
vn 0.0012 -0.0019 -1.0000
vn 0.0000 1.0000 0.0000
vn 0.0011 0.0020 -1.0000
vn -0.0012 -0.0018 -1.0000
vn -0.0330 -0.9956 0.0878
vn -0.0020 -0.9993 0.0377
vn -0.0073 -0.9848 0.1736
vn -0.0136 -0.9671 0.2540
vn -0.0199 -0.9637 0.2664
vn -0.0265 -0.9767 0.2128
vn 0.0330 0.9956 -0.0878
vn 0.0263 0.9768 -0.2126
vn 0.0196 0.9645 -0.2634
vn 0.0135 0.9673 -0.2532
vn 0.0073 0.9845 -0.1753
vn 0.0021 0.9992 -0.0405
vn 0.0323 0.9957 -0.0867
vn 0.0264 0.9769 -0.2120
vn 0.0197 0.9642 -0.2643
vn 0.0133 0.9683 -0.2495
vn 0.0070 0.9860 -0.1664
vn 0.0019 0.9995 -0.0315
vn 0.0331 -0.9956 0.0880
vn 0.0266 -0.9766 0.2133
vn 0.0199 -0.9635 0.2668
vn 0.0136 -0.9670 0.2543
vn 0.0073 -0.9848 0.1737
vn 0.0020 -0.9993 0.0377
vn -0.0019 0.9995 -0.0315
vn -0.0070 0.9860 -0.1665
vn -0.0133 0.9682 -0.2498
vn -0.0198 0.9641 -0.2648
vn -0.0265 0.9768 -0.2124
vn -0.0020 -0.9992 0.0395
vn -0.0072 -0.9851 0.1720
vn -0.0134 -0.9680 0.2506
vn -0.0195 -0.9652 0.2609
vn -0.0257 -0.9782 0.2061
vn -1.0000 0.0016 -0.0034
vn -1.0000 0.0006 -0.0084
vn -0.9999 -0.0000 -0.0107
vn -0.9999 0.0000 -0.0108
vn -1.0000 -0.0001 -0.0081
vn -1.0000 -0.0001 -0.0029
vn 1.0000 0.0000 0.0000
vn 1.0000 0.0001 0.0029
vn 1.0000 0.0001 0.0081
vn 0.9999 -0.0000 0.0108
vn 0.9999 0.0000 0.0107
vn 1.0000 -0.0006 0.0084
vn 1.0000 0.0007 0.0022
vn 1.0000 0.0020 0.0073
vn 0.9999 0.0029 0.0100
vn 0.9999 0.0031 0.0103
vn 1.0000 0.0028 0.0080
vn -1.0000 -0.0024 -0.0032
vn -1.0000 -0.0028 -0.0080
vn -0.9999 -0.0031 -0.0103
vn -0.9999 -0.0029 -0.0100
vn -1.0000 -0.0020 -0.0073
vn -1.0000 -0.0007 -0.0022
vn -1.0000 0.0000 -0.0034
vn -1.0000 -0.0000 -0.0086
vn -0.9999 -0.0006 -0.0108
vn -0.9999 -0.0012 -0.0106
vn -1.0000 -0.0011 -0.0079
vn -1.0000 -0.0004 -0.0027
vn 1.0000 0.0004 0.0027
vn 1.0000 0.0011 0.0079
vn 0.9999 0.0012 0.0106
vn 0.9999 0.0006 0.0108
vn 1.0000 0.0000 0.0086
vn -0.0000 0.9995 -0.0320
vn -0.0000 0.9859 -0.1673
vn -0.0000 0.9681 -0.2504
vn -0.0000 0.9642 -0.2653
vn 0.0000 0.9771 -0.2130
vn 0.0000 -0.9992 0.0400
vn -0.0000 -0.9850 0.1728
vn -0.0000 -0.9679 0.2515
vn -0.0000 -0.9651 0.2618
vn 0.0000 -0.9783 0.2071
vn 0.0310 -0.9960 0.0834
vn 0.0257 -0.9781 0.2065
vn 0.0195 -0.9651 0.2613
vn 0.0134 -0.9679 0.2509
vn 0.0072 -0.9850 0.1721
vn 0.0020 -0.9992 0.0395
vn -0.0021 0.9992 -0.0405
vn -0.0073 0.9845 -0.1754
vn -0.0135 0.9672 -0.2535
vn -0.0197 0.9644 -0.2638
vn -0.0264 0.9767 -0.2130
usemtl None
s off
f 82/1/1 162/2/1 28/3/1 16/4/1
f 11/5/2 13/6/2 8/7/2 4/8/2
f 62/9/3 142/10/3 24/11/3 7/12/3
f 15/13/4 10/14/4 2/15/4 6/16/4
f 42/17/5 1/18/5 5/19/5 53/20/5
f 72/21/6 6/22/6 2/23/6 43/24/6
f 5/25/7 1/26/7 9/27/7 16/28/7
f 16/28/8 9/27/8 10/14/8 15/13/8
f 4/8/2 21/29/2 30/30/2 11/5/2
f 82/1/9 16/4/9 15/31/9 92/32/9
f 3/33/2 7/34/2 14/35/2 12/36/2
f 12/36/2 14/35/2 13/6/2 11/5/2
f 7/34/2 24/37/2 23/38/2 14/35/2
f 102/39/10 12/40/10 11/41/10 112/42/10
f 192/43/10 30/44/10 21/45/10 132/46/10
f 172/47/11 32/48/11 27/49/11 152/50/11
f 133/51/12 25/52/12 28/3/12 162/2/12
f 113/53/10 17/54/10 22/55/10 182/56/10
f 42/17/13 122/57/13 18/58/13 1/18/13
f 72/21/14 152/59/14 27/60/14 6/22/14
f 83/61/3 163/62/3 31/63/3 13/64/3
f 10/14/15 19/65/15 20/66/15 2/15/15
f 13/6/2 31/67/2 26/68/2 8/7/2
f 16/28/16 28/69/16 25/70/16 5/25/16
f 52/71/17 132/72/17 21/73/17 4/74/17
f 12/36/2 22/75/2 17/76/2 3/33/2
f 6/16/18 27/77/18 32/78/18 15/13/18
f 102/39/17 182/56/17 22/55/17 12/40/17
f 1/26/19 18/79/19 29/80/19 9/27/19
f 103/81/20 183/82/20 19/83/20 10/84/20
f 11/41/3 30/44/3 192/43/3 112/42/3
f 112/42/3 192/43/3 191/85/3 111/86/3
f 111/86/3 191/85/3 190/87/3 110/88/3
f 110/88/3 190/87/3 189/89/3 109/90/3
f 109/90/3 189/89/3 188/91/3 108/92/3
f 108/92/21 188/91/21 187/93/21 107/94/21
f 107/94/22 187/93/22 186/95/22 106/96/22
f 106/96/23 186/95/23 185/97/23 105/98/23
f 105/98/24 185/97/24 184/99/24 104/100/24
f 104/100/25 184/99/25 183/82/25 103/81/25
f 9/101/26 29/102/26 173/103/26 93/104/26
f 93/104/27 173/103/27 174/105/27 94/106/27
f 94/106/28 174/105/28 175/107/28 95/108/28
f 95/108/29 175/107/29 176/109/29 96/110/29
f 96/110/30 176/109/30 177/111/30 97/112/30
f 97/112/31 177/111/31 178/113/31 98/114/31
f 98/114/17 178/113/17 179/115/17 99/116/17
f 99/116/17 179/115/17 180/117/17 100/118/17
f 100/118/17 180/117/17 181/119/17 101/120/17
f 101/120/17 181/119/17 182/56/17 102/39/17
f 2/23/32 20/121/32 123/122/32 43/24/32
f 43/24/33 123/122/33 124/123/33 44/124/33
f 44/124/34 124/123/34 125/125/34 45/126/34
f 45/126/35 125/125/35 126/127/35 46/128/35
f 46/128/36 126/127/36 127/129/36 47/130/36
f 47/130/37 127/129/37 128/131/37 48/132/37
f 48/132/17 128/131/17 129/133/17 49/134/17
f 49/134/17 129/133/17 130/135/17 50/136/17
f 50/136/17 130/135/17 131/137/17 51/138/17
f 51/138/17 131/137/17 132/72/17 52/71/17
f 15/31/38 32/48/38 172/47/38 92/32/38
f 92/32/39 172/47/39 171/139/39 91/140/39
f 91/140/40 171/139/40 170/141/40 90/142/40
f 90/142/41 170/141/41 169/143/41 89/144/41
f 89/144/42 169/143/42 168/145/42 88/146/42
f 88/146/43 168/145/43 167/147/43 87/148/43
f 87/148/3 167/147/3 166/149/3 86/150/3
f 86/150/3 166/149/3 165/151/3 85/152/3
f 85/152/3 165/151/3 164/153/3 84/154/3
f 84/154/3 164/153/3 163/62/3 83/61/3
f 8/155/17 26/156/17 143/157/17 63/158/17
f 63/158/17 143/157/17 144/159/17 64/160/17
f 64/160/17 144/159/17 145/161/17 65/162/17
f 65/162/17 145/161/17 146/163/17 66/164/17
f 66/164/17 146/163/17 147/165/17 67/166/17
f 67/166/44 147/165/44 148/167/44 68/168/44
f 68/168/45 148/167/45 149/169/45 69/170/45
f 69/170/46 149/169/46 150/171/46 70/172/46
f 70/172/47 150/171/47 151/173/47 71/174/47
f 71/174/48 151/173/48 152/59/48 72/21/48
f 3/175/3 17/176/3 113/177/3 33/178/3
f 33/178/3 113/177/3 114/179/3 34/180/3
f 34/180/3 114/179/3 115/181/3 35/182/3
f 35/182/3 115/181/3 116/183/3 36/184/3
f 36/184/3 116/183/3 117/185/3 37/186/3
f 37/186/49 117/185/49 118/187/49 38/188/49
f 38/188/50 118/187/50 119/189/50 39/190/50
f 39/190/51 119/189/51 120/191/51 40/192/51
f 40/192/52 120/191/52 121/193/52 41/194/52
f 41/194/53 121/193/53 122/57/53 42/17/53
f 18/195/54 122/196/54 173/103/54 29/102/54
f 122/196/55 121/197/55 174/105/55 173/103/55
f 121/197/56 120/198/56 175/107/56 174/105/56
f 120/198/57 119/199/57 176/109/57 175/107/57
f 119/199/58 118/200/58 177/111/58 176/109/58
f 118/200/59 117/201/59 178/113/59 177/111/59
f 117/201/10 116/202/10 179/115/10 178/113/10
f 116/202/10 115/203/10 180/117/10 179/115/10
f 115/203/10 114/204/10 181/119/10 180/117/10
f 114/204/10 113/53/10 182/56/10 181/119/10
f 24/205/60 142/206/60 153/207/60 23/208/60
f 142/206/60 141/209/60 154/210/60 153/207/60
f 141/209/60 140/211/60 155/212/60 154/210/60
f 140/211/60 139/213/60 156/214/60 155/212/60
f 139/213/60 138/215/60 157/216/60 156/214/60
f 138/215/61 137/217/61 158/218/61 157/216/61
f 137/217/62 136/219/62 159/220/62 158/218/62
f 136/219/63 135/221/63 160/222/63 159/220/63
f 135/221/64 134/223/64 161/224/64 160/222/64
f 134/223/65 133/51/65 162/2/65 161/224/65
f 31/63/60 163/62/60 143/225/60 26/226/60
f 163/62/60 164/153/60 144/227/60 143/225/60
f 164/153/60 165/151/60 145/228/60 144/227/60
f 165/151/60 166/149/60 146/229/60 145/228/60
f 166/149/60 167/147/60 147/230/60 146/229/60
f 167/147/66 168/145/66 148/231/66 147/230/66
f 168/145/67 169/143/67 149/232/67 148/231/67
f 169/143/68 170/141/68 150/233/68 149/232/68
f 170/141/69 171/139/69 151/234/69 150/233/69
f 171/139/70 172/47/70 152/50/70 151/234/70
f 19/83/71 183/82/71 123/235/71 20/236/71
f 183/82/72 184/99/72 124/237/72 123/235/72
f 184/99/73 185/97/73 125/238/73 124/237/73
f 185/97/74 186/95/74 126/239/74 125/238/74
f 186/95/75 187/93/75 127/240/75 126/239/75
f 187/93/76 188/91/76 128/241/76 127/240/76
f 188/91/10 189/89/10 129/242/10 128/241/10
f 189/89/10 190/87/10 130/243/10 129/242/10
f 190/87/10 191/85/10 131/244/10 130/243/10
f 191/85/10 192/43/10 132/46/10 131/244/10
f 9/101/77 93/104/77 103/81/77 10/84/77
f 93/104/78 94/106/78 104/100/78 103/81/78
f 94/106/79 95/108/79 105/98/79 104/100/79
f 95/108/80 96/110/80 106/96/80 105/98/80
f 96/110/81 97/112/81 107/94/81 106/96/81
f 97/112/82 98/114/82 108/92/82 107/94/82
f 98/114/10 99/116/10 109/90/10 108/92/10
f 99/116/10 100/118/10 110/88/10 109/90/10
f 100/118/10 101/120/10 111/86/10 110/88/10
f 101/120/10 102/39/10 112/42/10 111/86/10
f 14/245/60 73/246/60 83/61/60 13/64/60
f 73/246/60 74/247/60 84/154/60 83/61/60
f 74/247/60 75/248/60 85/152/60 84/154/60
f 75/248/60 76/249/60 86/150/60 85/152/60
f 76/249/60 77/250/60 87/148/60 86/150/60
f 77/250/83 78/251/83 88/146/83 87/148/83
f 78/251/84 79/252/84 89/144/84 88/146/84
f 79/252/85 80/253/85 90/142/85 89/144/85
f 80/253/86 81/254/86 91/140/86 90/142/86
f 81/254/87 82/1/87 92/32/87 91/140/87
f 8/155/17 63/158/17 52/71/17 4/74/17
f 63/158/17 64/160/17 51/138/17 52/71/17
f 64/160/17 65/162/17 50/136/17 51/138/17
f 65/162/17 66/164/17 49/134/17 50/136/17
f 66/164/17 67/166/17 48/132/17 49/134/17
f 67/166/88 68/168/88 47/130/88 48/132/88
f 68/168/89 69/170/89 46/128/89 47/130/89
f 69/170/90 70/172/90 45/126/90 46/128/90
f 70/172/91 71/174/91 44/124/91 45/126/91
f 71/174/92 72/21/92 43/24/92 44/124/92
f 3/175/3 33/178/3 62/9/3 7/12/3
f 33/178/3 34/180/3 61/255/3 62/9/3
f 34/180/3 35/182/3 60/256/3 61/255/3
f 35/182/3 36/184/3 59/257/3 60/256/3
f 36/184/3 37/186/3 58/258/3 59/257/3
f 37/186/93 38/188/93 57/259/93 58/258/93
f 38/188/94 39/190/94 56/260/94 57/259/94
f 39/190/95 40/192/95 55/261/95 56/260/95
f 40/192/96 41/194/96 54/262/96 55/261/96
f 41/194/97 42/17/97 53/20/97 54/262/97
f 5/19/98 25/263/98 133/264/98 53/20/98
f 53/20/99 133/264/99 134/265/99 54/262/99
f 54/262/100 134/265/100 135/266/100 55/261/100
f 55/261/101 135/266/101 136/267/101 56/260/101
f 56/260/102 136/267/102 137/268/102 57/259/102
f 57/259/103 137/268/103 138/269/103 58/258/103
f 58/258/3 138/269/3 139/270/3 59/257/3
f 59/257/3 139/270/3 140/271/3 60/256/3
f 60/256/3 140/271/3 141/272/3 61/255/3
f 61/255/3 141/272/3 142/10/3 62/9/3
f 14/245/17 23/208/17 153/207/17 73/246/17
f 73/246/17 153/207/17 154/210/17 74/247/17
f 74/247/17 154/210/17 155/212/17 75/248/17
f 75/248/17 155/212/17 156/214/17 76/249/17
f 76/249/17 156/214/17 157/216/17 77/250/17
f 77/250/104 157/216/104 158/218/104 78/251/104
f 78/251/105 158/218/105 159/220/105 79/252/105
f 79/252/106 159/220/106 160/222/106 80/253/106
f 80/253/107 160/222/107 161/224/107 81/254/107
f 81/254/108 161/224/108 162/2/108 82/1/108
