# Blender v2.79 (sub 0) OBJ File: ''
# www.blender.org
mtllib Deckel1.mtl
o Cube.001_Cube.003
v 1.012497 1.009759 0.750585
v 0.933053 0.997434 0.944765
v 0.250000 0.996934 0.750000
v 0.000000 0.997969 0.750000
v -0.000426 0.986735 0.986415
v 0.239170 1.010541 1.102799
v 0.000000 0.985894 0.000000
v 0.250000 1.005273 0.000000
v 1.006268 1.006048 0.000149
v 0.749113 0.988122 0.985819
v 0.499913 1.004984 1.005662
v 0.500000 1.002456 0.000000
v 0.750000 0.989937 0.000000
v 0.750000 1.005273 0.750000
v 0.500000 1.012388 0.750000
v 0.500000 0.985978 0.500000
v 0.750000 0.985253 0.500000
v 0.000000 1.001238 0.500000
v 0.250000 0.986978 0.500000
v 1.000697 1.000600 0.500017
vt 0.498999 0.751001
vt 0.251001 0.751001
vt 0.251001 0.998999
vt 0.498999 0.998999
vt 0.248999 0.251001
vt 0.001001 0.251001
vt 0.001001 0.498999
vt 0.248999 0.498999
vt 0.498999 0.001001
vt 0.251001 0.001001
vt 0.251001 0.248999
vt 0.498999 0.248999
vt 0.498999 0.251001
vt 0.251001 0.251001
vt 0.251001 0.498999
vt 0.498999 0.498999
vt 0.248999 0.501001
vt 0.001001 0.501001
vt 0.001001 0.748999
vt 0.248999 0.748999
vt 0.748999 0.001001
vt 0.501001 0.001001
vt 0.501001 0.248999
vt 0.748999 0.248999
vt 0.748999 0.251001
vt 0.501001 0.251001
vt 0.501001 0.498999
vt 0.748999 0.498999
vt 0.498999 0.501001
vt 0.251001 0.501001
vt 0.251001 0.748999
vt 0.498999 0.748999
vt 0.748999 0.501001
vt 0.501001 0.501001
vt 0.501001 0.748999
vt 0.748999 0.748999
vt 0.248999 0.751001
vt 0.001001 0.751001
vt 0.001001 0.998999
vt 0.248999 0.998999
vt 0.998999 0.001001
vt 0.751001 0.001001
vt 0.751001 0.248999
vt 0.998999 0.248999
vt 0.248999 0.001001
vt 0.001001 0.001001
vt 0.001001 0.248999
vt 0.248999 0.248999
vn -0.0161 0.9995 -0.0254
vn -0.0074 0.9999 -0.0091
vn -0.0453 0.9990 -0.0049
vn -0.0332 0.9994 -0.0078
vn 0.0005 1.0000 -0.0091
vn 0.0039 0.9995 -0.0314
vn 0.0097 0.9998 0.0159
vn 0.0162 0.9983 0.0562
vn -0.0177 0.9997 0.0155
vn 0.0170 0.9995 0.0280
vn 0.0052 0.9996 -0.0273
vn -0.0146 0.9995 -0.0297
vn -0.0013 0.9998 0.0189
vn -0.0102 0.9999 0.0030
vn 0.0102 0.9999 -0.0052
vn -0.0002 0.9999 -0.0121
vn -0.0501 0.9985 -0.0241
vn -0.0327 0.9995 -0.0043
vn -0.0619 0.9980 0.0098
vn -0.0251 0.9977 0.0637
usemtl Material.001
s 1
f 3/1/1 4/2/2 5/3/3 6/4/4
f 14/5/5 15/6/6 11/7/7 10/8/8
f 13/9/9 12/10/10 16/11/11 17/12/12
f 8/13/13 7/14/14 18/15/15 19/16/16
f 17/17/12 16/18/11 15/19/6 14/20/5
f 19/21/16 18/22/15 4/23/2 3/24/1
f 16/25/11 19/26/16 3/27/1 15/28/6
f 12/29/10 8/30/13 19/31/16 16/32/11
f 15/33/6 3/34/1 6/35/4 11/36/7
f 20/37/17 17/38/12 14/39/5 1/40/18
f 9/41/19 13/42/9 17/43/12 20/44/17
f 1/45/18 14/46/5 10/47/8 2/48/20
