# Blender v2.79 (sub 0) OBJ File: ''
# www.blender.org
mtllib Deckel2.mtl
o Cube.000_Cube.002
v -0.529116 1.009611 0.953516
v -0.918664 0.994394 1.123975
v -0.499977 0.980071 0.749950
v -1.162878 0.997089 0.869920
v 0.000000 0.997969 0.750000
v -0.000426 0.986735 0.986415
v 0.000000 0.985894 0.000000
v -1.016193 1.014622 0.000252
v -0.500000 1.013852 0.000000
v -1.206420 1.000413 0.551406
v 0.000000 1.001238 0.500000
v -0.499985 1.002669 0.499966
vt 0.332332 0.001001
vt 0.001001 0.001001
vt 0.001001 0.332332
vt 0.332332 0.332332
vt 0.332332 0.334334
vt 0.001001 0.334334
vt 0.001001 0.665666
vt 0.332332 0.665666
vt 0.665666 0.001001
vt 0.334334 0.001001
vt 0.334334 0.332332
vt 0.665666 0.332332
vt 0.665666 0.334334
vt 0.334334 0.334334
vt 0.334334 0.665666
vt 0.665666 0.665666
vt 0.332332 0.667668
vt 0.001001 0.667668
vt 0.001001 0.998999
vt 0.332332 0.998999
vt 0.998999 0.001001
vt 0.667668 0.001001
vt 0.667668 0.332332
vt 0.998999 0.332332
vn -0.0004 1.0000 0.0036
vn 0.0049 1.0000 0.0064
vn -0.0128 0.9985 -0.0526
vn -0.0050 0.9988 -0.0479
vn -0.0052 1.0000 0.0053
vn 0.0062 0.9991 -0.0412
vn 0.0294 0.9996 -0.0042
vn 0.0146 0.9998 0.0100
vn 0.0071 0.9996 0.0288
vn 0.0065 0.9997 0.0238
vn -0.0002 0.9997 0.0241
vn 0.0091 0.9993 0.0355
usemtl Material.001
s 1
f 3/1/1 4/2/2 2/3/3 1/4/4
f 5/5/5 3/6/1 1/7/4 6/8/6
f 7/9/7 9/10/8 12/11/9 11/12/10
f 9/13/8 8/14/11 10/15/12 12/16/9
f 11/17/10 12/18/9 3/19/1 5/20/5
f 12/21/9 10/22/12 4/23/2 3/24/1
