# Blender v2.79 (sub 0) OBJ File: 'Objekte.blend'
# www.blender.org
mtllib Debris2.mtl
o Plane.001
v -5.421016 0.000000 1.000000
v -3.421016 0.000000 1.000000
v -3.421016 0.000000 -1.000000
v -5.421016 0.000000 0.994697
v -4.143889 0.000000 -0.856425
v -4.493854 0.000000 -0.522334
v -4.305411 0.000000 -0.297998
v -4.574615 0.000000 -0.248644
v -4.619482 0.000000 -0.096096
v -4.825871 0.000000 0.132727
v -4.834844 0.000000 0.410903
v -5.139941 0.000000 0.594859
v -5.226683 0.117115 0.976445
v -3.421016 0.150955 1.000000
v -3.421016 0.124722 -1.000000
v -5.199962 0.138471 0.801131
v -4.094216 0.117115 -0.783571
v -4.368014 0.117115 -0.522334
v -4.251986 0.219787 -0.345640
v -4.574615 0.117115 -0.248644
v -4.452951 0.152408 -0.076528
v -4.690693 0.131224 0.126095
v -4.725827 0.231780 0.458014
v -4.992719 0.117115 0.677303
vt 0.456849 0.298953
vt 0.409739 0.242870
vt 0.497229 0.159348
vt 0.677945 0.123455
vt 0.677945 0.623448
vt 0.378333 0.349428
vt 0.389549 0.311291
vt 0.324493 0.476176
vt 0.326736 0.406633
vt 0.177952 0.623449
vt 0.177952 0.622123
vt 0.248220 0.522164
vt 0.357418 0.444618
vt 0.193233 0.651370
vt 0.247348 0.483096
vt 0.312665 0.414665
vt 0.693241 0.651370
vt 0.381088 0.363020
vt 0.424300 0.393731
vt 0.474841 0.334110
vt 0.558391 0.326261
vt 0.687336 0.199971
vt 0.612549 0.258455
vt 0.643644 0.206874
vt 0.521646 0.188674
vt 0.521646 0.688655
vt 0.484070 0.688680
vt 0.491949 0.237233
vt 0.273747 0.588153
vt 0.292771 0.522547
vt 0.320654 0.530833
vt 0.320654 0.618574
vt 0.635974 0.788923
vt 0.631545 0.604900
vt 0.663128 0.612045
vt 0.666944 0.788331
vt 0.575322 0.674087
vt 0.588838 0.590113
vt 0.617140 0.624748
vt 0.631545 0.704959
vt 0.473335 0.231614
vt 0.473335 0.731608
vt 0.442155 0.731608
vt 0.435597 0.231614
vt 0.380399 0.361891
vt 0.418530 0.350663
vt 0.636428 0.499994
vt 0.666944 0.529979
vt 0.609309 0.499994
vt 0.631545 0.568425
vt 0.401167 0.548560
vt 0.407256 0.484974
vt 0.439974 0.518793
vt 0.439974 0.588552
vt 0.691229 0.150293
vt 0.692554 0.150293
vt 0.604879 0.569352
vt 0.568796 0.538030
vt 0.600701 0.490342
vt 0.604879 0.526449
vt 0.475739 0.299076
vt 0.545264 0.296799
vn 0.0000 -1.0000 0.0000
vn -0.1466 0.9500 -0.2756
vn -0.1626 0.9789 0.1237
vn 0.1035 0.9945 -0.0130
vn 0.0636 0.9914 -0.1147
vn -0.0470 0.9853 0.1642
vn -0.0070 0.0926 0.9957
vn -0.2221 -0.1019 -0.9697
vn -0.2378 0.3246 -0.9154
vn -0.5347 0.6099 -0.5850
vn 1.0000 0.0000 0.0000
vn -0.8464 0.5125 0.1445
vn -0.5544 0.5961 -0.5808
vn -0.5789 0.5890 -0.5639
vn -0.5609 0.6216 -0.5469
vn -0.5143 0.8573 0.0253
vn -0.7576 0.4675 0.4555
vn -0.8122 0.5633 -0.1516
usemtl None
s off
f 7/1/1 6/2/1 5/3/1 3/4/1
f 2/5/1 9/6/1 8/7/1 7/1/1
f 2/5/1 7/1/1 3/4/1
f 2/5/1 11/8/1 10/9/1 9/6/1
f 1/10/1 4/11/1 12/12/1 11/8/1 2/5/1
f 19/13/2 15/14/2 17/15/2 18/16/2
f 14/17/3 19/13/3 20/18/3 21/19/3
f 14/17/4 15/14/4 19/13/4
f 14/17/5 21/19/5 22/20/5 23/21/5
f 13/22/6 14/17/6 23/21/6 24/23/6 16/24/6
f 1/25/7 2/26/7 14/27/7 13/28/7
f 7/29/8 8/30/8 20/31/8 19/32/8
f 3/33/9 5/34/9 17/35/9 15/36/9
f 11/37/10 12/38/10 24/39/10 23/40/10
f 2/41/11 3/42/11 15/43/11 14/44/11
f 8/45/12 9/46/12 21/19/12 20/18/12
f 5/34/13 6/47/13 18/48/13 17/35/13
f 12/38/14 4/49/14 16/50/14 24/39/14
f 9/51/15 10/52/15 22/53/15 21/54/15
f 4/55/16 1/56/16 13/22/16 16/24/16
f 6/57/17 7/58/17 19/59/17 18/60/17
f 10/61/18 11/62/18 23/21/18 22/20/18
