# Blender v2.79 (sub 0) OBJ File: 'Objekte.blend'
# www.blender.org
mtllib Hausnummerodos.mtl
o Cube.002
v -0.633227 0.003731 1.000000
v -1.000000 0.003731 0.552844
v 0.302699 1.424496 0.888360
v 0.589207 0.628590 0.873727
v 1.000000 0.003731 0.616086
v 0.696810 0.003731 1.000000
v -0.830434 0.785658 -0.112455
v -0.731799 1.240496 -0.073944
v 0.383240 0.003731 -1.000000
v 1.000000 0.003731 -0.383240
v -0.830434 0.785658 0.308072
v -0.732513 1.237206 0.260033
v -1.000000 0.003731 -0.339930
v -0.339930 0.003731 -1.000000
v -0.249173 1.424496 0.888360
v -0.530868 0.628590 0.873727
v -0.465770 2.033947 0.296797
v -0.627547 1.721240 0.208538
v -0.286345 2.033947 0.476222
v -0.473488 1.853933 0.856584
v 0.337840 2.033947 0.476222
v 0.531172 1.853933 0.856584
v 0.473604 2.033947 0.340459
v 0.638137 1.717454 0.245045
v 0.473604 2.033947 -0.166631
v 0.638137 1.717454 -0.057159
v 0.177083 2.033947 -0.463152
v 0.130441 1.768311 -0.601327
v -0.139349 2.033947 -0.463152
v -0.093457 1.768311 -0.601327
v -0.465770 2.033947 -0.136730
v -0.627547 1.721240 -0.033238
v 0.834092 0.789443 0.356334
v 0.740073 1.234703 0.302937
v 0.834092 0.789443 -0.144336
v 0.739223 1.238726 -0.102131
v 0.211960 0.738587 -0.833974
v 0.171871 1.244980 -0.719564
v -0.171302 0.738587 -0.833974
v -0.132991 1.245359 -0.719478
v 0.390961 0.003731 1.353215
v 0.321445 0.003731 1.528908
v -0.259077 0.003731 1.528908
v -0.328685 0.003731 1.353215
v 0.458764 0.628590 1.226943
v 0.194414 0.688674 1.437379
v 0.287839 1.295969 1.314277
v 0.191954 1.022815 1.630596
v -0.399815 0.628590 1.226943
v -0.135956 0.688674 1.437379
v -0.135924 1.022815 1.630596
v -0.234100 1.295969 1.314277
v -0.728990 1.253448 -0.234115
v -0.864495 0.628590 -0.287023
v -0.857804 1.853933 -0.295045
v -0.857804 1.853933 0.472267
v -0.728990 1.253448 0.419890
v -0.864495 0.628590 0.486367
v -0.292693 0.628590 -0.858825
v -0.245455 1.253448 -0.717650
v 0.333773 0.628590 -0.858825
v 0.284305 1.253448 -0.717650
v 0.331048 1.853933 -0.862354
v -0.290495 1.853933 -0.862354
v 0.868057 0.628590 0.541152
v 0.736115 1.253448 0.466218
v 0.868057 0.628590 -0.324540
v 0.736115 1.253448 -0.265841
v 0.861134 1.853933 0.526622
v 0.861134 1.853933 -0.332268
v 0.115490 0.476733 1.414315
v 0.141762 0.003731 1.517228
v -0.080343 0.003731 1.517228
v -0.055666 0.476733 1.414315
v 0.162203 0.524943 1.402635
v 0.194438 0.003731 1.528908
v -0.132827 0.003731 1.528908
v -0.102550 0.524943 1.402635
v -0.317870 2.033947 0.552332
v -0.541880 2.033947 0.328322
v 0.549713 2.033947 0.371985
v 0.369366 2.033947 0.552332
v 0.208609 2.033947 -0.539261
v 0.549713 2.033947 -0.198157
v -0.541880 2.033947 -0.168256
v -0.170875 2.033947 -0.539261
v -0.286345 1.929188 0.476222
v -0.465770 1.929188 0.296797
v 0.473604 1.929188 0.340459
v 0.337840 1.929188 0.476222
v 0.177083 1.929188 -0.463152
v 0.473604 1.929188 -0.166631
v -0.465770 1.929188 -0.136730
v -0.139349 1.929188 -0.463152
v 0.833395 0.561231 -0.379753
v 0.936892 0.071089 -0.425797
v 0.426883 0.071089 -0.935806
v 0.388081 0.561231 -0.825068
v 0.640654 0.561630 0.838142
v 0.654905 0.070682 0.933977
v 0.940401 0.071880 0.660078
v 0.833617 0.560366 0.598183
v 0.371861 1.532890 0.727231
v 0.449080 1.759388 0.885610
v -0.390471 1.759388 0.885610
v -0.319333 1.532890 0.727231
v -0.441371 1.507279 0.684547
v -0.551960 1.756979 0.807052
v -0.816174 1.760254 0.559583
v -0.657004 1.360573 0.457679
v -0.368117 1.757206 -0.813898
v -0.289348 1.320842 -0.653436
v -0.665447 1.320842 -0.277337
v -0.808555 1.757206 -0.373460
v -0.346775 0.561196 -0.825063
v -0.383824 0.071124 -0.935786
v -0.936457 0.071124 -0.383153
v -0.830181 0.561196 -0.341657
v -0.299538 1.186055 -0.683889
v -0.336586 0.695983 -0.794611
v -0.800952 0.695983 -0.330245
v -0.694677 1.186055 -0.288750
v -0.592506 0.070849 0.934156
v -0.582072 0.561454 0.838401
v -0.830143 0.560422 0.542275
v -0.939700 0.071857 0.597558
v -0.564348 0.695637 0.810442
v -0.462597 1.361798 0.711039
v -0.693782 1.209676 0.477142
v -0.806127 0.696052 0.532571
v -0.265754 0.070945 -0.984814
v -0.228679 0.561376 -0.874011
v 0.269980 0.561376 -0.874011
v 0.308806 0.070945 -0.984814
v 0.985764 0.071152 -0.307708
v 0.882294 0.561168 -0.261675
v 0.882294 0.561168 0.479857
v 0.985764 0.071152 0.538620
v -0.985396 0.071074 0.476400
v -0.879099 0.561247 0.424252
v -0.879099 0.561247 -0.223581
v -0.985396 0.071074 -0.265085
v 0.609636 1.756774 0.806236
v 0.494132 1.504285 0.684761
v 0.663683 1.367488 0.502060
v 0.819992 1.760791 0.615951
v 0.517067 1.354392 0.711490
v 0.621425 0.695521 0.809738
v 0.811011 0.696034 0.587128
v 0.700896 1.212878 0.524366
v 0.811386 1.757257 -0.411512
v 0.673007 1.320807 -0.308398
v 0.327948 1.320807 -0.653457
v 0.408993 1.757257 -0.813904
v 0.701453 1.186090 -0.321054
v 0.804949 0.695948 -0.367098
v 0.377416 0.695948 -0.794631
v 0.338613 1.186090 -0.683893
v -0.903464 0.114893 0.620314
v -0.617549 0.114062 0.897504
v 0.887868 0.115033 -0.466149
v 0.467873 0.115033 -0.886143
v -0.979214 0.115024 -0.200120
v -0.979214 0.115024 0.410496
v 0.802638 0.518667 -0.428231
v 0.435920 0.518667 -0.794950
v 0.310718 1.558520 0.722785
v 0.265602 1.788725 0.652109
v -0.258483 1.558520 0.722785
v -0.216108 1.788725 0.652109
v -0.453320 1.527576 0.658024
v -0.403103 1.777490 0.577424
v -0.630895 1.406762 0.471198
v -0.554701 1.779369 0.435433
v -0.318477 1.364772 -0.615793
v -0.287968 1.768349 -0.524613
v -0.540678 1.768349 -0.271902
v -0.628197 1.364772 -0.306074
v -0.373504 0.739913 -0.749179
v -0.342995 1.143490 -0.657998
v -0.668394 1.143490 -0.332600
v -0.755912 0.739913 -0.366771
v -0.608957 0.518077 0.818649
v -0.813244 0.517228 0.574788
v -0.575922 0.747639 0.778825
v -0.492130 1.296225 0.696965
v -0.775028 0.747980 0.549996
v -0.682512 1.170951 0.504350
v -0.891678 0.518684 0.367552
v -0.891678 0.518684 -0.165941
v 0.504732 1.526294 0.664177
v 0.451049 1.778556 0.582932
v 0.571745 1.780861 0.473752
v 0.644359 1.413641 0.513722
v 0.631171 0.748171 0.784998
v 0.545232 1.290754 0.704090
v 0.696616 1.174217 0.549992
v 0.787296 0.748594 0.601677
v 0.693300 1.381458 -0.388954
v 0.608070 1.785092 -0.351036
v 0.377189 1.785092 -0.581917
v 0.409143 1.381458 -0.673111
v 0.763204 0.739892 -0.400171
v 0.677974 1.143526 -0.362254
v 0.379174 1.143526 -0.661054
v 0.411128 0.739892 -0.752247
v -0.500645 -0.037410 0.943176
v -0.867611 -0.045375 0.502246
v 0.365996 1.393095 0.651880
v 0.451365 0.605138 0.819421
v 0.867684 -0.045608 0.565525
v 0.564182 -0.038348 0.943977
v -0.683845 0.753869 -0.112455
v -0.585210 1.208708 -0.073944
v 0.327808 -0.031143 -0.865056
v 0.865052 -0.030035 -0.327135
v -0.683845 0.753869 0.308072
v -0.585923 1.205418 0.260033
v -0.864969 -0.030273 -0.284164
v -0.284576 -0.030960 -0.864974
v -0.313528 1.393841 0.650406
v -0.393260 0.605976 0.818492
v -0.583490 1.896979 0.372981
v -0.480957 1.689451 0.208538
v -0.334814 1.896979 0.621657
v -0.279229 1.787265 0.511412
v 0.387307 1.896979 0.621657
v 0.327878 1.786875 0.511696
v 0.592321 1.896979 0.416643
v 0.491374 1.686467 0.245045
v 0.592321 1.896979 -0.188383
v 0.491374 1.686467 -0.057159
v 0.226550 1.896979 -0.554154
v 0.130441 1.735254 -0.455017
v -0.187818 1.896979 -0.554154
v -0.093457 1.735254 -0.455017
v -0.583490 1.896979 -0.158482
v -0.480957 1.689451 -0.033238
v 0.687329 0.758456 0.356334
v 0.593309 1.203717 0.302937
v 0.687329 0.758456 -0.144336
v 0.592460 1.207739 -0.102131
v 0.211960 0.705530 -0.687663
v 0.171871 1.211924 -0.573253
v -0.171302 0.705530 -0.687663
v -0.132991 1.212303 -0.573168
v 0.259679 -0.011975 1.282379
v 0.263010 -0.023969 1.393566
v -0.200806 -0.023676 1.393438
v -0.197335 -0.011179 1.282333
v 0.326297 0.609271 1.159279
v 0.206557 0.604529 1.266291
v 0.338205 1.157590 1.385541
v 0.217188 1.016870 1.537954
v -0.267265 0.610150 1.159196
v -0.147652 0.604881 1.266236
v -0.161506 1.017085 1.537876
v -0.284041 1.158006 1.385445
v -0.594028 1.219445 -0.178188
v -0.729533 0.594586 -0.231096
v -0.693292 1.768357 -0.199814
v -0.694015 1.766222 0.433604
v -0.591680 1.218310 0.370802
v -0.727743 0.594398 0.435096
v -0.236775 0.593908 -0.724033
v -0.189537 1.218767 -0.582858
v 0.277887 0.593721 -0.724069
v 0.228420 1.218580 -0.582894
v 0.263669 1.767378 -0.671795
v -0.222014 1.767588 -0.671677
v 0.730935 0.594526 0.490787
v 0.598282 1.218506 0.418463
v 0.733022 0.594829 -0.268641
v 0.601080 1.219687 -0.209942
v 0.698198 1.766261 0.488254
v 0.697389 1.768627 -0.237115
v 0.123419 0.442720 1.268440
v 0.157583 -0.028890 1.371678
v -0.096191 -0.028941 1.371692
v -0.063609 0.442693 1.268449
v 0.169431 0.504636 1.254196
v 0.209334 -0.028080 1.383083
v -0.147751 -0.028140 1.383097
v -0.109787 0.504627 1.254196
v -0.294481 1.864476 0.520061
v -0.483189 1.864154 0.332188
v 0.491704 1.864180 0.376441
v 0.347388 1.864384 0.520225
v 0.184462 1.864226 -0.454135
v 0.491106 1.864515 -0.146762
v -0.482656 1.864450 -0.116474
v -0.145527 1.864279 -0.454043
v -0.349807 1.829664 0.657859
v -0.619692 1.829664 0.387974
v 0.628523 1.829664 0.431636
v 0.402300 1.829664 0.657859
v 0.241543 1.829664 -0.590356
v 0.628523 1.829664 -0.203376
v -0.619692 1.829664 -0.173476
v -0.202812 1.829664 -0.590356
v 0.729004 0.528349 -0.277184
v 0.832258 0.040423 -0.322793
v 0.323869 0.040391 -0.831190
v 0.285529 0.528308 -0.720672
v 0.540895 0.488729 0.753096
v 0.539220 0.060854 0.839007
v 0.809898 0.051426 0.589012
v 0.713172 0.494789 0.537423
v 0.370497 1.489781 0.583566
v 0.315291 1.766752 0.498548
v -0.266099 1.766780 0.498539
v -0.317955 1.489800 0.583562
v -0.328762 1.462403 0.596205
v -0.275944 1.766402 0.488574
v -0.460185 1.776745 0.312737
v -0.544542 1.323928 0.365437
v -0.149881 1.778004 -0.438185
v -0.186371 1.290734 -0.548610
v -0.560607 1.290761 -0.174365
v -0.454647 1.778037 -0.133409
v -0.274996 0.499314 -0.708802
v -0.300508 0.065150 -0.811202
v -0.811763 0.065612 -0.299965
v -0.713819 0.499786 -0.269635
v -0.196995 1.153375 -0.579410
v -0.233549 0.665710 -0.689890
v -0.696222 0.665728 -0.227213
v -0.590198 1.153402 -0.186194
v -0.463605 0.027919 0.870593
v -0.451551 0.536766 0.768736
v -0.720757 0.529188 0.444508
v -0.837720 0.018865 0.501168
v -0.452921 0.663382 0.715353
v -0.349416 1.329854 0.617936
v -0.580784 1.176450 0.384263
v -0.694946 0.662396 0.437673
v -0.228907 0.072991 -0.839429
v -0.190711 0.491043 -0.747083
v 0.231999 0.490896 -0.747170
v 0.271996 0.072831 -0.839415
v 0.837709 0.054713 -0.290138
v 0.741953 0.511943 -0.242170
v 0.742223 0.511275 0.460117
v 0.837741 0.054132 0.521344
v -0.838614 0.040192 0.475288
v -0.732798 0.528186 0.422966
v -0.732784 0.528232 -0.222313
v -0.838610 0.040229 -0.263954
v 0.327014 1.762720 0.487030
v 0.381573 1.461593 0.595279
v 0.548603 1.331575 0.412812
v 0.470525 1.773324 0.354172
v 0.402870 1.320640 0.620283
v 0.509549 0.664420 0.714791
v 0.697400 0.663454 0.494766
v 0.584593 1.176498 0.436907
v 0.455231 1.751859 -0.185237
v 0.551041 1.312860 -0.221448
v 0.240833 1.312155 -0.531660
v 0.212368 1.751140 -0.428581
v 0.597016 1.153025 -0.218594
v 0.700219 0.665424 -0.264148
v 0.274457 0.665382 -0.689924
v 0.236172 1.152979 -0.579451
v -0.798894 0.083132 0.517575
v -0.511349 0.087433 0.794980
v 0.767896 0.195087 0.873818
v 0.888568 0.196755 0.766354
v 0.781526 0.087548 -0.364000
v 0.365743 0.087498 -0.779797
v 0.896810 0.153426 -0.191362
v 0.896805 0.152688 0.420721
v -0.485155 0.188779 -0.841988
v -0.843299 0.189246 -0.483781
v 0.176092 0.225570 -1.120936
v -0.133332 0.225707 -1.120904
v -0.831810 0.087402 -0.197254
v -0.831819 0.087351 0.407612
v 0.697711 0.482572 -0.327305
v 0.334989 0.482531 -0.690041
v 0.767408 0.454466 0.820382
v 0.826052 0.452971 0.736011
v 0.307729 1.521921 0.577354
v 0.263034 1.736621 0.511475
v -0.255503 1.521948 0.577345
v -0.213530 1.736644 0.511470
v -0.341141 1.483139 0.568913
v -0.296784 1.733877 0.481020
v -0.519106 1.369746 0.378292
v -0.449568 1.743388 0.334676
v -0.217409 1.337191 -0.508444
v -0.187994 1.732729 -0.418614
v -0.434666 1.732770 -0.171928
v -0.520852 1.337237 -0.204992
v -0.471964 0.449099 -0.777720
v -0.782071 0.449474 -0.467453
v -0.271631 0.712611 -0.642521
v -0.242275 1.107756 -0.552746
v -0.563132 1.107783 -0.231884
v -0.649259 0.712648 -0.264888
v -0.498848 0.492515 0.720048
v -0.704623 0.486699 0.475954
v -0.463803 0.715187 0.684618
v -0.378629 1.264601 0.604142
v -0.664067 0.714151 0.454907
v -0.570324 1.137854 0.410451
v -0.108802 0.474603 -1.064407
v 0.150404 0.474479 -1.064425
v 0.836194 0.445565 -0.156654
v 0.836441 0.445025 0.376403
v -0.746169 0.482373 0.364842
v -0.746155 0.482414 -0.163213
v 0.398487 1.484435 0.566927
v 0.353313 1.728063 0.480962
v 0.459869 1.738681 0.383176
v 0.524504 1.381811 0.429335
v 0.523474 0.718333 0.684946
v 0.435681 1.254498 0.608264
v 0.577104 1.137585 0.467084
v 0.668627 0.717053 0.515528
v 0.553636 1.413384 -0.344531
v 0.490421 1.696522 -0.322531
v 0.348454 1.695844 -0.464836
v 0.365127 1.412555 -0.533131
v 0.656368 0.712201 -0.298590
v 0.572511 1.107550 -0.261845
v 0.278761 1.107495 -0.555609
v 0.309570 0.712142 -0.645406
v 0.801596 0.157988 1.003059
v 0.783989 0.141283 1.007950
v 1.022551 0.142284 0.779078
v 1.017730 0.158717 0.794466
v 1.031304 0.119866 -0.243548
v 1.035977 0.138799 -0.220849
v 1.035977 0.138799 0.450312
v 1.031304 0.119866 0.473489
v -0.472907 0.137565 -0.908714
v -0.514717 0.138740 -0.976153
v -0.977187 0.138740 -0.513684
v -0.909891 0.137565 -0.471730
v 0.245476 0.168220 -1.161317
v 0.260206 0.168585 -1.224290
v -0.217302 0.168585 -1.224290
v -0.202623 0.168220 -1.161317
v 0.789428 0.539239 0.927590
v 0.772081 0.551521 0.927870
v 0.935839 0.538512 0.747356
v 0.933322 0.550465 0.727359
v -0.444115 0.518419 -0.822667
v -0.483714 0.548855 -0.883495
v -0.827300 0.518419 -0.439483
v -0.888250 0.548855 -0.478958
v -0.186489 0.576174 -1.132203
v -0.173804 0.549430 -1.075190
v 0.227939 0.576174 -1.132203
v 0.215298 0.549430 -1.075190
v 0.943641 0.535024 -0.204548
v 0.955570 0.519597 -0.185077
v 0.943641 0.535024 0.423702
v 0.955570 0.519597 0.404646
v 0.454878 1.467017 0.747455
v -0.401425 1.467017 0.747455
v 0.430187 1.253448 1.455182
v -0.376379 1.253448 1.455182
v 0.221880 1.445637 0.985126
v -0.168324 1.445637 0.985126
v 0.211374 1.354761 1.286273
v -0.157666 1.354761 1.286273
v 0.260919 1.082899 1.665340
v 0.264264 0.628590 1.402635
v -0.205369 0.628590 1.402635
v -0.205325 1.082899 1.665340
v 0.170448 0.971699 1.668230
v 0.172584 0.681555 1.500454
v -0.114286 0.681555 1.500454
v -0.114258 0.971699 1.668230
vt 0.219842 0.991356
vt 0.219842 0.945352
vt 0.243470 0.947207
vt 0.243470 0.985648
vt 0.055657 0.613282
vt 0.075812 0.640423
vt 0.068975 0.638713
vt 0.052377 0.616362
vt 0.489301 0.702254
vt 0.411659 0.702213
vt 0.417927 0.695652
vt 0.481865 0.695686
vt 0.434963 0.732007
vt 0.476845 0.724534
vt 0.473018 0.733613
vt 0.438528 0.739768
vt 0.454316 0.977521
vt 0.432865 0.977157
vt 0.436018 0.972298
vt 0.453683 0.972597
vt 0.404766 0.608876
vt 0.399360 0.535663
vt 0.405474 0.542023
vt 0.409927 0.602315
vt 0.831508 0.760604
vt 0.808303 0.737298
vt 0.823674 0.704737
vt 0.863484 0.744721
vt 0.812826 0.850915
vt 0.831508 0.832135
vt 0.863484 0.849292
vt 0.829304 0.883651
vt 0.718433 0.815452
vt 0.753767 0.850941
vt 0.740335 0.883690
vt 0.685424 0.828539
vt 0.756864 0.737320
vt 0.718433 0.775953
vt 0.685424 0.763845
vt 0.744190 0.704771
vt 0.289615 0.791826
vt 0.289403 0.825688
vt 0.278549 0.825740
vt 0.278761 0.791878
vt 0.434963 0.819391
vt 0.438528 0.811729
vt 0.441621 0.930789
vt 0.443229 0.934114
vt 0.469852 0.608911
vt 0.463525 0.602343
vt 0.476845 0.827789
vt 0.473018 0.818645
vt 0.517594 0.171843
vt 0.392518 0.152753
vt 0.393277 0.045511
vt 0.486213 0.064614
vt 0.299293 0.133725
vt 0.300687 0.026317
vt 0.454597 0.535692
vt 0.450963 0.542047
vt 0.946251 0.589633
vt 0.946251 0.675476
vt 0.910846 0.668355
vt 0.910846 0.597012
vt 0.986320 0.912040
vt 0.986320 0.985417
vt 0.980800 0.979409
vt 0.980800 0.918983
vt 0.775644 0.958184
vt 0.775644 0.883690
vt 0.814085 0.889992
vt 0.814085 0.951903
vt 0.478159 0.212404
vt 0.401407 0.204017
vt 0.409248 0.201405
vt 0.472453 0.208311
vt 0.278318 0.565333
vt 0.185633 0.584565
vt 0.185497 0.477515
vt 0.278468 0.458375
vt 0.022741 0.890260
vt 0.025290 0.825341
vt 0.025290 0.825341
vt 0.022741 0.890260
vt 0.061233 0.603916
vt 0.092683 0.496706
vt 0.385707 0.865312
vt 0.336953 0.865312
vt 0.336953 0.865312
vt 0.385707 0.865312
vt 0.185729 0.451366
vt 0.278496 0.432161
vt 0.425093 0.806790
vt 0.420545 0.900598
vt 0.395933 0.874332
vt 0.396647 0.806128
vt 0.326816 0.806128
vt 0.326605 0.874332
vt 0.300614 0.900598
vt 0.297428 0.806790
vt 0.301010 0.000000
vt 0.394057 0.019074
vt 0.124168 0.803864
vt 0.004235 0.803864
vt 0.030101 0.771845
vt 0.099430 0.771845
vt 0.414389 0.300449
vt 0.482387 0.294789
vt 0.484260 0.318723
vt 0.390844 0.326499
vt 0.554258 0.288807
vt 0.577677 0.310948
vt 0.554352 0.252684
vt 0.482025 0.244890
vt 0.484515 0.221009
vt 0.577885 0.231071
vt 0.414552 0.237619
vt 0.391145 0.210948
vt 0.329113 0.526834
vt 0.323042 0.602537
vt 0.304913 0.618977
vt 0.312399 0.525633
vt 0.380024 0.602511
vt 0.374439 0.526870
vt 0.391161 0.525597
vt 0.398053 0.618934
vt 0.368666 0.448699
vt 0.335378 0.448714
vt 0.319884 0.432290
vt 0.384269 0.432260
vt 0.161565 0.661821
vt 0.095530 0.670068
vt 0.092670 0.645684
vt 0.185340 0.634109
vt 0.095131 0.730592
vt 0.161809 0.736626
vt 0.185761 0.763453
vt 0.093027 0.755061
vt 0.023936 0.679010
vt 0.024083 0.724162
vt 0.000292 0.746669
vt 0.000000 0.657258
vt 0.405449 0.712320
vt 0.381464 0.790647
vt 0.386563 0.712320
vt 0.319128 0.712320
vt 0.337901 0.712320
vt 0.342097 0.790647
vt 0.374547 0.783402
vt 0.378699 0.712364
vt 0.345674 0.712364
vt 0.349097 0.783402
vt 0.823623 0.763889
vt 0.805037 0.745221
vt 0.809560 0.842994
vt 0.823623 0.828857
vt 0.726317 0.812167
vt 0.757032 0.843017
vt 0.760130 0.745241
vt 0.726317 0.779231
vt 0.596161 0.933921
vt 0.565440 0.964766
vt 0.532657 0.964752
vt 0.498839 0.930766
vt 0.498839 0.885649
vt 0.517428 0.866985
vt 0.582095 0.867013
vt 0.596161 0.881148
vt 0.979905 0.274913
vt 0.979508 0.243482
vt 0.990359 0.243608
vt 0.990755 0.275040
vt 0.979539 0.131424
vt 0.979266 0.117381
vt 0.990117 0.117440
vt 0.990391 0.131482
vt 0.979905 0.210548
vt 0.990755 0.210675
vt 0.979539 0.064594
vt 0.990391 0.064653
vt 0.497569 0.731441
vt 0.497584 0.796401
vt 0.486729 0.796403
vt 0.486714 0.731443
vt 0.497584 0.712320
vt 0.486729 0.712323
vt 0.289615 0.870818
vt 0.278761 0.870870
vt 0.479391 0.618977
vt 0.498839 0.712320
vt 0.474045 0.629035
vt 0.404946 0.712271
vt 0.406252 0.628999
vt 0.268462 0.575252
vt 0.195524 0.589822
vt 0.278009 0.622535
vt 0.267951 0.616027
vt 0.195514 0.625573
vt 0.486714 0.840241
vt 0.425093 0.827885
vt 0.425093 0.723316
vt 0.486714 0.712320
vt 0.578969 0.190807
vt 0.568713 0.195988
vt 0.523409 0.181297
vt 0.984552 0.648736
vt 0.984552 0.689477
vt 0.974734 0.684737
vt 0.974438 0.656752
vt 0.500720 0.215339
vt 0.568311 0.221927
vt 0.578969 0.369624
vt 0.485842 0.390503
vt 0.495726 0.380979
vt 0.568765 0.364604
vt 0.494496 0.325148
vt 0.567761 0.319050
vt 0.392714 0.411382
vt 0.299587 0.432260
vt 0.309471 0.422736
vt 0.382510 0.406361
vt 0.297428 0.334274
vt 0.307663 0.340699
vt 0.380929 0.334601
vt 0.402598 0.401858
vt 0.475637 0.385483
vt 0.401079 0.332923
vt 0.474345 0.326825
vt 0.382335 0.158052
vt 0.309395 0.143552
vt 0.381158 0.202533
vt 0.297776 0.200886
vt 0.308143 0.194176
vt 0.501712 0.177299
vt 0.402339 0.162268
vt 0.297428 0.712320
vt 0.314381 0.629013
vt 0.308506 0.702275
vt 0.388519 0.628979
vt 0.393929 0.702236
vt 0.278496 0.771845
vt 0.195734 0.754019
vt 0.268457 0.760600
vt 0.195372 0.643227
vt 0.268044 0.634150
vt 0.381056 0.220214
vt 0.307811 0.212321
vt 0.380803 0.317006
vt 0.307523 0.323105
vt 0.000264 0.623029
vt 0.010258 0.628208
vt 0.009667 0.647941
vt 0.458667 0.987340
vt 0.425093 0.987340
vt 0.175659 0.594142
vt 0.077897 0.609202
vt 0.175381 0.627303
vt 0.098732 0.636994
vt 0.440495 0.432290
vt 0.459943 0.525633
vt 0.450404 0.515567
vt 0.435149 0.442348
vt 0.397874 0.515540
vt 0.392468 0.442326
vt 0.469303 0.635390
vt 0.413475 0.635360
vt 0.987919 0.704737
vt 0.987919 0.778466
vt 0.968204 0.768827
vt 0.968204 0.707219
vt 0.526372 0.185279
vt 0.563680 0.197377
vt 0.563349 0.218738
vt 0.507688 0.213313
vt 0.562313 0.361916
vt 0.502165 0.375401
vt 0.501152 0.329424
vt 0.561487 0.324402
vt 0.957249 0.138040
vt 0.957249 0.064594
vt 0.977602 0.073079
vt 0.977602 0.134542
vt 0.469160 0.381639
vt 0.409012 0.395123
vt 0.407761 0.338356
vt 0.468096 0.333334
vt 0.315713 0.149070
vt 0.375780 0.161011
vt 0.374811 0.197641
vt 0.314682 0.190759
vt 0.410015 0.167025
vt 0.491850 0.179402
vt 0.376712 0.900598
vt 0.376712 0.975650
vt 0.338766 0.969385
vt 0.338766 0.907011
vt 0.199494 0.745439
vt 0.261107 0.751015
vt 0.314343 0.222180
vt 0.374660 0.228680
vt 0.374452 0.308389
vt 0.314105 0.313412
vt 0.014991 0.628654
vt 0.014504 0.644905
vt 0.087318 0.610261
vt 0.167825 0.597859
vt 0.167597 0.625168
vt 0.104476 0.633148
vt 0.440568 0.446196
vt 0.453131 0.506492
vt 0.409872 0.506469
vt 0.405419 0.446177
vt 0.278496 0.647839
vt 0.278496 0.537079
vt 0.287687 0.545374
vt 0.287687 0.639213
vt 0.258273 0.747630
vt 0.201759 0.742516
vt 0.201471 0.654405
vt 0.257946 0.647352
vt 0.297428 0.975838
vt 0.297428 0.900598
vt 0.335361 0.906782
vt 0.335361 0.969313
vt 0.997954 0.846605
vt 0.997954 0.920051
vt 0.992117 0.913947
vt 0.992117 0.853464
vt 0.662840 0.866985
vt 0.662840 0.967024
vt 0.660219 0.959387
vt 0.660219 0.877004
vt 0.378238 0.415096
vt 0.321476 0.427821
vt 0.320047 0.362952
vt 0.376985 0.358213
vt 0.969688 0.683095
vt 0.969444 0.660049
vt 0.995736 0.342987
vt 0.995736 0.416363
vt 0.989136 0.410469
vt 0.989136 0.350043
vt 0.221527 0.876555
vt 0.278207 0.881169
vt 0.278207 0.939289
vt 0.221527 0.943487
vt 0.260757 0.643882
vt 0.199187 0.651572
vt 0.662530 0.721440
vt 0.662530 0.838197
vt 0.644566 0.828870
vt 0.644566 0.731162
vt 0.992289 0.663078
vt 0.992289 0.589633
vt 0.996999 0.595829
vt 0.996999 0.656312
vt 0.278549 0.791826
vt 0.278549 0.718449
vt 0.291308 0.726386
vt 0.291308 0.786812
vt 0.196760 0.606215
vt 0.257289 0.598239
vt 0.989136 0.342987
vt 0.989136 0.402201
vt 0.975774 0.397025
vt 0.975774 0.348262
vt 0.290408 0.869116
vt 0.290408 0.816316
vt 0.296865 0.820330
vt 0.296865 0.863810
vt 0.953866 0.534403
vt 0.953866 0.432260
vt 0.974347 0.440567
vt 0.974347 0.526044
vt 0.976022 0.505170
vt 0.976022 0.432260
vt 0.986485 0.438803
vt 0.986485 0.498845
vt 0.378828 0.355165
vt 0.317516 0.360268
vt 0.198558 0.576340
vt 0.255211 0.564915
vt 0.254840 0.595932
vt 0.198532 0.603246
vt 0.045760 0.975766
vt 0.000000 0.962398
vt 0.000221 0.924225
vt 0.045760 0.911737
vt 0.723669 0.053890
vt 0.727421 0.049932
vt 0.749399 0.062217
vt 0.752706 0.069282
vt 0.867540 0.973555
vt 0.874628 0.965800
vt 0.937280 0.959466
vt 0.944145 0.965806
vt 0.222926 0.867281
vt 0.227401 0.859378
vt 0.259347 0.865377
vt 0.264139 0.874678
vt 0.266998 0.990881
vt 0.268869 0.985829
vt 0.284439 0.985421
vt 0.287923 0.990881
vt 0.944067 0.872727
vt 0.938225 0.866336
vt 0.938109 0.807463
vt 0.943967 0.800114
vt 0.540162 0.845672
vt 0.528677 0.866984
vt 0.498839 0.836546
vt 0.520598 0.826124
vt 0.621615 0.830684
vt 0.643097 0.842168
vt 0.618963 0.866984
vt 0.606670 0.845658
vt 0.589731 0.744243
vt 0.598004 0.721440
vt 0.642968 0.766667
vt 0.621522 0.776224
vt 0.520627 0.779423
vt 0.498875 0.770616
vt 0.547679 0.721476
vt 0.555539 0.744269
vt 0.497584 0.894267
vt 0.490533 0.897971
vt 0.489923 0.854846
vt 0.497004 0.853337
vt 0.222835 0.780439
vt 0.227326 0.788194
vt 0.280204 0.948575
vt 0.282871 0.945352
vt 0.879912 0.879214
vt 0.885969 0.871616
vt 0.259258 0.781248
vt 0.264029 0.771845
vt 0.641171 0.659619
vt 0.534618 0.613278
vt 0.523934 0.529926
vt 0.628298 0.539836
vt 0.515084 0.435815
vt 0.619676 0.442144
vt 0.893846 0.811935
vt 0.889594 0.805610
vt 0.660219 0.866985
vt 0.648610 0.897944
vt 0.610274 0.904432
vt 0.596161 0.877361
vt 0.992117 0.984801
vt 0.986320 0.977351
vt 0.986348 0.918359
vt 0.992117 0.912040
vt 0.972459 0.939354
vt 0.944451 0.925541
vt 0.944460 0.860005
vt 0.972459 0.846605
vt 0.684023 0.630941
vt 0.680726 0.624823
vt 0.680635 0.561025
vt 0.683990 0.553546
vt 0.698870 0.281947
vt 0.595173 0.291798
vt 0.602097 0.197225
vt 0.705861 0.184683
vt 0.830112 0.428686
vt 0.833721 0.318195
vt 0.926257 0.318008
vt 0.931167 0.428686
vt 0.611167 0.113564
vt 0.716565 0.065125
vt 0.146011 0.866538
vt 0.198673 0.866556
vt 0.201068 0.928155
vt 0.144765 0.928160
vt 0.578969 0.295574
vt 0.586552 0.200284
vt 0.128590 0.867275
vt 0.127329 0.949220
vt 0.216839 0.867347
vt 0.219842 0.949220
vt 0.498839 0.432260
vt 0.508096 0.527701
vt 0.851502 0.295685
vt 0.907820 0.295574
vt 0.777817 0.156615
vt 0.760610 0.180825
vt 0.766753 0.087110
vt 0.782288 0.088400
vt 0.771761 0.001045
vt 0.787014 0.016300
vt 0.822963 0.015605
vt 0.837386 0.000000
vt 0.848386 0.085698
vt 0.831956 0.087933
vt 0.859668 0.178935
vt 0.840345 0.155406
vt 0.885898 0.518571
vt 0.894332 0.517572
vt 0.901753 0.610373
vt 0.891916 0.593835
vt 0.834928 0.593818
vt 0.825226 0.610379
vt 0.832184 0.517581
vt 0.840567 0.518614
vt 0.846395 0.440895
vt 0.837923 0.432267
vt 0.888240 0.432260
vt 0.879687 0.440905
vt 0.718787 0.585863
vt 0.698329 0.609835
vt 0.710828 0.517325
vt 0.727972 0.519852
vt 0.788214 0.520305
vt 0.804268 0.518768
vt 0.811249 0.611753
vt 0.793233 0.587162
vt 0.737930 0.448282
vt 0.723256 0.432260
vt 0.798409 0.433327
vt 0.782865 0.449066
vt 0.137104 0.772620
vt 0.145121 0.772002
vt 0.151564 0.851611
vt 0.193077 0.851582
vt 0.198211 0.771958
vt 0.206063 0.772618
vt 0.158348 0.842354
vt 0.152856 0.771878
vt 0.190586 0.771845
vt 0.186155 0.842331
vt 0.804348 0.417966
vt 0.800111 0.407474
vt 0.819661 0.387932
vt 0.830112 0.392097
vt 0.708295 0.396588
vt 0.718659 0.392493
vt 0.733611 0.407463
vt 0.729535 0.417933
vt 0.746190 0.295574
vt 0.750490 0.306069
vt 0.718722 0.338043
vt 0.708295 0.333623
vt 0.830112 0.336788
vt 0.819606 0.341239
vt 0.784678 0.306093
vt 0.789119 0.295593
vt 0.668200 0.425511
vt 0.602408 0.425518
vt 0.578969 0.401971
vt 0.578969 0.323678
vt 0.606932 0.295580
vt 0.665102 0.295574
vt 0.708295 0.338966
vt 0.708295 0.385222
vt 0.986505 0.435994
vt 0.993477 0.432260
vt 0.993456 0.473498
vt 0.986485 0.474972
vt 0.296253 0.561829
vt 0.289187 0.560196
vt 0.289800 0.537079
vt 0.296809 0.540878
vt 0.993477 0.519743
vt 0.986505 0.518096
vt 0.987458 0.587875
vt 0.980525 0.589450
vt 0.980525 0.523344
vt 0.987458 0.524891
vt 0.296183 0.636990
vt 0.289114 0.638479
vt 0.296809 0.663345
vt 0.289793 0.667081
vt 0.490535 0.796403
vt 0.497584 0.798015
vt 0.875857 0.890080
vt 0.877225 0.899902
vt 0.863484 0.984401
vt 0.944451 0.976370
vt 0.999633 0.685121
vt 0.997062 0.673600
vt 0.996999 0.599023
vt 0.999633 0.589633
vt 0.944451 0.883303
vt 0.944049 0.893145
vt 0.717617 0.200429
vt 0.712620 0.265430
vt 0.749315 0.261355
vt 0.754444 0.275114
vt 0.296865 0.816316
vt 0.291600 0.800342
vt 0.291308 0.732495
vt 0.296865 0.718449
vt 0.754174 0.179332
vt 0.749105 0.195026
vt 0.990940 0.062398
vt 0.986207 0.045356
vt 0.988080 0.002189
vt 0.990940 0.000000
vt 0.219842 0.778516
vt 0.219883 0.869200
vt 0.992106 0.585781
vt 0.989317 0.583575
vt 0.987458 0.540168
vt 0.992106 0.523344
vt 0.278419 0.873762
vt 0.278419 0.772257
vt 0.648161 0.670611
vt 0.659441 0.717515
vt 0.655748 0.720263
vt 0.489923 0.839130
vt 0.487208 0.837135
vt 0.488407 0.799073
vt 0.489923 0.796403
vt 0.997372 0.519560
vt 0.994073 0.517875
vt 0.993477 0.449084
vt 0.997372 0.432260
vt 0.685387 0.637350
vt 0.684548 0.653204
vt 0.907989 0.001457
vt 0.911794 0.003370
vt 0.901590 0.077371
vt 0.897426 0.088525
vt 0.956901 0.073235
vt 0.957225 0.083956
vt 0.297228 0.961986
vt 0.294442 0.950567
vt 0.293192 0.876214
vt 0.297228 0.874678
vt 0.980800 0.981464
vt 0.978105 0.978925
vt 0.978068 0.914528
vt 0.980800 0.912040
vt 0.884404 0.183417
vt 0.887845 0.197369
vt 0.878161 0.263344
vt 0.871417 0.278308
vt 0.953713 0.257630
vt 0.957249 0.271791
vt 0.995553 0.159938
vt 0.990926 0.144196
vt 0.990391 0.077804
vt 0.995553 0.064594
vt 0.957249 0.177873
vt 0.952745 0.192448
vt 0.898762 0.098228
vt 0.888555 0.172289
vt 0.956936 0.167177
vt 1.000000 0.527607
vt 0.997410 0.516172
vt 0.997372 0.441749
vt 1.000000 0.432260
vt 0.956877 0.093882
vt 0.629399 0.453018
vt 0.636748 0.530216
vt 0.685015 0.533603
vt 0.685424 0.543428
vt 0.461895 0.840241
vt 0.461263 0.850025
vt 0.431128 0.922113
vt 0.425093 0.930789
vt 0.685282 0.447098
vt 0.684447 0.456709
vt 0.642728 0.549845
vt 0.646969 0.650547
vt 0.998495 0.159965
vt 0.995553 0.154202
vt 0.995850 0.075560
vt 0.998495 0.064594
vt 0.909257 0.703177
vt 0.900908 0.687745
vt 0.894968 0.625649
vt 0.832114 0.625652
vt 0.826427 0.687747
vt 0.818200 0.703177
vt 0.818200 0.704736
vt 0.812944 0.692085
vt 0.807089 0.624029
vt 0.702662 0.622306
vt 0.692281 0.690066
vt 0.685424 0.704736
vt 0.871417 0.274539
vt 0.867178 0.261787
vt 0.858051 0.188869
vt 0.762105 0.190716
vt 0.757260 0.263906
vt 0.754444 0.274539
vt 0.730242 0.004339
vt 0.734318 0.007478
vt 0.753833 0.085974
vt 0.296706 0.519416
vt 0.292590 0.501424
vt 0.293325 0.434358
vt 0.296706 0.432161
vt 0.754444 0.000000
vt 0.753540 0.002998
vt 0.722479 0.075167
vt 0.720161 0.173797
vt 0.752396 0.169302
vt 0.997396 0.786369
vt 0.994693 0.775250
vt 0.994155 0.696714
vt 0.997396 0.690992
vt 0.751883 0.092584
vt 0.898118 0.709218
vt 0.903768 0.714956
vt 0.894611 0.781275
vt 0.888217 0.795762
vt 0.941362 0.776649
vt 0.944383 0.790242
vt 0.994155 0.778466
vt 0.989545 0.763171
vt 0.987919 0.695947
vt 0.994155 0.690992
vt 0.943664 0.704737
vt 0.940373 0.711357
vt 0.999499 0.283203
vt 0.996894 0.271652
vt 0.996849 0.197122
vt 0.999499 0.187707
vt 0.882503 0.906168
vt 0.937159 0.900642
vt 0.380068 0.911367
vt 0.392473 0.909896
vt 0.392385 0.948214
vt 0.376712 0.950779
vt 0.651893 0.674089
vt 0.681935 0.659858
vt 0.682677 0.716165
vt 0.661065 0.712763
vt 0.915253 0.009925
vt 0.951711 0.007195
vt 0.951789 0.066639
vt 0.906941 0.069997
vt 0.620326 0.949511
vt 0.660219 0.949986
vt 0.903274 0.104756
vt 0.950695 0.101209
vt 0.950777 0.160593
vt 0.894965 0.164768
vt 0.639716 0.462940
vt 0.681019 0.466072
vt 0.680996 0.526835
vt 0.644654 0.524306
vt 0.646497 0.557996
vt 0.650018 0.641013
vt 0.495461 0.930789
vt 0.495461 0.977013
vt 0.458669 0.973330
vt 0.458668 0.934608
vt 0.798461 0.676868
vt 0.707446 0.675390
vt 0.714852 0.632069
vt 0.794116 0.633373
vt 0.856983 0.254926
vt 0.767045 0.256657
vt 0.771017 0.197413
vt 0.849534 0.195901
vt 0.735800 0.012414
vt 0.749895 0.008697
vt 0.725395 0.084641
vt 0.748138 0.098926
vt 0.748409 0.161831
vt 0.723579 0.165215
vt 0.734607 0.894757
vt 0.756036 0.893019
vt 0.756292 0.935136
vt 0.727839 0.937453
vt 0.863029 0.946846
vt 0.815810 0.934584
vt 0.815815 0.895856
vt 0.863029 0.883690
vt 0.091552 0.975531
vt 0.045991 0.962622
vt 0.045760 0.924596
vt 0.091552 0.911737
vt 0.996849 0.283203
vt 0.990755 0.275777
vt 0.990794 0.216910
vt 0.996849 0.210548
vt 0.425093 1.000000
vt 0.421933 0.989457
vt 0.421842 0.908226
vt 0.425093 0.900598
vt 0.969444 0.697657
vt 0.946251 0.681491
vt 0.946258 0.605810
vt 0.969444 0.589633
vt 0.648099 0.866390
vt 0.643097 0.863526
vt 0.643235 0.840137
vt 0.648099 0.838197
vt 0.986343 0.210548
vt 0.979529 0.202933
vt 0.979563 0.143991
vt 0.986343 0.137739
vt 0.685424 0.721440
vt 0.727839 0.958519
vt 0.685424 0.943809
vt 0.685430 0.897584
vt 0.727839 0.883690
vt 0.292590 0.537079
vt 0.278503 0.524436
vt 0.278496 0.444801
vt 0.292590 0.432161
vt 0.462635 0.856720
vt 0.438533 0.913679
vt 0.997174 0.992646
vt 0.992117 0.985382
vt 0.992147 0.926456
vt 0.997174 0.920051
vt 0.956838 0.000000
vt 0.992117 0.912040
vt 0.972459 0.902270
vt 0.972660 0.860088
vt 0.992117 0.846605
vt 0.125692 0.975680
vt 0.091780 0.970521
vt 0.091552 0.931758
vt 0.125692 0.911737
vt 0.296809 0.718449
vt 0.278549 0.707956
vt 0.278555 0.677923
vt 0.296809 0.667081
vt 0.481709 0.920733
vt 0.487422 0.930789
vt 0.977002 0.980577
vt 0.945469 0.968025
vt 0.944451 0.952705
vt 0.977002 0.939354
vt 0.293192 0.940193
vt 0.279901 0.927023
vt 0.279891 0.887203
vt 0.293192 0.874678
vt 0.421226 0.966928
vt 0.421226 0.900598
vt 0.775644 0.948989
vt 0.775644 0.883690
vt 0.986207 0.064594
vt 0.957249 0.055480
vt 0.957553 0.016780
vt 0.986207 0.000000
vt 0.980525 0.589449
vt 0.954275 0.567778
vt 0.953866 0.543638
vt 0.980525 0.534403
vt 0.206855 0.405914
vt 0.196517 0.432161
vt 0.187859 0.411881
vt 0.187350 0.395296
vt 0.110186 0.432151
vt 0.099834 0.405902
vt 0.119385 0.395283
vt 0.118883 0.411855
vt 0.054544 0.298789
vt 0.074309 0.290215
vt 0.252339 0.298811
vt 0.232665 0.290350
vt 0.931565 0.501664
vt 0.931565 0.432260
vt 0.953866 0.432314
vt 0.953866 0.501717
vt 0.931565 0.575020
vt 0.953866 0.575074
vt 0.931168 0.359624
vt 0.931168 0.285654
vt 0.953469 0.285711
vt 0.953469 0.359681
vt 0.931168 0.428629
vt 0.953469 0.428686
vt 0.815810 0.983031
vt 0.815810 0.946911
vt 0.837647 0.946846
vt 0.837647 0.982966
vt 0.966753 0.841386
vt 0.966753 0.778573
vt 0.988633 0.778466
vt 0.988633 0.841278
vt 0.685424 0.721440
vt 0.685424 0.799127
vt 0.663117 0.799128
vt 0.663117 0.721441
vt 0.931565 0.512240
vt 0.931565 0.589630
vt 0.909257 0.589633
vt 0.909257 0.512242
vt 0.859334 0.946846
vt 0.859334 0.980298
vt 0.837647 0.980339
vt 0.837647 0.946887
vt 0.931565 0.432260
vt 0.909257 0.432262
vt 0.685424 0.879294
vt 0.663117 0.879295
vt 0.975774 0.342909
vt 0.975774 0.285654
vt 0.997648 0.285732
vt 0.997648 0.342987
vt 0.944451 0.772777
vt 0.944451 0.704737
vt 0.966753 0.704795
vt 0.966753 0.772835
vt 0.975774 0.285688
vt 0.975774 0.354089
vt 0.953469 0.354056
vt 0.953469 0.285654
vt 0.245209 0.990501
vt 0.245209 0.945352
vt 0.266998 0.945421
vt 0.266998 0.990569
vt 0.944451 0.846546
vt 0.966753 0.846605
vt 0.975774 0.426974
vt 0.953469 0.426940
vt 0.684859 0.879419
vt 0.684859 0.954202
vt 0.663117 0.954079
vt 0.663117 0.879295
vt 0.177630 0.432158
vt 0.179882 0.410306
vt 0.128961 0.432153
vt 0.126778 0.410302
vt 0.957354 0.282766
vt 0.957249 0.210548
vt 0.979508 0.210801
vt 0.979508 0.282800
vt 0.957249 0.210548
vt 0.957333 0.138190
vt 0.979529 0.138040
vt 0.979529 0.210221
vt 0.909257 0.702196
vt 0.909258 0.676624
vt 0.931021 0.675476
vt 0.931021 0.703419
vt 0.169796 0.430413
vt 0.172187 0.408599
vt 0.136766 0.430409
vt 0.134447 0.408597
vt 0.205707 0.000012
vt 0.297428 0.092164
vt 0.277399 0.100472
vt 0.197504 0.020097
vt 0.297428 0.241461
vt 0.277808 0.233800
vt 0.000000 0.098601
vt 0.098162 0.000000
vt 0.106434 0.020100
vt 0.020121 0.106863
vt 0.000000 0.231979
vt 0.019745 0.224318
vt 0.971010 0.595736
vt 0.971010 0.645123
vt 0.969444 0.643005
vt 0.969444 0.598134
vt 0.643097 0.826205
vt 0.643097 0.733882
vt 0.909257 0.666168
vt 0.909257 0.599218
vt 0.196860 0.575350
vt 0.256925 0.563352
vt 0.196852 0.604791
vt 0.379958 0.415942
vt 0.319810 0.429427
vt 0.378656 0.356847
vt 0.337063 0.908670
vt 0.337063 0.967154
vt 0.815810 0.891882
vt 0.815810 0.950009
vt 0.279891 0.940905
vt 0.219842 0.945352
vt 0.289114 0.548206
vt 0.289114 0.636291
vt 0.992289 0.589633
vt 0.992289 0.648736
vt 0.104802 0.890260
vt 0.127329 0.911737
vt 0.000000 0.911737
vt 0.102900 0.825341
vt 0.104802 0.890260
vt 0.102900 0.825341
vt 0.386232 0.815148
vt 0.337108 0.815148
vt 0.386232 0.815148
vt 0.337108 0.815148
vn 0.0519 0.9980 0.0365
vn 0.7842 0.1782 0.5944
vn 0.7003 0.1382 -0.7003
vn 0.7185 -0.0873 0.6901
vn -0.0420 -0.9968 -0.0674
vn 0.6419 0.2170 -0.7355
vn -0.3425 0.8749 0.3425
vn 0.3390 0.8776 0.3390
vn 0.0000 0.8606 0.5092
vn 0.3508 0.8683 -0.3508
vn 0.5004 0.8658 0.0000
vn -0.3525 0.8669 -0.3525
vn 0.0000 0.8736 -0.4867
vn -0.4951 0.8689 0.0000
vn 0.7071 0.0000 0.7071
vn 0.0000 -0.9922 -0.1247
vn 0.8483 -0.0620 -0.5259
vn 0.0000 0.1709 0.9853
vn -0.9824 0.0913 0.1629
vn -0.8444 0.1263 0.5207
vn 0.6783 0.2824 -0.6783
vn -0.7045 -0.0858 0.7045
vn 0.0000 -0.9260 -0.3775
vn 0.7357 0.2157 -0.6421
vn 0.0000 0.9984 0.0572
vn -0.7389 0.2300 0.6334
vn 0.8434 0.1321 0.5209
vn -0.5260 0.8089 0.2627
vn 0.9817 0.0979 0.1633
vn 0.0000 0.5929 0.8053
vn 0.7943 0.1138 0.5968
vn 0.7573 -0.2518 0.6026
vn -0.7558 -0.2575 0.6021
vn -0.7946 0.1096 0.5971
vn 0.0000 0.7765 0.6301
vn -0.9773 0.2119 0.0000
vn -0.8818 -0.0112 0.4714
vn -0.8843 -0.0191 -0.4666
vn -0.4993 -0.8664 0.0000
vn -0.0000 0.2204 -0.9754
vn 0.0000 -0.9502 -0.3117
vn -0.6348 -0.0152 -0.7725
vn 0.6393 -0.0150 -0.7688
vn 0.9784 0.2066 0.0000
vn 0.5220 -0.8529 0.0000
vn 0.8995 -0.0182 -0.4366
vn 0.8955 -0.0110 0.4449
vn -0.0938 0.2073 0.9738
vn 0.0940 0.2077 0.9737
vn 0.0000 0.0000 1.0000
vn -0.1055 0.2175 0.9703
vn 0.1057 0.2178 0.9703
vn 0.0000 0.2355 0.9719
vn 0.0000 1.0000 0.0000
vn -0.7071 0.0000 0.7071
vn -0.7071 0.0000 -0.7071
vn -1.0000 0.0000 0.0000
vn 0.0000 0.0000 -1.0000
vn 0.7071 0.0000 -0.7071
vn 1.0000 0.0000 0.0000
vn 0.6912 0.2109 -0.6912
vn 0.9876 0.1263 0.0927
vn 0.6191 0.5556 0.5550
vn 0.7115 0.2340 0.6625
vn 0.7572 0.1942 0.6236
vn 0.1212 -0.4221 0.8984
vn 0.0000 0.2935 0.9560
vn -0.1209 -0.4204 0.8992
vn -0.5113 -0.4196 0.7500
vn -0.6718 0.2668 0.6910
vn -0.6898 -0.3002 0.6588
vn -0.7693 0.2662 0.5807
vn -0.6122 -0.2896 -0.7357
vn -0.6916 0.2085 -0.6916
vn -0.7360 -0.2860 -0.6136
vn -0.9875 0.1202 0.1023
vn -0.7478 0.1899 0.6362
vn -0.7090 0.2290 0.6670
vn -0.6174 0.5492 0.5632
vn -0.7479 0.2094 0.6299
vn -0.7591 0.2181 0.6134
vn -0.7474 0.2295 0.6235
vn -0.7381 0.2177 0.6386
vn 0.5064 -0.4229 0.7514
vn 0.7846 0.2710 0.5577
vn 0.6781 -0.3089 0.6669
vn 0.6662 0.2728 0.6940
vn 0.7571 0.2133 0.6176
vn 0.7451 0.2220 0.6289
vn 0.7568 0.2341 0.6102
vn 0.7709 0.2222 0.5970
vn 0.7361 -0.2872 -0.6129
vn 0.6112 -0.2918 -0.7357
vn -0.5503 0.1446 0.8223
vn -0.7277 0.2660 0.6323
vn 0.3726 0.1776 -0.9108
vn -0.7149 0.1913 0.6726
vn -0.7481 0.2180 0.6267
vn 0.9818 0.1124 -0.1534
vn 0.7129 0.2133 -0.6680
vn 0.7349 0.2714 0.6215
vn 0.7575 0.2222 0.6139
vn -0.4457 -0.0379 0.8944
vn 0.3921 0.9199 -0.0000
vn -0.9820 0.1091 -0.1542
vn -0.6463 0.2143 -0.7324
vn -0.6788 0.2801 -0.6788
vn -0.7006 0.1358 -0.7006
vn -0.8756 -0.0657 -0.4785
vn -0.7325 0.2136 -0.6464
vn -0.7795 0.2760 0.5624
vn 0.6670 0.2121 0.7142
vn 0.0442 -0.9972 -0.0604
vn 0.7283 0.2149 -0.6507
vn 0.7823 0.2816 0.5556
vn 0.3667 -0.0402 0.9295
vn 0.7511 0.1617 0.6401
vn 0.7086 0.2296 0.6672
vn 0.6506 0.2160 -0.7281
vn 0.8336 0.2381 0.4985
vn -0.9903 0.1393 0.0000
vn -0.3447 -0.8731 -0.3447
vn -0.7280 0.1462 0.6698
vn -0.7543 0.1801 0.6313
vn -0.7006 0.2334 0.6742
vn -0.9860 -0.0434 0.1612
vn 0.0301 -0.9991 0.0301
vn 0.0696 -0.0816 -0.9942
vn 0.7915 0.0966 -0.6035
vn -0.1044 -0.9890 0.1044
vn -0.6814 0.2018 0.7035
vn 0.2412 -0.0555 -0.9689
vn -0.0629 0.9960 -0.0629
vn 0.4581 -0.7617 -0.4581
vn -0.9747 0.2170 0.0533
vn 0.7305 -0.6829 -0.0000
vn 0.9777 -0.0734 -0.1968
vn -0.9590 0.2834 0.0000
vn -0.9750 0.2159 -0.0533
vn -0.7571 0.2081 0.6193
vn -0.7348 0.2254 0.6397
vn -0.7603 0.2105 0.6145
vn -0.9134 0.1666 0.3713
vn 0.7172 0.1963 0.6687
vn 0.9571 -0.1459 0.2505
vn -0.7859 -0.1734 -0.5936
vn -0.7000 -0.1415 0.7000
vn 0.0608 -0.3034 -0.9509
vn -0.6129 -0.3695 -0.6985
vn -0.6428 -0.2169 0.7347
vn 0.3111 -0.6923 -0.6511
vn -0.2522 -0.6763 -0.6921
vn 0.0004 0.1103 -0.9939
vn -0.2945 -0.9088 0.2957
vn -0.4249 -0.9052 -0.0015
vn 0.2971 -0.9073 0.2977
vn -0.0002 -0.9138 0.4063
vn 0.4181 -0.9084 -0.0016
vn -0.6228 0.4736 -0.6228
vn -0.0000 -0.3943 -0.9190
vn -0.6396 -0.3594 -0.6796
vn -0.7001 -0.1408 0.7001
vn 0.0000 -0.1898 -0.9818
vn 0.9877 -0.0400 -0.1514
vn 0.8412 -0.1279 -0.5254
vn -0.6789 -0.2798 0.6789
vn -0.0608 -0.3041 -0.9507
vn 0.9388 -0.1962 -0.2832
vn -0.7349 -0.2156 0.6430
vn 0.1821 -0.9661 0.1831
vn 0.7387 -0.2299 -0.6336
vn -0.8399 -0.1337 -0.5260
vn -0.0005 -0.9522 -0.3056
vn -0.9874 -0.0477 -0.1509
vn 0.0006 0.5502 -0.8350
vn -0.8761 -0.0879 -0.4741
vn -0.7773 0.3038 -0.5510
vn 0.7759 0.3098 -0.5496
vn 0.8768 -0.0831 -0.4736
vn -0.0003 -0.7345 -0.6786
vn 0.9738 -0.2024 -0.1032
vn 0.7758 0.0079 -0.6309
vn 0.8368 -0.0081 0.5474
vn 0.9758 -0.2042 0.0779
vn 0.3440 0.9390 0.0026
vn 0.9627 -0.2706 -0.0016
vn -0.1879 -0.2029 0.9610
vn 0.1877 -0.2023 0.9612
vn 0.0003 0.9891 0.1471
vn 0.7674 -0.0131 0.6410
vn -0.7751 -0.0122 0.6317
vn -0.0000 -0.3097 0.9508
vn -0.9774 -0.1988 0.0713
vn -0.9754 -0.1966 -0.0998
vn -0.3655 0.9308 0.0024
vn -0.8602 -0.0076 0.5099
vn -0.8026 0.0066 -0.5965
vn -0.9648 -0.2631 -0.0017
vn 0.4106 -0.1638 -0.8970
vn -0.4112 -0.1654 -0.8964
vn 0.0002 0.1197 -0.9928
vn 0.1105 -0.2161 -0.9701
vn -0.1107 -0.2164 -0.9700
vn -0.0000 -0.2242 -0.9745
vn 0.2189 0.9506 -0.2200
vn -0.2198 0.9503 -0.2207
vn 0.0001 0.9522 -0.3053
vn -0.2181 0.9514 0.2174
vn -0.3077 0.9515 0.0004
vn 0.2178 0.9515 0.2174
vn 0.0001 0.9505 0.3109
vn 0.3090 0.9511 0.0005
vn 0.0000 -1.0000 -0.0000
vn 0.6228 0.4736 -0.6228
vn 0.6228 0.4736 0.6228
vn 0.0000 0.4737 -0.8807
vn 0.8807 0.4737 0.0000
vn 0.0000 0.4737 0.8807
vn -0.6228 0.4736 0.6228
vn -0.8807 0.4737 0.0000
vn -0.1252 -0.1186 0.9850
vn -0.6625 -0.3496 0.6624
vn -0.9878 -0.1044 0.1153
vn -0.7064 -0.0470 0.7062
vn -0.9286 -0.1619 -0.3338
vn -0.6422 -0.5088 -0.5733
vn -0.6584 -0.2256 -0.7181
vn -0.7556 -0.1939 -0.6256
vn 0.9872 0.1526 0.0455
vn 0.0004 0.5395 -0.8420
vn -0.9909 0.1334 0.0181
vn 0.0006 -0.5743 -0.8186
vn 0.9359 -0.2154 -0.2786
vn 0.0074 0.9982 -0.0596
vn -0.4104 0.0018 -0.9119
vn 0.7716 -0.3278 -0.5451
vn 0.9625 0.0019 -0.2713
vn 0.6634 -0.3457 0.6636
vn -0.2453 -0.0165 0.9693
vn -0.0324 0.9989 -0.0334
vn 0.7698 -0.1931 0.6084
vn 0.6814 -0.2671 0.6814
vn 0.6092 -0.1948 0.7687
vn 0.6971 -0.1686 0.6969
vn 0.9863 -0.1034 0.1287
vn 0.6634 -0.3461 0.6635
vn 0.1246 -0.1103 0.9861
vn 0.7065 -0.0440 0.7064
vn 0.9771 -0.1338 -0.1655
vn 0.7585 -0.0961 -0.6445
vn 0.2141 -0.1517 -0.9650
vn 0.5927 -0.6071 -0.5293
vn 0.8050 -0.2032 -0.5574
vn 0.7239 -0.0473 -0.6883
vn 0.4351 -0.1868 -0.8808
vn 0.7119 -0.3402 -0.6144
vn -0.0216 -0.2165 0.9760
vn 0.0001 -0.2189 0.9757
vn 0.0219 -0.2164 0.9761
vn -0.0000 -0.2390 0.9710
vn -0.9473 -0.1729 -0.2697
vn -0.9927 -0.1208 -0.0013
vn -0.9632 -0.1790 0.2006
vn -0.9550 -0.2966 -0.0013
vn 0.8738 -0.1411 0.4654
vn 0.9980 -0.0625 -0.0014
vn 0.7847 -0.1183 -0.6085
vn 0.9424 -0.3343 -0.0017
vn -0.9285 -0.2285 -0.2928
vn -0.7898 -0.3264 -0.5193
vn 0.4500 0.0001 -0.8930
vn -0.0092 0.9955 -0.0940
vn -0.8116 -0.2071 -0.5463
vn -0.7200 -0.3375 -0.6063
vn -0.5131 -0.2062 -0.8332
vn -0.7344 -0.0712 -0.6750
vn 0.1345 -0.0091 0.9909
vn -0.6784 -0.2811 0.6788
vn -0.9911 0.0087 -0.1332
vn -0.0574 0.9969 0.0544
vn -0.1238 -0.1185 0.9852
vn -0.6626 -0.3488 0.6628
vn -0.9856 -0.1073 0.1306
vn -0.7064 -0.0475 0.7062
vn -0.6912 -0.2109 0.6912
vn -0.7162 -0.1963 -0.6697
vn -0.0000 -0.2933 -0.9560
vn 0.7277 -0.2659 -0.6323
vn 0.6916 -0.2085 0.6916
vn 0.6919 -0.2061 0.6919
vn 0.7149 -0.1913 -0.6726
vn 0.7481 -0.2180 -0.6267
vn -0.0000 -0.2214 0.9752
vn -0.9792 -0.2027 -0.0000
vn 0.9773 -0.2119 0.0000
vn -0.7356 -0.2711 -0.6208
vn -0.7573 -0.2223 -0.6141
vn -0.6916 -0.2078 0.6917
vn -0.8104 -0.2163 -0.5445
vn -0.0004 -0.9987 0.0517
vn -0.8579 0.5139 0.0005
vn -0.9567 -0.1499 0.2495
vn 0.6468 -0.2143 0.7320
vn 0.6794 -0.2773 0.6794
vn 0.7003 -0.1386 0.7003
vn 0.7359 -0.3361 -0.5878
vn 0.7321 -0.2136 0.6468
vn 0.7790 -0.2750 -0.5635
vn -0.6822 -0.2117 -0.6998
vn 0.4461 0.7764 0.4452
vn 0.6599 -0.2566 -0.7062
vn -0.7282 -0.2149 0.6508
vn -0.7840 -0.2844 -0.5518
vn 0.7156 -0.2109 -0.6659
vn -0.6790 -0.2793 0.6790
vn -0.7509 -0.1579 -0.6412
vn 0.0003 0.8790 0.4769
vn -0.7296 -0.2236 0.6463
vn -0.6506 -0.2160 0.7280
vn -0.8223 -0.2388 -0.5165
vn -0.5755 -0.8178 -0.0006
vn 0.9898 -0.1427 0.0000
vn -0.7249 -0.2416 -0.6451
vn 0.7783 -0.1393 -0.6122
vn 0.7606 -0.1476 -0.6322
vn 0.6895 -0.2331 -0.6858
vn 0.6362 -0.2155 0.7408
vn 0.6792 -0.2782 0.6792
vn -0.9645 -0.1983 -0.1744
vn 0.7004 -0.1376 0.7004
vn 0.2548 -0.1926 -0.9476
vn -0.2908 -0.9106 0.2935
vn 0.6742 -0.2786 -0.6840
vn 0.7409 -0.2146 0.6364
vn -0.1304 -0.9847 -0.1153
vn -0.5306 0.6627 0.5285
vn 0.9747 -0.2171 -0.0533
vn -0.8659 -0.1409 0.4800
vn 0.1767 -0.2168 0.9601
vn 0.9600 -0.2802 0.0000
vn 0.9749 -0.2160 0.0533
vn 0.7573 -0.2081 -0.6190
vn 0.7349 -0.2253 -0.6397
vn 0.7603 -0.2106 -0.6145
vn -0.2846 -0.2087 0.9357
vn -0.4034 0.7917 -0.4588
vn 0.2142 -0.9768 0.0086
vn -0.2114 -0.9774 0.0062
vn -0.1333 -0.9790 0.1541
vn 0.1377 -0.9777 0.1588
vn -0.0175 -0.0806 0.9966
vn -0.0219 -0.1011 -0.9946
vn -0.2119 -0.9773 0.0000
vn 0.2119 0.9773 -0.0000
vn 0.9973 -0.0717 -0.0162
vn -0.9970 -0.0751 -0.0170
vn 0.0000 -0.9754 -0.2204
vn 0.0000 0.9754 0.2204
vn 0.0241 -0.1140 -0.9932
vn 0.0189 -0.0896 0.9958
vn 0.2066 -0.9784 0.0000
vn -0.2066 0.9784 0.0000
vn 0.0103 -0.9786 0.2055
vn -0.0126 -0.9788 0.2043
vn -0.9950 -0.0775 -0.0634
vn 0.9952 -0.0743 -0.0642
vn 0.0001 -0.9739 0.2272
vn -0.0392 -0.9765 0.2118
vn 0.0395 -0.9764 0.2121
vn 0.1749 -0.9691 -0.1739
vn 0.2450 -0.9478 0.2040
vn -0.1749 -0.9690 -0.1743
vn -0.2395 -0.9487 0.2064
vn -0.0001 -0.9684 -0.2495
vn 0.2968 -0.9549 -0.0083
vn -0.2966 -0.9550 -0.0091
vn 0.6220 -0.4442 0.6448
vn 0.9709 -0.2397 -0.0000
vn 0.0108 0.9999 0.0108
vn -0.0000 1.0000 0.0058
vn 0.1194 0.1950 0.9735
vn 0.5125 0.7541 0.4106
vn 0.9756 0.2164 0.0361
vn -0.8491 -0.0545 0.5255
vn -0.2786 -0.9191 -0.2786
vn 0.5280 -0.0427 -0.8482
vn 0.9736 -0.0223 -0.2271
vn -0.0000 -0.9053 -0.4247
vn -0.9734 -0.0256 -0.2278
vn 0.9001 0.2251 -0.3731
vn 0.7911 0.6117 0.0000
vn 0.8980 0.2343 0.3725
vn 0.3084 -0.8967 0.3176
vn 0.0000 0.9574 0.2889
vn 0.0000 0.4300 0.9028
vn 0.5259 0.8090 0.2625
vn 0.0000 0.9770 -0.2134
vn 0.0000 -0.5006 0.8657
vn 0.9371 -0.1696 0.3052
vn 0.0000 -0.9937 -0.1122
vn -0.9371 -0.1747 0.3022
usemtl Material
s off
f 102/1/1 99/2/1 446/3/1 448/4/1
f 144/5/2 145/6/2 194/7/2 191/8/2
f 96/9/3 97/10/3 162/11/3 161/12/3
f 105/13/4 106/14/4 169/15/4 170/16/4
f 146/17/5 143/18/5 192/19/5 193/20/5
f 157/21/6 158/22/6 205/23/6 206/24/6
f 79/25/7 80/26/7 56/27/7 20/28/7
f 81/29/8 82/30/8 22/31/8 69/32/8
f 82/30/9 79/25/9 20/28/9 22/31/9
f 83/33/10 84/34/10 70/35/10 63/36/10
f 84/34/11 81/29/11 69/32/11 70/35/11
f 85/37/12 86/38/12 64/39/12 55/40/12
f 86/38/13 83/33/13 63/36/13 64/39/13
f 80/26/14 85/37/14 55/40/14 56/27/14
f 29/41/15 31/42/15 93/43/15 94/44/15
f 104/45/16 105/13/16 170/16/16 168/46/16
f 143/18/17 144/47/17 191/48/17 192/19/17
f 156/49/3 157/21/3 206/24/3 203/50/3
f 106/14/18 103/51/18 167/52/18 169/15/18
f 462/53/19 16/54/19 49/55/19 464/56/19
f 16/54/20 1/57/20 44/58/20 49/55/20
f 158/22/21 155/59/21 204/60/21 205/23/21
f 103/51/22 104/45/22 168/46/22 167/52/22
f 134/61/23 131/62/23 443/63/23 442/64/23
f 155/65/24 156/66/24 203/67/24 204/68/24
f 132/69/25 133/70/25 455/71/25 453/72/25
f 129/73/26 130/74/26 187/75/26 188/76/26
f 6/77/27 4/78/27 45/79/27 41/80/27
f 15/81/28 52/82/28 468/83/28 466/84/28
f 4/78/29 461/85/29 463/86/29 45/79/29
f 48/87/30 51/88/30 476/89/30 473/90/30
f 41/80/31 45/79/31 470/91/31 42/92/31
f 45/93/32 463/94/32 469/95/32 470/96/32
f 471/97/33 472/98/33 464/99/33 49/100/33
f 43/101/34 471/102/34 49/55/34 44/58/34
f 463/103/35 464/104/35 472/105/35 469/106/35
f 7/107/36 8/108/36 53/109/36 54/110/36
f 8/108/37 32/111/37 55/112/37 53/109/37
f 18/113/38 12/114/38 57/115/38 56/116/38
f 12/114/36 11/117/36 58/118/36 57/115/36
f 32/111/39 18/113/39 56/116/39 55/112/39
f 11/117/36 7/107/36 54/110/36 58/118/36
f 40/119/40 39/120/40 59/121/40 60/122/40
f 37/123/40 38/124/40 62/125/40 61/126/40
f 28/127/41 30/128/41 64/129/41 63/130/41
f 38/124/42 28/127/42 63/130/42 62/125/42
f 30/128/43 40/119/43 60/122/43 64/129/43
f 39/120/40 37/123/40 61/126/40 59/121/40
f 33/131/44 34/132/44 66/133/44 65/134/44
f 36/135/44 35/136/44 67/137/44 68/138/44
f 24/139/45 26/140/45 70/141/45 69/142/45
f 34/132/46 24/139/46 69/142/46 66/133/46
f 26/140/47 36/135/47 68/138/47 70/141/47
f 35/136/44 33/131/44 65/134/44 67/137/44
f 42/143/48 470/96/48 75/144/48 76/145/48
f 471/97/49 43/146/49 77/147/49 78/148/49
f 470/96/50 471/97/50 78/148/50 75/144/50
f 71/149/51 72/150/51 76/145/51 75/144/51
f 73/151/52 74/152/52 78/148/52 77/147/52
f 74/152/53 71/149/53 75/144/53 78/148/53
f 19/153/54 17/154/54 80/26/54 79/25/54
f 23/155/54 21/156/54 82/30/54 81/29/54
f 21/156/54 19/153/54 79/25/54 82/30/54
f 27/157/54 25/158/54 84/34/54 83/33/54
f 25/158/54 23/155/54 81/29/54 84/34/54
f 31/159/54 29/160/54 86/38/54 85/37/54
f 29/160/54 27/157/54 83/33/54 86/38/54
f 17/154/54 31/159/54 85/37/54 80/26/54
f 92/161/54 91/162/54 94/163/54 93/164/54 88/165/54 87/166/54 90/167/54 89/168/54
f 25/169/55 27/170/55 91/171/55 92/172/55
f 21/173/56 23/174/56 89/175/56 90/176/56
f 27/170/50 29/177/50 94/178/50 91/171/50
f 23/174/57 25/179/57 92/180/57 89/175/57
f 19/181/58 21/182/58 90/183/58 87/184/58
f 17/185/59 19/181/59 87/184/59 88/186/59
f 31/42/60 17/187/60 88/188/60 93/43/60
f 67/189/61 10/190/61 96/9/61 95/191/61
f 10/190/61 9/192/61 97/10/61 96/9/61
f 9/192/61 61/126/61 98/193/61 97/10/61
f 61/126/61 67/189/61 95/191/61 98/193/61
f 4/78/62 6/77/62 100/194/62 99/195/62
f 6/77/63 5/196/63 101/197/63 100/194/63
f 5/196/64 65/134/64 102/198/64 101/197/64
f 65/134/65 4/78/65 99/195/65 102/198/65
f 461/199/66 22/200/66 104/45/66 103/51/66
f 22/200/67 20/201/67 105/13/67 104/45/67
f 20/201/68 462/202/68 106/14/68 105/13/68
f 462/202/67 461/199/67 103/51/67 106/14/67
f 462/53/69 20/203/69 108/204/69 107/205/69
f 20/206/70 56/207/70 109/208/70 108/209/70
f 56/116/71 57/115/71 110/210/71 109/211/71
f 57/115/72 462/53/72 107/205/72 110/210/72
f 64/212/73 60/213/73 112/214/73 111/215/73
f 60/213/74 53/109/74 113/216/74 112/214/74
f 53/109/75 55/112/75 114/217/75 113/216/75
f 55/112/74 64/212/74 111/215/74 114/217/74
f 59/218/74 14/219/74 116/220/74 115/221/74
f 14/219/74 13/222/74 117/223/74 116/220/74
f 13/222/74 54/110/74 118/224/74 117/223/74
f 54/110/74 59/218/74 115/221/74 118/224/74
f 60/213/74 59/218/74 120/225/74 119/226/74
f 59/218/74 54/110/74 121/227/74 120/225/74
f 54/110/74 53/109/74 122/228/74 121/227/74
f 53/109/74 60/213/74 119/226/74 122/228/74
f 1/57/76 16/54/76 124/229/76 123/230/76
f 16/54/77 58/118/77 125/231/77 124/229/77
f 58/118/78 2/232/78 126/233/78 125/231/78
f 2/232/79 1/57/79 123/230/79 126/233/79
f 16/54/80 462/53/80 128/234/80 127/235/80
f 462/53/81 57/115/81 129/73/81 128/234/81
f 57/115/82 58/118/82 130/74/82 129/73/82
f 58/118/83 16/54/83 127/235/83 130/74/83
f 14/236/40 59/121/40 132/237/40 131/238/40
f 59/121/40 61/126/40 133/239/40 132/237/40
f 61/126/40 9/192/40 134/240/40 133/239/40
f 9/192/40 14/236/40 131/238/40 134/240/40
f 10/241/44 67/137/44 136/242/44 135/243/44
f 67/137/44 65/134/44 137/244/44 136/242/44
f 65/134/44 5/196/44 138/245/44 137/244/44
f 5/196/44 10/241/44 135/243/44 138/245/44
f 2/232/36 58/118/36 140/246/36 139/247/36
f 58/118/36 54/110/36 141/248/36 140/246/36
f 54/110/36 13/222/36 142/249/36 141/248/36
f 13/222/36 2/232/36 139/247/36 142/249/36
f 22/250/84 461/85/84 144/5/84 143/251/84
f 461/85/85 66/133/85 145/6/85 144/5/85
f 66/133/86 69/142/86 146/252/86 145/6/86
f 69/253/87 22/254/87 143/18/87 146/17/87
f 461/85/88 4/78/88 148/255/88 147/256/88
f 4/78/89 65/134/89 149/257/89 148/255/89
f 65/134/90 66/133/90 150/258/90 149/257/90
f 66/133/91 461/85/91 147/256/91 150/258/91
f 70/259/92 68/260/92 152/261/92 151/262/92
f 68/260/61 62/125/61 153/263/61 152/261/61
f 62/125/93 63/130/93 154/264/93 153/263/93
f 63/130/61 70/259/61 151/262/61 154/264/61
f 68/260/61 67/189/61 156/49/61 155/59/61
f 67/189/61 61/126/61 157/21/61 156/49/61
f 61/126/61 62/125/61 158/22/61 157/21/61
f 62/125/61 68/260/61 155/59/61 158/22/61
f 165/265/61 161/12/61 162/11/61 166/266/61
f 99/267/94 100/268/94 430/269/94 446/270/94
f 167/52/67 168/46/67 170/16/67 169/15/67
f 171/271/95 172/272/95 174/273/95 173/274/95
f 176/275/74 175/276/74 178/277/74 177/278/74
f 115/279/96 116/280/96 438/281/96 450/282/96
f 180/283/74 179/284/74 182/285/74 181/286/74
f 160/287/97 183/288/97 184/289/97 159/290/97
f 185/291/98 186/292/98 188/76/98 187/75/98
f 133/293/99 134/294/99 442/295/99 455/296/99
f 135/243/100 136/242/100 457/297/100 433/298/100
f 164/299/36 189/300/36 190/301/36 163/302/36
f 192/303/101 191/8/101 194/7/101 193/304/101
f 196/305/102 195/306/102 198/307/102 197/308/102
f 200/309/61 199/310/61 202/311/61 201/312/61
f 204/60/61 203/50/61 206/24/61 205/23/61
f 145/6/103 146/252/103 193/304/103 194/7/103
f 136/313/104 137/314/104 459/315/104 457/316/104
f 434/317/44 458/318/44 460/319/44 435/320/44
f 131/321/105 132/322/105 453/323/105 443/324/105
f 119/325/106 120/326/106 179/327/106 180/328/106
f 122/228/107 119/226/107 180/283/107 181/286/107
f 120/225/108 121/227/108 182/285/108 179/284/108
f 107/205/109 108/204/109 172/272/109 171/271/109
f 121/227/110 122/228/110 181/286/110 182/285/110
f 110/210/111 107/205/111 171/271/111 173/274/111
f 147/329/112 148/330/112 195/331/112 196/332/112
f 449/333/74 437/334/74 440/335/74 451/336/74
f 108/209/113 109/208/113 174/337/113 172/338/113
f 95/339/114 96/340/114 161/341/114 165/342/114
f 150/258/115 147/256/115 196/305/115 197/308/115
f 109/211/116 110/210/116 173/274/116 174/273/116
f 98/193/21 95/191/21 165/265/21 166/266/21
f 148/255/117 149/257/117 198/307/117 195/306/117
f 444/343/40 454/344/40 456/345/40 441/346/40
f 137/244/118 138/245/118 436/347/118 459/348/118
f 97/10/119 98/193/119 166/266/119 162/11/119
f 149/257/120 150/258/120 197/308/120 198/307/120
f 142/249/121 139/247/121 164/299/121 163/302/121
f 116/349/122 117/350/122 439/351/122 438/352/122
f 123/230/123 124/229/123 183/288/123 160/287/123
f 124/229/124 125/231/124 184/289/124 183/288/124
f 125/231/125 126/233/125 159/290/125 184/289/125
f 111/353/126 112/354/126 175/355/126 176/356/126
f 114/217/127 111/215/127 176/275/127 177/278/127
f 151/357/128 152/358/128 199/359/128 200/360/128
f 112/214/108 113/216/108 178/277/108 175/276/108
f 101/197/129 102/198/129 448/361/129 431/362/129
f 154/363/130 151/364/130 200/365/130 201/366/130
f 126/367/131 123/368/131 160/369/131 159/370/131
f 113/216/132 114/217/132 177/278/132 178/277/132
f 118/371/133 115/372/133 450/373/133 452/374/133
f 152/375/134 153/376/134 202/377/134 199/378/134
f 139/247/135 140/246/135 189/300/135 164/299/135
f 138/245/136 135/243/136 433/298/136 436/347/136
f 153/263/137 154/264/137 201/312/137 202/311/137
f 140/246/138 141/248/138 190/301/138 189/300/138
f 141/248/139 142/249/139 163/302/139 190/301/139
f 127/235/140 128/234/140 186/292/140 185/291/140
f 130/74/141 127/235/141 185/291/141 187/75/141
f 128/234/142 129/73/142 188/76/142 186/292/142
f 117/223/143 118/224/143 452/379/143 439/380/143
f 445/381/144 429/382/144 432/383/144 447/384/144
f 337/385/145 376/386/145 407/387/145 338/388/145
f 350/389/146 413/390/146 416/391/146 351/392/146
f 302/393/147 369/394/147 370/395/147 303/396/147
f 311/397/148 386/398/148 385/399/148 312/400/148
f 352/401/149 415/402/149 414/403/149 349/404/149
f 363/405/150 428/406/150 427/407/150 364/408/150
f 285/409/151 226/410/151 262/411/151 286/412/151
f 287/413/152 275/414/152 228/415/152 288/416/152
f 288/416/153 228/415/153 226/410/153 285/409/153
f 289/417/154 269/418/154 276/419/154 290/420/154
f 290/420/155 276/419/155 275/414/155 287/413/155
f 291/421/156 261/422/156 270/423/156 292/424/156
f 292/424/157 270/423/157 269/418/157 289/417/157
f 286/412/158 262/411/158 261/422/158 291/421/158
f 235/425/159 300/426/159 299/427/159 237/428/159
f 310/429/160 384/430/160 386/398/160 311/397/160
f 349/404/161 414/403/161 413/431/161 350/432/161
f 362/433/162 425/434/162 428/406/162 363/405/162
f 312/400/163 385/399/163 383/435/163 309/436/163
f 221/437/164 258/438/164 255/439/164 222/440/164
f 222/440/165 255/439/165 250/441/165 207/442/165
f 364/408/166 427/407/166 426/443/166 361/444/166
f 309/436/167 383/435/167 384/430/167 310/429/167
f 323/445/168 374/446/168 396/447/168 324/448/168
f 361/449/169 426/450/169 425/451/169 362/452/169
f 324/453/170 396/454/170 395/455/170 321/456/170
f 335/457/171 406/458/171 405/459/171 336/460/171
f 212/461/172 247/462/172 251/463/172 210/464/172
f 209/465/173 253/466/173 258/467/173 221/468/173
f 210/464/174 251/463/174 253/469/174 209/470/174
f 252/471/175 256/472/175 257/473/175 254/474/175
f 247/462/176 248/475/176 252/476/176 251/463/176
f 251/477/177 252/471/177 254/474/177 253/478/177
f 256/472/178 255/479/178 258/480/178 257/473/178
f 249/481/179 250/441/179 255/439/179 256/482/179
f 253/466/180 254/483/180 257/484/180 258/467/180
f 213/485/181 260/486/181 259/487/181 214/488/181
f 214/488/182 259/487/182 261/489/182 238/490/182
f 224/491/183 262/492/183 263/493/183 218/494/183
f 218/494/184 263/493/184 264/495/184 217/496/184
f 238/490/185 261/489/185 262/492/185 224/491/185
f 217/496/186 264/495/186 260/486/186 213/485/186
f 246/497/187 266/498/187 265/499/187 245/500/187
f 243/501/188 267/502/188 268/503/188 244/504/188
f 234/505/189 269/506/189 270/507/189 236/508/189
f 244/504/190 268/503/190 269/506/190 234/505/190
f 236/508/191 270/507/191 266/498/191 246/497/191
f 245/500/192 265/499/192 267/502/192 243/501/192
f 239/509/193 271/510/193 272/511/193 240/512/193
f 242/513/194 274/514/194 273/515/194 241/516/194
f 230/517/195 275/518/195 276/519/195 232/520/195
f 240/512/196 272/511/196 275/518/196 230/517/196
f 232/520/197 276/519/197 274/514/197 242/513/197
f 241/516/198 273/515/198 271/510/198 239/509/198
f 248/521/199 282/522/199 281/523/199 252/471/199
f 256/472/200 284/524/200 283/525/200 249/526/200
f 252/471/201 281/523/201 284/524/201 256/472/201
f 277/527/202 281/523/202 282/522/202 278/528/202
f 279/529/203 283/525/203 284/524/203 280/530/203
f 280/530/204 284/524/204 281/523/204 277/527/204
f 225/531/205 285/532/205 286/533/205 223/534/205
f 229/535/206 287/536/206 288/537/206 227/538/206
f 227/538/207 288/537/207 285/532/207 225/531/207
f 233/539/208 289/540/208 290/541/208 231/542/208
f 231/542/209 290/541/209 287/536/209 229/535/209
f 237/543/210 291/544/210 292/545/210 235/546/210
f 235/546/211 292/545/211 289/540/211 233/539/211
f 223/534/212 286/533/212 291/544/212 237/543/212
f 298/547/213 295/548/213 296/549/213 293/550/213 294/551/213 299/552/213 300/553/213 297/554/213
f 231/555/214 298/556/214 297/557/214 233/558/214
f 227/559/215 296/560/215 295/561/215 229/562/215
f 233/558/216 297/557/216 300/563/216 235/564/216
f 229/565/217 295/566/217 298/567/217 231/568/217
f 225/569/218 293/570/218 296/560/218 227/559/218
f 223/571/219 294/572/219 293/570/219 225/569/219
f 237/428/220 299/427/220 294/573/220 223/574/220
f 273/575/221 301/576/221 302/393/221 216/577/221
f 216/577/222 302/393/222 303/396/222 215/578/222
f 215/579/223 303/580/223 304/581/223 267/582/223
f 267/583/224 304/584/224 301/576/224 273/575/224
f 210/464/225 305/585/225 306/586/225 212/461/225
f 212/461/226 306/586/226 307/587/226 211/588/226
f 211/589/227 307/590/227 308/591/227 271/592/227
f 271/593/228 308/594/228 305/585/228 210/464/228
f 209/595/229 309/596/229 310/597/229 228/598/229
f 228/599/230 310/429/230 311/397/230 226/600/230
f 226/601/231 311/602/231 312/603/231 221/604/231
f 221/605/232 312/400/232 309/436/232 209/606/232
f 221/437/233 313/607/233 314/608/233 226/609/233
f 226/610/234 314/611/234 315/612/234 262/613/234
f 262/614/235 315/615/235 316/616/235 263/617/235
f 263/618/236 316/619/236 313/607/236 221/437/236
f 270/620/237 317/621/237 318/622/237 266/623/237
f 266/623/238 318/622/238 319/624/238 259/625/238
f 259/626/239 319/627/239 320/628/239 261/629/239
f 261/630/240 320/631/240 317/632/240 270/633/240
f 265/634/241 321/635/241 322/636/241 220/637/241
f 220/637/242 322/636/242 323/638/242 219/639/242
f 219/640/243 323/641/243 324/642/243 260/643/243
f 260/644/244 324/645/244 321/635/244 265/634/244
f 266/623/245 325/646/245 326/647/245 265/634/245
f 265/634/246 326/647/246 327/648/246 260/644/246
f 260/649/247 327/650/247 328/651/247 259/652/247
f 259/625/248 328/653/248 325/646/248 266/623/248
f 207/442/249 329/654/249 330/655/249 222/440/249
f 222/440/250 330/655/250 331/656/250 264/657/250
f 264/658/251 331/659/251 332/660/251 208/661/251
f 208/662/252 332/663/252 329/654/252 207/442/252
f 222/440/253 333/664/253 334/665/253 221/437/253
f 221/437/254 334/665/254 335/457/254 263/618/254
f 263/666/255 335/667/255 336/668/255 264/669/255
f 264/657/256 336/460/256 333/664/256 222/440/256
f 220/670/257 337/671/257 338/672/257 265/499/257
f 265/499/258 338/672/258 339/673/258 267/502/258
f 267/502/259 339/673/259 340/674/259 215/675/259
f 215/675/260 340/674/260 337/671/260 220/670/260
f 216/676/261 341/677/261 342/678/261 273/515/261
f 273/515/262 342/678/262 343/679/262 271/510/262
f 271/510/263 343/679/263 344/680/263 211/681/263
f 211/681/264 344/680/264 341/677/264 216/676/264
f 208/682/265 345/683/265 346/684/265 264/495/265
f 264/495/266 346/684/266 347/685/266 260/486/266
f 260/486/267 347/685/267 348/686/267 219/687/267
f 219/687/268 348/686/268 345/683/268 208/682/268
f 228/688/269 349/689/269 350/389/269 209/470/269
f 209/470/270 350/389/270 351/392/270 272/690/270
f 272/691/271 351/692/271 352/693/271 275/694/271
f 275/695/272 352/696/272 349/689/272 228/688/272
f 209/470/273 353/697/273 354/698/273 210/464/273
f 210/464/274 354/698/274 355/699/274 271/593/274
f 271/700/275 355/701/275 356/702/275 272/703/275
f 272/690/276 356/704/276 353/697/276 209/470/276
f 276/705/277 357/706/277 358/707/277 274/708/277
f 274/708/278 358/707/278 359/709/278 268/710/278
f 268/711/279 359/712/279 360/713/279 269/714/279
f 269/715/280 360/716/280 357/706/280 276/705/280
f 274/708/281 361/444/281 362/433/281 273/575/281
f 273/575/282 362/433/282 363/405/282 267/583/282
f 267/717/283 363/718/283 364/719/283 268/720/283
f 268/710/284 364/408/284 361/444/284 274/708/284
f 379/721/285 380/722/285 370/395/285 369/394/285
f 381/723/286 382/724/286 368/725/286 367/726/286
f 383/435/287 385/399/287 386/398/287 384/430/287
f 387/727/288 389/728/288 390/729/288 388/730/288
f 392/731/289 393/732/289 394/733/289 391/734/289
f 395/735/290 396/447/290 374/446/290 373/736/290
f 398/737/289 399/738/289 400/739/289 397/740/289
f 366/741/291 365/742/291 402/743/291 401/744/291
f 403/745/292 405/459/292 406/458/292 404/746/292
f 376/747/293 375/748/293 408/749/293 407/750/293
f 371/751/294 372/752/294 410/753/294 409/754/294
f 378/755/295 377/756/295 412/757/295 411/758/295
f 414/759/296 415/760/296 416/391/296 413/390/296
f 418/761/297 419/762/297 420/763/297 417/764/297
f 422/765/298 423/766/298 424/767/298 421/768/298
f 426/443/285 427/407/285 428/406/285 425/434/285
f 351/392/299 416/391/299 415/760/299 352/696/299
f 338/769/300 407/770/300 408/771/300 339/772/300
f 344/680/301 372/752/301 371/751/301 341/677/301
f 339/773/302 408/774/302 375/775/302 340/776/302
f 325/777/303 398/778/303 397/779/303 326/780/303
f 328/653/304 399/738/304 398/737/304 325/646/304
f 326/647/305 397/740/305 400/739/305 327/648/305
f 313/607/306 387/727/306 388/730/306 314/608/306
f 327/648/307 400/739/307 399/738/307 328/653/307
f 316/619/308 389/728/308 387/727/308 313/607/308
f 353/781/309 418/782/309 417/783/309 354/784/309
f 322/785/310 373/786/310 374/787/310 323/788/310
f 314/789/311 388/790/311 390/791/311 315/792/311
f 301/793/312 379/794/312 369/795/312 302/796/312
f 356/704/313 419/762/313 418/761/313 353/697/313
f 315/797/314 390/729/314 389/728/314 316/619/314
f 304/584/315 380/722/315 379/721/315 301/576/315
f 354/698/316 417/764/316 420/763/316 355/699/316
f 340/798/317 375/799/317 376/800/317 337/801/317
f 341/677/318 371/751/318 409/754/318 342/678/318
f 303/396/319 370/395/319 380/722/319 304/584/319
f 355/699/320 420/763/320 419/762/320 356/704/320
f 342/802/321 409/803/321 410/804/321 343/805/321
f 348/686/322 377/756/322 378/755/322 345/683/322
f 343/679/323 410/753/323 372/752/323 344/680/323
f 329/654/324 366/741/324 401/744/324 330/655/324
f 330/655/325 401/744/325 402/743/325 331/656/325
f 331/659/326 402/806/326 365/807/326 332/660/326
f 317/808/327 392/809/327 391/810/327 318/811/327
f 320/812/328 393/732/328 392/731/328 317/621/328
f 357/813/329 422/814/329 421/815/329 358/816/329
f 318/622/330 391/734/330 394/733/330 319/624/330
f 305/817/331 381/818/331 367/819/331 306/820/331
f 360/821/332 423/822/332 422/823/332 357/824/332
f 332/660/333 365/807/333 366/825/333 329/826/333
f 319/624/334 394/733/334 393/732/334 320/812/334
f 308/827/335 382/828/335 381/829/335 305/830/335
f 358/831/336 421/832/336 424/833/336 359/834/336
f 345/683/337 378/755/337 411/758/337 346/684/337
f 307/835/338 368/725/338 382/724/338 308/836/338
f 359/837/339 424/767/339 423/766/339 360/838/339
f 346/684/340 411/758/340 412/757/340 347/685/340
f 347/685/341 412/757/341 377/756/341 348/686/341
f 333/664/342 403/745/342 404/746/342 334/665/342
f 336/460/343 405/459/343 403/745/343 333/664/343
f 334/665/344 404/746/344 406/458/344 335/457/344
f 321/839/345 395/840/345 373/841/345 322/842/345
f 306/843/346 367/844/346 368/845/346 307/846/346
f 41/847/347 42/848/347 248/849/347 247/850/347
f 43/851/348 44/852/348 250/853/348 249/854/348
f 44/852/349 1/855/349 207/856/349 250/853/349
f 6/857/350 41/847/350 247/850/350 212/858/350
f 8/859/351 7/860/351 213/861/351 214/862/351
f 32/863/351 8/859/351 214/862/351 238/864/351
f 12/865/352 18/866/352 224/867/352 218/868/352
f 11/869/352 12/865/352 218/868/352 217/870/352
f 18/871/353 32/872/353 238/873/353 224/874/353
f 7/875/354 11/876/354 217/877/354 213/878/354
f 39/879/355 40/880/355 246/881/355 245/882/355
f 38/883/356 37/884/356 243/885/356 244/886/356
f 30/887/357 28/888/357 234/889/357 236/890/357
f 28/891/356 38/883/356 244/886/356 234/892/356
f 40/880/355 30/893/355 236/894/355 246/881/355
f 37/895/358 39/896/358 245/897/358 243/898/358
f 34/899/359 33/900/359 239/901/359 240/902/359
f 35/903/360 36/904/360 242/905/360 241/906/360
f 26/907/361 24/908/361 230/909/361 232/910/361
f 24/911/359 34/899/359 240/902/359 230/912/359
f 36/904/360 26/913/360 232/914/360 242/905/360
f 33/915/362 35/916/362 241/917/362 239/918/362
f 42/848/363 76/919/363 282/920/363 248/849/363
f 77/921/364 43/851/364 249/854/364 283/922/364
f 72/923/365 71/924/365 277/925/365 278/926/365
f 74/927/366 73/928/366 279/929/366 280/930/366
f 71/931/367 74/932/367 280/933/367 277/934/367
f 76/919/368 72/935/368 278/936/368 282/920/368
f 73/937/369 77/921/369 283/922/369 279/938/369
f 9/939/370 10/940/370 216/941/370 215/942/370
f 5/943/371 6/857/371 212/858/371 211/944/371
f 13/945/372 14/946/372 220/947/372 219/948/372
f 1/855/373 2/949/373 208/950/373 207/856/373
f 14/946/374 9/939/374 215/942/374 220/947/374
f 10/940/375 5/943/375 211/944/375 216/941/375
f 2/949/376 13/945/376 219/948/376 208/950/376
f 430/951/377 431/952/377 432/953/377 429/954/377
f 434/317/378 435/320/378 436/347/378 433/298/378
f 438/352/379 439/351/379 440/955/379 437/956/379
f 442/64/380 443/63/380 444/957/380 441/958/380
f 429/382/381 445/381/381 446/959/381 430/960/381
f 445/381/382 447/384/382 448/961/382 446/959/382
f 431/362/383 448/361/383 447/384/383 432/383/383
f 437/334/384 449/333/384 450/962/384 438/963/384
f 449/333/385 451/336/385 452/964/385 450/962/385
f 451/336/386 440/335/386 439/380/386 452/379/386
f 443/324/387 453/323/387 454/965/387 444/966/387
f 453/72/388 455/71/388 456/967/388 454/968/388
f 441/346/389 456/345/389 455/969/389 442/970/389
f 433/298/390 457/297/390 458/318/390 434/317/390
f 457/316/391 459/315/391 460/971/391 458/972/391
f 435/320/392 460/319/392 459/348/392 436/347/392
f 100/973/393 101/974/393 431/952/393 430/951/393
f 15/81/394 3/975/394 461/976/394 462/977/394
f 47/978/394 52/82/394 464/104/394 463/103/394
f 3/975/394 47/978/394 463/103/394 461/976/394
f 52/82/394 15/81/394 462/977/394 464/104/394
f 465/979/394 466/84/394 468/83/394 467/980/394
f 52/82/395 47/978/395 467/980/395 468/83/395
f 47/978/396 3/975/396 465/979/396 467/980/396
f 3/975/397 15/81/397 466/84/397 465/979/397
f 48/87/398 46/981/398 470/96/398 469/95/398
f 50/982/398 51/88/398 472/98/398 471/97/398
f 51/88/398 48/87/398 469/95/398 472/98/398
f 46/981/398 50/982/398 471/97/398 470/96/398
f 474/983/398 473/90/398 476/89/398 475/984/398
f 46/981/399 48/87/399 473/90/399 474/983/399
f 50/982/400 46/981/400 474/983/400 475/984/400
f 51/88/401 50/982/401 475/984/401 476/89/401
