# Blender v2.79 (sub 0) OBJ File: 'Objekte.blend'
# www.blender.org
mtllib Lampe.mtl
o Circle.001
v 0.000000 1.000000 0.000000
v -0.239969 0.980785 0.000000
v -0.470716 0.923880 0.000000
v -0.683374 0.831470 0.000000
v -0.869770 0.707107 0.000000
v -1.022742 0.555570 0.000000
v -1.136410 0.382683 0.000000
v -1.206406 0.195090 0.000000
v -1.230041 0.000000 0.000000
v -1.206406 -0.195090 -0.000000
v -1.136410 -0.382683 -0.000000
v -1.022742 -0.555570 -0.000000
v -0.869770 -0.707107 -0.000000
v -0.683374 -0.831470 -0.000000
v -0.470716 -0.923880 -0.000000
v -0.239969 -0.980785 -0.000000
v 0.000000 -1.000000 -0.000000
v 0.239970 -0.980785 -0.000000
v 0.470717 -0.923879 -0.000000
v 0.683375 -0.831469 -0.000000
v 0.869771 -0.707106 -0.000000
v 1.022742 -0.555570 -0.000000
v 1.136410 -0.382683 -0.000000
v 1.206406 -0.195089 -0.000000
v 1.230041 0.000001 0.000000
v 1.206406 0.195091 0.000000
v 1.136409 0.382684 0.000000
v 1.022741 0.555571 0.000000
v 0.869769 0.707108 0.000000
v 0.683373 0.831470 0.000000
v 0.470715 0.923880 0.000000
v 0.239967 0.980786 0.000000
v 0.039210 1.000000 0.841346
v -0.202747 0.980785 0.827127
v -0.436913 0.923879 0.802675
v -0.654288 0.831470 0.768931
v -0.846519 0.707107 0.727191
v -1.006219 0.555570 0.679059
v -1.127251 0.382683 0.626385
v -1.204962 0.195090 0.571194
v -1.236368 0.000000 0.515605
v -1.220262 -0.195090 0.461756
v -1.157260 -0.382683 0.411716
v -1.049787 -0.555570 0.367407
v -0.901970 -0.707107 0.330533
v -0.719491 -0.831470 0.302510
v -0.509363 -0.923880 0.284417
v -0.279660 -0.980785 0.276946
v -0.039209 -1.000000 0.280387
v 0.202748 -0.980785 0.294607
v 0.436913 -0.923879 0.319058
v 0.654288 -0.831469 0.352803
v 0.846519 -0.707106 0.394543
v 1.006220 -0.555570 0.442675
v 1.127251 -0.382683 0.495348
v 1.204963 -0.195089 0.550540
v 1.236368 0.000001 0.606129
v 1.220261 0.195091 0.659978
v 1.157260 0.382684 0.710018
v 1.049786 0.555571 0.754327
v 0.901969 0.707108 0.791201
v 0.719490 0.831470 0.819223
v 0.509361 0.923880 0.837317
v 0.279658 0.980785 0.844787
v 0.026586 0.704216 0.518493
v -0.137473 0.689084 0.512685
v -0.296250 0.647471 0.507022
v -0.443642 0.580976 0.501722
v -0.573984 0.492155 0.496989
v -0.682269 0.384421 0.493005
v -0.764335 0.261913 0.489922
v -0.817028 0.129340 0.487860
v -0.838323 -0.008203 0.486897
v -0.827401 -0.145431 0.487071
v -0.784683 -0.277070 0.488375
v -0.711810 -0.398062 0.490758
v -0.611583 -0.503756 0.494129
v -0.487853 -0.590091 0.498359
v -0.345375 -0.653749 0.503285
v -0.189624 -0.692284 0.508718
v -0.026586 -0.704215 0.514448
v 0.137474 -0.689084 0.520257
v 0.296250 -0.647471 0.525919
v 0.443642 -0.580976 0.531219
v 0.573985 -0.492155 0.535952
v 0.682270 -0.384420 0.539936
v 0.764335 -0.261912 0.543019
v 0.817028 -0.129339 0.545081
v 0.838323 0.008204 0.546044
v 0.827401 0.145432 0.545870
v 0.784683 0.277071 0.544567
v 0.711810 0.398063 0.542183
v 0.611582 0.503757 0.538812
v 0.487852 0.590092 0.534582
v 0.345374 0.653750 0.529656
v 0.189623 0.692285 0.524223
v -0.016923 -0.448261 0.515183
v -0.120703 -0.440667 0.511536
v -0.219845 -0.416138 0.508078
v -0.310538 -0.375617 0.504942
v -0.389297 -0.320661 0.502249
v -0.453096 -0.253382 0.500103
v -0.499482 -0.176366 0.498586
v -0.526674 -0.092573 0.497757
v -0.533626 -0.005221 0.497646
v -0.520071 0.082330 0.498259
v -0.486530 0.166718 0.499572
v -0.434292 0.244699 0.501534
v -0.365364 0.313277 0.504070
v -0.282396 0.369815 0.507083
v -0.188575 0.412141 0.510456
v -0.087507 0.438630 0.514061
v 0.016923 0.448261 0.517758
v 0.087507 -0.438629 0.518881
v 0.188575 -0.412141 0.522485
v 0.282396 -0.369814 0.525859
v 0.365364 -0.313276 0.528871
v 0.434292 -0.244699 0.531407
v 0.486530 -0.166718 0.533370
v 0.520071 -0.082330 0.534682
v 0.533626 0.005222 0.535295
v 0.526674 0.092573 0.535185
v 0.499482 0.176367 0.534355
v 0.453095 0.253383 0.532838
v 0.389297 0.320661 0.530692
v 0.310537 0.375617 0.527999
v 0.219844 0.416138 0.524864
v 0.120702 0.440667 0.521406
v -0.000000 0.000000 0.516471
v -0.000000 0.000000 0.516471
v -0.000000 0.000000 0.516471
v -0.000000 0.000000 0.516471
v -0.000000 0.000000 0.516471
v -0.000000 0.000000 0.516471
v -0.000000 0.000000 0.516471
v -0.000000 0.000000 0.516471
v -0.000000 0.000000 0.516471
v -0.000000 0.000000 0.516471
v -0.000000 0.000000 0.516471
v -0.000000 0.000000 0.516471
v -0.000000 0.000000 0.516471
v -0.000000 0.000000 0.516471
v -0.000000 0.000000 0.516471
v -0.000000 0.000000 0.516471
v -0.000000 0.000000 0.516471
v -0.000000 0.000000 0.516471
v -0.000000 0.000000 0.516471
v -0.000000 0.000000 0.516471
v -0.000000 0.000000 0.516471
v -0.000000 0.000000 0.516471
v -0.000000 0.000000 0.516471
v -0.000000 0.000000 0.516471
v -0.000000 0.000000 0.516471
v -0.000000 0.000000 0.516471
v -0.000000 0.000000 0.516471
v -0.000000 0.000000 0.516471
v -0.000000 0.000000 0.516471
v -0.000000 0.000000 0.516471
v -0.000000 0.000000 0.516471
v -0.000000 0.000000 0.516471
v -0.137473 0.689084 0.705437
v 0.026586 0.704215 0.711245
v -0.296250 0.647471 0.699774
v -0.443642 0.580976 0.694474
v -0.573984 0.492155 0.689742
v -0.682269 0.384421 0.685757
v -0.764335 0.261913 0.682675
v -0.817028 0.129340 0.680613
v -0.838323 -0.008203 0.679650
v -0.827401 -0.145431 0.679824
v -0.784683 -0.277070 0.681127
v -0.711810 -0.398062 0.683510
v -0.611583 -0.503756 0.686882
v -0.487853 -0.590091 0.691112
v -0.345375 -0.653749 0.696038
v -0.189624 -0.692285 0.701470
v -0.026586 -0.704215 0.707201
v 0.137474 -0.689084 0.713009
v 0.296250 -0.647471 0.718672
v 0.443642 -0.580976 0.723972
v 0.573985 -0.492155 0.728705
v 0.682270 -0.384420 0.732689
v 0.764335 -0.261912 0.735771
v 0.817028 -0.129339 0.737833
v 0.838323 0.008204 0.738796
v 0.827401 0.145432 0.738622
v 0.784683 0.277071 0.737319
v 0.711810 0.398063 0.734936
v 0.611582 0.503757 0.731564
v 0.487852 0.590092 0.727334
v 0.345374 0.653750 0.722408
v 0.189623 0.692285 0.716976
v -0.520071 0.082330 0.691011
v 0.219844 0.416138 0.717616
v 0.310537 0.375617 0.720752
v 0.389297 0.320661 0.723444
v 0.453095 0.253383 0.725590
v 0.499482 0.176367 0.727107
v 0.526674 0.092573 0.727937
v 0.533626 0.005222 0.728048
v 0.520071 -0.082330 0.727435
v 0.486530 -0.166718 0.726122
v 0.434292 -0.244699 0.724160
v 0.365364 -0.313276 0.721624
v 0.282396 -0.369814 0.718611
v 0.188575 -0.412141 0.715238
v 0.087507 -0.438629 0.711633
v -0.120703 -0.440667 0.704288
v -0.219845 -0.416138 0.700830
v -0.310538 -0.375617 0.697694
v -0.389297 -0.320661 0.695002
v -0.453096 -0.253382 0.692856
v -0.499482 -0.176366 0.691339
v -0.526674 -0.092573 0.690509
v -0.533626 -0.005221 0.690398
v -0.486530 0.166718 0.692324
v -0.434292 0.244699 0.694286
v -0.365364 0.313277 0.696822
v -0.282396 0.369815 0.699835
v -0.188575 0.412141 0.703208
v 0.016923 0.448261 0.710510
v 0.120702 0.440667 0.714158
v -0.087507 0.438630 0.706813
v -0.016923 -0.448261 0.707936
vt 0.175005 0.735786
vt 0.040984 0.736627
vt 0.053185 0.695357
vt 0.174921 0.695142
vt 0.998862 0.082607
vt 0.917598 0.077240
vt 0.908110 0.043282
vt 0.999164 0.047398
vt 0.175048 0.772828
vt 0.029126 0.774274
vt 0.998654 0.124179
vt 0.925538 0.117770
vt 0.175048 0.804843
vt 0.018068 0.806852
vt 0.998548 0.170515
vt 0.931624 0.163315
vt 0.175005 0.830603
vt 0.008233 0.833110
vt 0.998548 0.219835
vt 0.935622 0.212125
vt 0.940516 0.719743
vt 0.757626 0.712129
vt 0.754522 0.663574
vt 0.940556 0.671580
vt 0.174921 0.849116
vt 0.000000 0.852038
vt 0.998654 0.270244
vt 0.937378 0.262323
vt 0.940437 0.769490
vt 0.762954 0.762550
vt 0.940437 0.554376
vt 0.759295 0.546980
vt 0.765377 0.522791
vt 0.940323 0.529415
vt 0.998862 0.319805
vt 0.936826 0.311980
vt 0.940323 0.818909
vt 0.770301 0.812899
vt 0.940516 0.587277
vt 0.755373 0.579382
vt 0.999164 0.366612
vt 0.933986 0.359189
vt 0.940178 0.866101
vt 0.779385 0.861241
vt 0.940556 0.626852
vt 0.753762 0.618751
vt 0.999548 0.408867
vt 0.928967 0.402135
vt 0.940007 0.909253
vt 0.789856 0.905719
vt 1.000000 0.444947
vt 0.921963 0.439168
vt 0.939817 0.946705
vt 0.801313 0.944622
vt 0.174463 0.567543
vt 0.087202 0.566005
vt 0.096224 0.526569
vt 0.174260 0.528577
vt 0.939615 0.977019
vt 0.813314 0.976457
vt 0.174645 0.609373
vt 0.076747 0.608375
vt 0.939410 0.999030
vt 0.825400 1.000000
vt 0.174800 0.652457
vt 0.065261 0.652052
vt 0.999548 0.019904
vt 0.897437 0.017201
vt 0.885991 0.000000
vt 1.000000 0.001181
vt 0.445161 0.295702
vt 0.445161 0.244379
vt 0.453631 0.193711
vt 0.470246 0.145643
vt 0.494368 0.102024
vt 0.525069 0.064529
vt 0.561170 0.034600
vt 0.601283 0.013386
vt 0.643867 0.001703
vt 0.687285 0.000000
vt 0.729868 0.008342
vt 0.769981 0.026409
vt 0.806082 0.053507
vt 0.836783 0.088593
vt 0.860905 0.130320
vt 0.877520 0.177084
vt 0.885991 0.227089
vt 0.885991 0.278411
vt 0.877520 0.329080
vt 0.860905 0.377148
vt 0.836783 0.420767
vt 0.806082 0.458262
vt 0.769981 0.488191
vt 0.729868 0.509405
vt 0.687284 0.521088
vt 0.643866 0.522791
vt 0.601283 0.514449
vt 0.561170 0.496382
vt 0.525069 0.469284
vt 0.494368 0.434198
vt 0.470246 0.392471
vt 0.453631 0.345706
vt 0.080694 0.060139
vt 0.126373 0.124389
vt 0.104583 0.149253
vt 0.049691 0.097050
vt 0.000000 0.291103
vt 0.068568 0.280576
vt 0.074087 0.315040
vt 0.008554 0.341859
vt 0.419828 0.386219
vt 0.358832 0.347314
vt 0.370851 0.314838
vt 0.436607 0.338195
vt 0.117149 0.031034
vt 0.151880 0.104847
vt 0.395470 0.429519
vt 0.341596 0.376546
vt 0.157656 0.010854
vt 0.180123 0.091379
vt 0.364467 0.466431
vt 0.319806 0.401410
vt 0.200658 0.000375
vt 0.210018 0.084503
vt 0.328011 0.495536
vt 0.294299 0.420952
vt 0.244503 0.000000
vt 0.240414 0.084482
vt 0.287504 0.515715
vt 0.266056 0.434420
vt 0.287505 0.009743
vt 0.270145 0.091318
vt 0.244502 0.526194
vt 0.236161 0.441296
vt 0.328012 0.029229
vt 0.298068 0.104748
vt 0.200658 0.526569
vt 0.205764 0.441317
vt 0.364467 0.057709
vt 0.323109 0.124255
vt 0.157656 0.516827
vt 0.176033 0.434481
vt 0.395470 0.094090
vt 0.344307 0.149090
vt 0.117149 0.497341
vt 0.148111 0.421051
vt 0.419828 0.136973
vt 0.360846 0.178299
vt 0.000000 0.239277
vt 0.068987 0.245433
vt 0.080693 0.468860
vt 0.123069 0.401544
vt 0.436607 0.184710
vt 0.372091 0.210759
vt 0.008554 0.188374
vt 0.075328 0.210961
vt 0.049691 0.432479
vt 0.101872 0.376709
vt 0.445161 0.235467
vt 0.377611 0.245223
vt 0.025332 0.140350
vt 0.087347 0.178485
vt 0.025332 0.389596
vt 0.085333 0.347500
vt 0.445161 0.287292
vt 0.377192 0.280366
vt 0.373186 0.853147
vt 0.372709 0.836891
vt 0.415306 0.838299
vt 0.415782 0.854556
vt 0.305926 0.872644
vt 0.305931 0.892406
vt 0.263335 0.893744
vt 0.263330 0.873983
vt 0.371538 0.724603
vt 0.371485 0.690131
vt 0.414081 0.691539
vt 0.414134 0.726011
vt 0.218889 0.969316
vt 0.219651 0.982716
vt 0.177031 0.983035
vt 0.176269 0.969635
vt 0.305941 0.808450
vt 0.305931 0.829844
vt 0.263335 0.831182
vt 0.263345 0.809788
vt 0.371694 0.757734
vt 0.414291 0.759142
vt 0.218290 0.950784
vt 0.175670 0.951103
vt 0.305995 0.753938
vt 0.305974 0.769754
vt 0.263378 0.771092
vt 0.263400 0.755277
vt 0.217878 0.927833
vt 0.175258 0.928151
vt 0.306392 0.790751
vt 0.306773 0.771841
vt 0.349393 0.771522
vt 0.349012 0.790433
vt 0.217668 0.901344
vt 0.175048 0.901662
vt 0.305995 0.829621
vt 0.306129 0.810261
vt 0.348749 0.809943
vt 0.348615 0.829302
vt 0.217668 0.872335
vt 0.175048 0.872653
vt 0.306129 0.864948
vt 0.305995 0.848086
vt 0.348615 0.847768
vt 0.348749 0.864629
vt 0.217878 0.841921
vt 0.175258 0.842239
vt 0.306773 0.891354
vt 0.306392 0.879557
vt 0.349012 0.879239
vt 0.349393 0.891035
vt 0.218290 0.811271
vt 0.175670 0.811590
vt 0.263026 0.952879
vt 0.263330 0.963227
vt 0.220734 0.961818
vt 0.220430 0.951470
vt 0.218889 0.781563
vt 0.176269 0.781881
vt 0.262542 0.921916
vt 0.262761 0.938930
vt 0.220165 0.937521
vt 0.219946 0.920508
vt 0.219651 0.753938
vt 0.177031 0.754257
vt 0.262247 0.859460
vt 0.262281 0.881403
vt 0.219684 0.879994
vt 0.219651 0.858051
vt 0.940631 0.548975
vt 0.940666 0.524129
vt 0.983261 0.522791
vt 0.983227 0.547637
vt 0.262380 0.816385
vt 0.262281 0.837506
vt 0.219684 0.836098
vt 0.219784 0.814977
vt 0.262380 0.902492
vt 0.219784 0.901083
vt 0.940602 0.577891
vt 0.983198 0.576553
vt 0.262761 0.779825
vt 0.262542 0.796909
vt 0.219946 0.795500
vt 0.220165 0.778417
vt 0.305955 0.788160
vt 0.263359 0.789498
vt 0.940580 0.609767
vt 0.983175 0.608428
vt 0.263330 0.755347
vt 0.263026 0.765792
vt 0.220430 0.764383
vt 0.220734 0.753938
vt 0.940564 0.643377
vt 0.983160 0.642038
vt 0.226742 0.741446
vt 0.273266 0.640254
vt 0.273266 0.640254
vt 0.244617 0.749797
vt 0.244617 0.531384
vt 0.273266 0.640254
vt 0.273266 0.640254
vt 0.226742 0.540156
vt 0.263592 0.753938
vt 0.273266 0.640254
vt 0.273266 0.640254
vt 0.282940 0.753711
vt 0.273266 0.640254
vt 0.301915 0.749123
vt 0.273266 0.640254
vt 0.319790 0.740352
vt 0.210656 0.552774
vt 0.273266 0.640254
vt 0.273266 0.640254
vt 0.196975 0.568754
vt 0.335877 0.727733
vt 0.273266 0.640254
vt 0.273266 0.640254
vt 0.349557 0.711754
vt 0.360306 0.693026
vt 0.273266 0.640254
vt 0.273266 0.640254
vt 0.367710 0.672270
vt 0.360306 0.585434
vt 0.273266 0.640254
vt 0.273266 0.640254
vt 0.349557 0.566960
vt 0.186226 0.587481
vt 0.273266 0.640254
vt 0.273266 0.640254
vt 0.178822 0.608237
vt 0.371485 0.627913
vt 0.273266 0.640254
vt 0.273266 0.640254
vt 0.367710 0.606016
vt 0.335877 0.551301
vt 0.273266 0.640254
vt 0.273266 0.640254
vt 0.319790 0.539062
vt 0.301916 0.530711
vt 0.273266 0.640254
vt 0.273266 0.640254
vt 0.282940 0.526569
vt 0.175048 0.630223
vt 0.273266 0.640254
vt 0.273266 0.640254
vt 0.175048 0.652594
vt 0.263593 0.526797
vt 0.273266 0.640254
vt 0.273266 0.640254
vt 0.371485 0.650284
vt 0.273266 0.640254
vt 0.178822 0.674492
vt 0.186226 0.695073
vt 0.273266 0.640254
vt 0.273266 0.640254
vt 0.196975 0.713548
vt 0.210656 0.729206
vt 0.273266 0.640254
vt 0.445161 0.685630
vt 0.501243 0.691358
vt 0.501243 0.713729
vt 0.445161 0.720776
vt 0.501100 0.841132
vt 0.536850 0.790341
vt 0.552937 0.802580
vt 0.526372 0.860360
vt 0.672550 0.542416
vt 0.645985 0.600196
vt 0.628110 0.591845
vt 0.644469 0.529297
vt 0.736200 0.615267
vt 0.686501 0.646569
vt 0.675752 0.628094
vt 0.719314 0.586244
vt 0.614658 0.879628
vt 0.609135 0.814845
vt 0.628110 0.810258
vt 0.644469 0.872421
vt 0.570812 0.810931
vt 0.554453 0.873480
vt 0.609135 0.587704
vt 0.614658 0.522791
vt 0.662072 0.612436
vt 0.697822 0.561645
vt 0.645985 0.801486
vt 0.672550 0.858641
vt 0.589787 0.815073
vt 0.584264 0.879986
vt 0.589787 0.587931
vt 0.584264 0.523148
vt 0.662072 0.788868
vt 0.697822 0.838818
vt 0.747832 0.647601
vt 0.693905 0.667150
vt 0.570812 0.592519
vt 0.554453 0.530355
vt 0.451090 0.651090
vt 0.505017 0.669372
vt 0.479608 0.816533
vt 0.523170 0.774682
vt 0.753762 0.682001
vt 0.697680 0.689048
vt 0.462722 0.618483
vt 0.512421 0.648616
vt 0.462722 0.787509
vt 0.512421 0.756208
vt 0.753762 0.717146
vt 0.697680 0.711419
vt 0.479608 0.589062
vt 0.523170 0.629888
vt 0.451090 0.755176
vt 0.505017 0.735626
vt 0.747832 0.751686
vt 0.693905 0.733405
vt 0.501100 0.563958
vt 0.536850 0.613908
vt 0.736200 0.784293
vt 0.686501 0.754161
vt 0.526372 0.544135
vt 0.552937 0.601290
vt 0.719314 0.813714
vt 0.675752 0.772888
vt 0.371538 0.655641
vt 0.414134 0.657050
vt 0.305941 0.910045
vt 0.305955 0.924884
vt 0.263359 0.926222
vt 0.263345 0.911383
vt 0.372292 0.814977
vt 0.414888 0.816386
vt 0.371694 0.622460
vt 0.414290 0.623869
vt 0.371949 0.788249
vt 0.414545 0.789658
vt 0.371949 0.591863
vt 0.414545 0.593272
vt 0.305926 0.851520
vt 0.263330 0.852858
vt 0.372292 0.565025
vt 0.414888 0.566434
vt 0.372709 0.542978
vt 0.415306 0.544387
vt 0.307258 0.899883
vt 0.349878 0.899565
vt 0.373186 0.526569
vt 0.415782 0.527978
vt 0.305974 0.936352
vt 0.305995 0.944009
vt 0.263400 0.945348
vt 0.263378 0.937691
vt 0.940666 0.822730
vt 0.940631 0.810701
vt 0.983227 0.809362
vt 0.983261 0.821391
vt 0.940602 0.792684
vt 0.983198 0.791345
vt 0.940580 0.769372
vt 0.983175 0.768034
vt 0.940564 0.741661
vt 0.983160 0.740323
vt 0.940556 0.710616
vt 0.983152 0.709277
vt 0.940556 0.677429
vt 0.983152 0.676091
vt 0.307258 0.754257
vt 0.349878 0.753938
vn 0.9998 -0.0179 -0.0101
vn 0.9999 0.0033 -0.0111
vn 0.9719 -0.2354 0.0015
vn 0.9669 -0.2550 0.0026
vn -0.7807 -0.6223 -0.0566
vn -0.7925 -0.6073 -0.0558
vn -0.9075 -0.4178 -0.0438
vn -0.8990 -0.4357 -0.0451
vn 0.9748 0.2221 -0.0200
vn 0.9703 0.2409 -0.0206
vn -0.6362 -0.7692 -0.0608
vn -0.6504 -0.7572 -0.0608
vn 0.8963 0.4427 -0.0259
vn 0.8895 0.4563 -0.0261
vn -0.4783 -0.8764 -0.0558
vn -0.4939 -0.8677 -0.0567
vn 0.7776 0.6282 -0.0275
vn 0.7711 0.6361 -0.0274
vn -0.3157 -0.9479 -0.0418
vn -0.3316 -0.9424 -0.0435
vn -0.1617 0.9868 0.0071
vn -0.1531 0.9882 0.0068
vn 0.0044 1.0000 -0.0002
vn -0.0023 1.0000 0.0001
vn 0.6343 0.7727 -0.0255
vn 0.6300 0.7762 -0.0254
vn -0.1534 -0.9879 -0.0215
vn -0.1681 -0.9855 -0.0235
vn -0.3202 0.9473 0.0132
vn -0.3099 0.9507 0.0129
vn 0.4788 0.8777 -0.0209
vn 0.4774 0.8784 -0.0208
vn 0.0068 -1.0000 0.0006
vn -0.0053 -1.0000 -0.0011
vn -0.4766 0.8789 0.0177
vn -0.4652 0.8850 0.0174
vn 0.3187 0.9477 -0.0146
vn 0.3203 0.9472 -0.0146
vn 0.1645 -0.9862 0.0197
vn 0.1561 -0.9876 0.0188
vn -0.6279 0.7781 0.0196
vn -0.6161 0.7874 0.0195
vn 0.1579 0.9874 -0.0074
vn 0.1622 0.9867 -0.0076
vn 0.3203 -0.9468 0.0324
vn 0.3164 -0.9481 0.0322
vn -0.7676 0.6407 0.0181
vn -0.7565 0.6538 0.0184
vn 0.4742 -0.8796 0.0376
vn 0.4750 -0.8792 0.0376
vn -0.8852 0.4650 0.0123
vn -0.8762 0.4817 0.0130
vn 0.6243 -0.7804 0.0357
vn 0.6291 -0.7765 0.0355
vn -0.9671 0.2545 0.0019
vn -0.9617 0.2740 0.0030
vn 0.7643 -0.6442 0.0278
vn 0.7719 -0.6352 0.0272
vn -0.9997 0.0211 -0.0126
vn -0.9991 0.0418 -0.0112
vn 0.8836 -0.4681 0.0161
vn 0.8913 -0.4532 0.0151
vn -0.9760 -0.2160 -0.0293
vn -0.9802 -0.1960 -0.0278
vn 0.0000 0.0000 -1.0000
vn 0.2776 -0.4064 0.8705
vn 0.2789 -0.4154 0.8658
vn 0.2724 -0.5203 0.8093
vn 0.2743 -0.5125 0.8137
vn -0.0236 -0.7341 0.6786
vn -0.0198 -0.7342 0.6787
vn -0.1174 -0.7191 0.6849
vn -0.1241 -0.7170 0.6860
vn 0.1512 -0.4784 0.8650
vn 0.1492 -0.4853 0.8615
vn 0.1098 -0.5557 0.8241
vn 0.1123 -0.5529 0.8256
vn 0.2401 -0.3028 0.9223
vn 0.2442 -0.3098 0.9189
vn 0.1560 -0.3861 0.9092
vn 0.1572 -0.3961 0.9046
vn 0.1660 -0.2194 0.9614
vn 0.1700 -0.2225 0.9600
vn 0.1213 -0.2909 0.9490
vn 0.1270 -0.3010 0.9451
vn 0.0673 -0.1720 0.9828
vn 0.0677 -0.1722 0.9827
vn 0.0499 -0.2116 0.9761
vn 0.0583 -0.2182 0.9742
vn -0.0386 -0.1693 0.9848
vn -0.0429 -0.1702 0.9845
vn -0.0469 -0.1653 0.9851
vn -0.0398 -0.1672 0.9851
vn -0.1327 -0.2106 0.9685
vn -0.1397 -0.2160 0.9664
vn -0.1521 -0.1627 0.9749
vn -0.1495 -0.1622 0.9754
vn -0.1990 -0.2862 0.9373
vn -0.2044 -0.2966 0.9329
vn -0.2472 -0.2053 0.9470
vn -0.2490 -0.2066 0.9462
vn -0.2277 -0.3796 0.8967
vn -0.2284 -0.3922 0.8911
vn -0.3159 -0.2851 0.9049
vn -0.3191 -0.2912 0.9019
vn -0.2169 -0.4723 0.8544
vn -0.2128 -0.4832 0.8492
vn -0.3474 -0.3879 0.8537
vn -0.3483 -0.3981 0.8486
vn -0.1726 -0.5485 0.8181
vn -0.1662 -0.5553 0.8149
vn 0.0755 -0.7205 0.6893
vn 0.0759 -0.7204 0.6894
vn -0.3381 -0.4961 0.7997
vn -0.3348 -0.5075 0.7940
vn -0.1054 -0.5980 0.7945
vn -0.0996 -0.6005 0.7934
vn 0.1644 -0.6771 0.7173
vn 0.1620 -0.6788 0.7162
vn -0.2917 -0.5937 0.7499
vn -0.2848 -0.6031 0.7451
vn -0.0276 -0.6157 0.7875
vn -0.0246 -0.6157 0.7876
vn 0.2338 -0.6060 0.7603
vn 0.2305 -0.6108 0.7575
vn -0.2168 -0.6694 0.7105
vn -0.2088 -0.6751 0.7076
vn 0.0489 -0.6002 0.7983
vn 0.0486 -0.6004 0.7982
vn 0.6510 0.7591 0.0000
vn 0.4907 0.8713 0.0000
vn 0.4938 0.8696 0.0000
vn 0.6535 0.7569 0.0000
vn -0.4907 -0.8713 0.0000
vn -0.6510 -0.7591 0.0000
vn -0.6535 -0.7569 0.0000
vn -0.4938 -0.8696 0.0000
vn -0.1751 0.9846 0.0000
vn -0.3352 0.9421 0.0000
vn -0.3319 0.9433 0.0000
vn -0.1715 0.9852 0.0000
vn 0.7950 0.6067 0.0000
vn 0.7966 0.6045 0.0000
vn 0.0113 -0.9999 0.0000
vn -0.1553 -0.9879 0.0000
vn -0.1590 -0.9873 0.0000
vn 0.0076 -1.0000 0.0000
vn -0.0113 0.9999 0.0000
vn -0.0076 1.0000 0.0000
vn 0.9094 0.4159 0.0000
vn 0.9102 0.4141 0.0000
vn 0.4906 -0.8714 0.0000
vn 0.3352 -0.9421 0.0000
vn 0.3319 -0.9433 0.0000
vn 0.4875 -0.8731 0.0000
vn 0.9807 0.1957 -0.0000
vn 0.9808 0.1949 -0.0000
vn 0.7728 -0.6347 0.0000
vn 0.6382 -0.7699 0.0000
vn 0.6357 -0.7720 0.0000
vn 0.7709 -0.6370 0.0000
vn 0.9993 -0.0373 -0.0000
vn 0.9993 -0.0369 -0.0000
vn 0.9650 -0.2621 0.0000
vn 0.8856 -0.4645 0.0000
vn 0.8845 -0.4666 0.0000
vn 0.9646 -0.2636 0.0000
vn 0.1590 0.9873 0.0000
vn 0.3271 0.9450 0.0000
vn 0.3236 0.9462 0.0000
vn 0.1553 0.9879 0.0000
vn -0.6357 0.7720 0.0000
vn -0.4875 0.8731 0.0000
vn -0.4906 0.8714 0.0000
vn -0.6382 0.7699 0.0000
vn 0.1715 -0.9852 -0.0000
vn 0.1751 -0.9846 -0.0000
vn -0.8845 0.4666 -0.0000
vn -0.7709 0.6370 -0.0000
vn -0.7728 0.6347 -0.0000
vn -0.8856 0.4645 -0.0000
vn -0.9993 0.0373 0.0000
vn -0.9646 0.2636 -0.0000
vn -0.9650 0.2621 -0.0000
vn -0.9993 0.0369 0.0000
vn -0.0352 -0.0015 0.9994
vn -0.7950 -0.6067 0.0000
vn -0.9094 -0.4159 0.0000
vn -0.9102 -0.4141 0.0000
vn -0.7966 -0.6045 0.0000
vn -0.3236 -0.9462 0.0000
vn -0.3271 -0.9450 0.0000
vn -0.9807 -0.1957 0.0000
vn -0.9808 -0.1949 0.0000
usemtl Material.002
s 1
f 25/1/1 57/2/2 56/3/3 24/4/4
f 12/5/5 44/6/6 43/7/7 11/8/8
f 26/9/9 58/10/10 57/2/2 25/1/1
f 13/11/11 45/12/12 44/6/6 12/5/5
f 27/13/13 59/14/14 58/10/10 26/9/9
f 14/15/15 46/16/16 45/12/12 13/11/11
f 28/17/17 60/18/18 59/14/14 27/13/13
f 15/19/19 47/20/20 46/16/16 14/15/15
f 2/21/21 34/22/22 33/23/23 1/24/24
f 29/25/25 61/26/26 60/18/18 28/17/17
f 16/27/27 48/28/28 47/20/20 15/19/19
f 3/29/29 35/30/30 34/22/22 2/21/21
f 30/31/31 62/32/32 61/33/26 29/34/25
f 17/35/33 49/36/34 48/28/28 16/27/27
f 4/37/35 36/38/36 35/30/30 3/29/29
f 31/39/37 63/40/38 62/32/32 30/31/31
f 18/41/39 50/42/40 49/36/34 17/35/33
f 5/43/41 37/44/42 36/38/36 4/37/35
f 32/45/43 64/46/44 63/40/38 31/39/37
f 19/47/45 51/48/46 50/42/40 18/41/39
f 6/49/47 38/50/48 37/44/42 5/43/41
f 1/24/24 33/23/23 64/46/44 32/45/43
f 20/51/49 52/52/50 51/48/46 19/47/45
f 7/53/51 39/54/52 38/50/48 6/49/47
f 21/55/53 53/56/54 52/57/50 20/58/49
f 8/59/55 40/60/56 39/54/52 7/53/51
f 22/61/57 54/62/58 53/56/54 21/55/53
f 9/63/59 41/64/60 40/60/56 8/59/55
f 23/65/61 55/66/62 54/62/58 22/61/57
f 10/67/63 42/68/64 41/69/60 9/70/59
f 24/4/4 56/3/3 55/66/62 23/65/61
f 11/8/8 43/7/7 42/68/64 10/67/63
f 2/71/65 1/72/65 32/73/65 31/74/65 30/75/65 29/76/65 28/77/65 27/78/65 26/79/65 25/80/65 24/81/65 23/82/65 22/83/65 21/84/65 20/85/65 19/86/65 18/87/65 17/88/65 16/89/65 15/90/65 14/91/65 13/92/65 12/93/65 11/94/65 10/95/65 9/96/65 8/97/65 7/98/65 6/99/65 5/100/65 4/101/65 3/102/65
f 38/103/66 70/104/67 69/105/68 37/106/69
f 33/107/70 65/108/71 96/109/72 64/110/73
f 52/111/74 84/112/75 83/113/76 51/114/77
f 39/115/78 71/116/79 70/104/67 38/103/66
f 53/117/80 85/118/81 84/112/75 52/111/74
f 40/119/82 72/120/83 71/116/79 39/115/78
f 54/121/84 86/122/85 85/118/81 53/117/80
f 41/123/86 73/124/87 72/120/83 40/119/82
f 55/125/88 87/126/89 86/122/85 54/121/84
f 42/127/90 74/128/91 73/124/87 41/123/86
f 56/129/92 88/130/93 87/126/89 55/125/88
f 43/131/94 75/132/95 74/128/91 42/127/90
f 57/133/96 89/134/97 88/130/93 56/129/92
f 44/135/98 76/136/99 75/132/95 43/131/94
f 58/137/100 90/138/101 89/134/97 57/133/96
f 45/139/102 77/140/103 76/136/99 44/135/98
f 59/141/104 91/142/105 90/138/101 58/137/100
f 46/143/106 78/144/107 77/140/103 45/139/102
f 60/145/108 92/146/109 91/142/105 59/141/104
f 47/147/110 79/148/111 78/144/107 46/143/106
f 34/149/112 66/150/113 65/108/71 33/107/70
f 61/151/114 93/152/115 92/146/109 60/145/108
f 48/153/116 80/154/117 79/148/111 47/147/110
f 35/155/118 67/156/119 66/150/113 34/149/112
f 62/157/120 94/158/121 93/152/115 61/151/114
f 49/159/122 81/160/123 80/154/117 48/153/116
f 36/161/124 68/162/125 67/156/119 35/155/118
f 63/163/126 95/164/127 94/158/121 62/157/120
f 50/165/128 82/166/129 81/160/123 49/159/122
f 37/106/69 69/105/68 68/162/125 36/161/124
f 64/110/73 96/109/72 95/164/127 63/163/126
f 51/114/77 83/113/76 82/166/129 50/165/128
f 93/167/130 94/168/131 190/169/132 189/170/133
f 126/171/134 125/172/135 196/173/136 195/174/137
f 66/175/138 67/176/139 163/177/140 161/178/141
f 92/179/142 93/180/130 189/181/133 188/182/143
f 113/183/144 128/184/145 222/185/146 221/186/147
f 65/187/148 66/175/138 161/178/141 162/188/149
f 91/189/150 92/179/142 188/182/143 187/190/151
f 110/191/152 111/192/153 220/193/154 219/194/155
f 90/195/156 91/189/150 187/190/151 186/196/157
f 108/197/158 109/198/159 218/199/160 217/200/161
f 89/201/162 90/195/156 186/196/157 185/202/163
f 106/203/164 107/204/165 216/205/166 193/206/167
f 88/207/167 89/201/162 185/202/163 184/208/164
f 104/209/157 105/210/163 215/211/162 214/212/156
f 87/213/166 88/207/167 184/208/164 183/214/165
f 102/215/143 103/216/151 213/217/150 212/218/142
f 86/219/161 87/213/166 183/214/165 182/220/158
f 100/221/132 101/222/133 211/223/130 210/224/131
f 85/225/160 86/219/161 182/220/158 181/226/159
f 98/227/168 99/228/169 209/229/170 208/230/171
f 84/231/155 85/225/160 181/226/159 180/232/152
f 115/233/140 114/234/141 207/235/138 206/236/139
f 83/237/154 84/238/155 180/239/152 179/240/153
f 117/241/172 116/242/173 205/243/174 204/244/175
f 97/245/149 98/227/168 208/230/171 224/246/148
f 82/247/176 83/237/154 179/240/153 178/248/177
f 119/249/178 118/250/179 203/251/180 202/252/181
f 111/192/153 112/253/177 223/254/176 220/193/154
f 81/255/147 82/247/176 178/248/177 177/256/144
f 121/257/182 120/258/183 201/259/184 200/260/185
f 114/234/141 97/245/149 224/246/148 207/235/138
f 80/261/146 81/255/147 177/256/144 176/262/145
f 102/263/186 134/264/186 135/265/186 103/266/186
f 120/267/186 152/268/186 151/269/186 119/270/186
f 104/271/186 136/272/186 137/273/186 105/274/186
f 105/274/186 137/273/186 138/275/186 106/276/186
f 106/276/186 138/275/186 139/277/186 107/278/186
f 118/279/186 150/280/186 149/281/186 117/282/186
f 108/283/186 140/284/186 141/285/186 109/286/186
f 107/278/186 139/277/186 140/284/186 108/283/186
f 110/287/186 142/288/186 143/289/186 111/290/186
f 127/291/186 159/292/186 158/293/186 126/294/186
f 116/295/186 148/296/186 147/297/186 115/298/186
f 113/299/186 145/300/186 160/301/186 128/302/186
f 125/303/186 157/304/186 156/305/186 124/306/186
f 109/286/186 141/285/186 142/288/186 110/287/186
f 126/294/186 158/293/186 157/304/186 125/303/186
f 123/307/186 155/308/186 154/309/186 122/310/186
f 114/311/186 146/312/186 129/313/186 97/314/186
f 124/306/186 156/305/186 155/308/186 123/307/186
f 121/315/186 153/316/186 152/268/186 120/267/186
f 111/290/186 143/289/186 144/317/186 112/318/186
f 112/318/186 144/317/186 145/300/186 113/299/186
f 119/270/186 151/269/186 150/280/186 118/279/186
f 97/314/186 129/313/186 130/319/186 98/320/186
f 128/302/186 160/301/186 159/292/186 127/291/186
f 117/282/186 149/281/186 148/296/186 116/295/186
f 99/321/186 131/322/186 132/323/186 100/324/186
f 115/298/186 147/297/186 146/312/186 114/311/186
f 101/325/186 133/326/186 134/264/186 102/263/186
f 98/320/186 130/319/186 131/322/186 99/321/186
f 122/310/186 154/309/186 153/316/186 121/315/186
f 100/324/186 132/323/186 133/326/186 101/325/186
f 103/266/186 135/265/186 136/272/186 104/271/186
f 161/327/186 223/328/186 221/329/186 162/330/186
f 189/331/186 196/332/186 197/333/186 188/334/186
f 172/335/186 212/336/186 213/337/186 171/338/186
f 175/339/186 209/340/186 210/341/186 174/342/186
f 185/343/186 200/344/186 201/345/186 184/346/186
f 188/334/186 197/333/186 198/347/186 187/348/186
f 171/338/186 213/337/186 214/349/186 170/350/186
f 174/342/186 210/341/186 211/351/186 173/352/186
f 184/346/186 201/345/186 202/353/186 183/354/186
f 187/348/186 198/347/186 199/355/186 186/356/186
f 170/350/186 214/349/186 215/357/186 169/358/186
f 173/352/186 211/351/186 212/336/186 172/335/186
f 183/354/186 202/353/186 203/359/186 182/360/186
f 186/356/186 199/355/186 200/344/186 185/343/186
f 176/361/186 208/362/186 209/340/186 175/339/186
f 169/358/186 215/357/186 193/363/186 168/364/186
f 163/365/186 220/366/186 223/328/186 161/327/186
f 190/367/186 195/368/186 196/332/186 189/331/186
f 177/369/186 224/370/186 208/362/186 176/361/186
f 164/371/186 219/372/186 220/366/186 163/365/186
f 191/373/186 194/374/186 195/368/186 190/367/186
f 178/375/186 207/376/186 224/370/186 177/369/186
f 165/377/186 218/378/186 219/372/186 164/371/186
f 192/379/186 222/380/186 194/374/186 191/373/186
f 179/381/186 206/382/186 207/376/186 178/375/186
f 166/383/186 217/384/186 218/378/186 165/377/186
f 162/330/186 221/329/186 222/380/186 192/379/186
f 180/385/186 205/386/186 206/382/186 179/381/186
f 167/387/186 216/388/186 217/384/186 166/383/186
f 181/389/186 204/390/186 205/386/186 180/385/186
f 168/364/186 193/363/186 216/388/186 167/387/186
f 182/360/186 203/359/186 204/390/186 181/389/186
f 67/176/139 68/391/174 164/392/173 163/177/140
f 124/393/187 123/394/188 198/395/189 197/396/190
f 94/168/131 95/397/170 191/398/169 190/169/132
f 68/391/174 69/399/175 165/400/172 164/392/173
f 112/253/177 113/183/144 221/186/147 223/254/176
f 95/397/170 96/401/171 192/402/168 191/398/169
f 69/399/175 70/403/180 166/404/179 165/400/172
f 128/184/145 127/405/191 194/406/192 222/185/146
f 96/401/171 65/187/148 162/188/149 192/402/168
f 70/403/180 71/407/181 167/408/178 166/404/179
f 99/228/169 100/221/132 210/224/131 209/229/170
f 71/407/181 72/409/184 168/410/183 167/408/178
f 101/411/133 102/215/143 212/218/142 211/412/130
f 72/409/184 73/413/185 169/414/182 168/410/183
f 122/415/193 121/416/182 200/417/185 199/418/194
f 73/419/185 74/420/194 170/421/193 169/422/182
f 103/216/151 104/209/157 214/212/156 213/217/150
f 74/420/194 75/423/189 171/424/188 170/421/193
f 120/258/183 119/249/178 202/252/181 201/259/184
f 75/423/189 76/425/190 172/426/187 171/424/188
f 105/210/163 106/203/164 193/206/167 215/211/162
f 76/425/190 77/427/136 173/428/135 172/426/187
f 118/250/179 117/241/172 204/244/175 203/251/180
f 77/427/136 78/429/137 174/430/134 173/428/135
f 107/204/165 108/197/158 217/200/161 216/205/166
f 127/405/191 126/171/134 195/174/137 194/406/192
f 78/429/137 79/431/192 175/432/191 174/430/134
f 116/242/173 115/233/140 206/236/139 205/243/174
f 125/172/135 124/393/187 197/396/190 196/173/136
f 79/431/192 80/261/146 176/262/145 175/432/191
f 109/198/159 110/433/152 219/434/155 218/199/160
f 123/394/188 122/415/193 199/418/194 198/395/189
