# Blender v2.79 (sub 0) OBJ File: 'hütten1.blend'
# www.blender.org
mtllib Ruine2.mtl
o Cube.001
v 1.000000 -0.772592 1.000000
v 1.000000 -0.772592 -1.000000
v 1.000000 1.105860 -1.000000
v 1.000000 -0.772592 0.267939
v 1.000000 1.336413 -1.000000
v 1.000000 1.336413 0.267939
v 1.000000 0.886385 -1.522357
v 1.000000 -0.772592 -1.396219
v 1.000000 -0.772592 -0.366030
v 1.000000 1.409142 -0.366030
v 1.000000 0.049602 -1.399365
v 1.000000 1.105860 0.267939
v 1.000000 0.049602 1.000000
v 1.000000 -0.697938 0.936363
v 1.000000 -0.697938 -1.000000
v 1.000000 1.070660 -0.920635
v 1.000000 -0.697938 0.267939
v 1.000000 1.293414 -0.926431
v 1.000000 1.293414 0.194370
v 1.000000 0.851185 -1.473033
v 1.000000 -0.697938 -1.332581
v 1.000000 -0.697938 -0.366030
v 1.000000 1.342337 -0.366030
v 1.000000 0.049602 -1.310713
v 1.000000 1.086606 0.180985
v 1.000000 0.030348 0.913046
v 1.191654 -0.772592 -0.366030
v 1.191654 -0.772592 -1.000000
v 1.191654 1.105860 0.267939
v 1.139795 0.049602 1.000000
v 1.191654 -0.772592 1.000000
v 1.191654 -0.772592 0.267939
v 1.191654 1.439953 -0.366030
v 1.191654 1.336413 0.267939
v 1.067159 1.105860 -1.000000
v 1.103400 1.336413 -1.000000
v 1.316745 0.049602 -1.452026
v 1.191654 -0.772592 -1.396219
v 1.264370 0.886385 -1.566478
v 1.191654 -0.697938 -0.366030
v 1.191654 -0.697938 -1.000000
v 1.191654 1.086606 0.180985
v 1.139795 0.030348 0.913046
v 1.191654 -0.697938 0.936363
v 1.191654 -0.697938 0.267939
v 1.191654 1.370941 -0.366030
v 1.191654 1.293414 0.194370
v 1.067159 1.070660 -0.920635
v 1.103400 1.293414 -0.926431
v 1.316745 0.049602 -1.367781
v 1.191654 -0.697938 -1.332581
v 1.264370 0.851185 -1.523770
v 1.000000 -0.155947 1.000000
v 1.000000 -0.567044 1.086210
v 1.000000 -0.151724 0.918875
v 1.000000 -0.515867 1.035834
v 1.181905 -0.124231 1.011364
v 1.333697 -0.560777 1.086210
v 1.180974 -0.153173 0.930424
v 1.333697 -0.509600 1.035834
v 1.000000 0.929817 0.389950
v 1.000000 0.753774 0.511960
v 1.000000 0.577731 0.633970
v 1.000000 0.401688 0.755980
v 1.000000 0.225645 0.877990
v 1.000000 0.910563 0.302996
v 1.000000 0.734520 0.425006
v 1.000000 0.558477 0.547016
v 1.000000 0.382434 0.669026
v 1.000000 0.206391 0.791036
v 1.191654 0.929817 0.389950
v 1.088357 0.753774 0.511960
v 1.127796 0.577731 0.633970
v 1.233759 0.401688 0.755980
v 1.191654 0.225645 0.877990
v 1.191654 0.910563 0.302996
v 1.088357 0.734520 0.425006
v 1.127796 0.558477 0.547016
v 1.233759 0.382434 0.669026
v 1.191654 0.206391 0.791036
v 1.000000 1.386778 -0.207538
v 1.000000 1.389211 -0.049045
v 1.000000 1.379809 0.109447
v 1.000000 1.327444 -0.225930
v 1.000000 1.330001 -0.085830
v 1.000000 1.325464 0.054270
v 1.191654 1.411460 -0.207538
v 1.099065 1.393371 -0.049045
v 1.191654 1.382757 0.109447
v 1.191654 1.350532 -0.225930
v 1.099065 1.334184 -0.085830
v 1.191654 1.330127 0.054270
v 1.000000 1.396671 -0.313200
v 1.000000 1.389669 -0.260369
v 1.000000 1.333970 -0.319330
v 1.000000 1.329284 -0.272630
v 1.191654 1.426526 -0.313200
v 1.112282 1.400026 -0.260369
v 1.191654 1.361419 -0.319330
v 1.112282 1.338784 -0.272630
v 1.000000 0.677189 -1.605458
v 1.000000 0.467994 -1.552432
v 1.000000 0.258798 -1.460642
v 1.000000 0.650789 -1.537135
v 1.000000 0.450393 -1.467716
v 1.000000 0.249998 -1.376502
v 1.191654 0.677189 -1.681483
v 1.337336 0.467994 -1.681347
v 1.248859 0.258798 -1.592208
v 1.191654 0.650789 -1.618572
v 1.337336 0.450393 -1.615914
v 1.248859 0.249998 -1.511301
v -1.000000 -0.694297 -1.000000
v 1.000000 -0.772592 1.000000
v 0.728992 0.687050 0.558204
v 1.000000 -0.772592 -1.000000
v 1.000000 1.105860 -1.000000
v -1.000000 -0.694297 0.267939
v 1.000000 -0.772592 0.267939
v 0.728992 0.915433 0.399919
v 0.074637 -1.000000 -0.953975
v -0.404335 1.385942 -1.098373
v 0.007140 -1.000000 1.000000
v 0.278148 0.752043 0.558204
v 0.168744 1.065732 0.371447
v 0.007140 -1.000000 0.267939
v 0.072818 1.624830 -0.870429
v 1.000000 1.336413 -1.000000
v 1.000000 1.336413 0.267939
v -0.213857 1.604596 0.210426
v 0.270831 1.014699 -1.194347
v 1.000000 0.886385 -1.522357
v 1.000000 -0.772592 -1.396219
v 0.323173 -1.000000 -1.180725
v 1.000000 -0.772592 -0.366030
v -1.000000 -0.694297 -0.366030
v 0.007140 -1.000000 -0.366030
v -0.424997 1.381567 -0.478492
v 0.110787 1.643513 -0.537445
v 0.074637 -0.008794 -0.953975
v 1.000000 0.049602 -1.399365
v 0.323173 -0.008794 -1.180725
v 1.000000 1.105860 0.267939
v 1.000000 0.049602 1.000000
v -0.424997 1.385942 0.155478
v 0.007140 -0.008794 1.000000
v 0.728992 0.272080 0.845807
v 0.728992 0.500463 0.687522
v 0.278148 0.260750 0.845807
v 0.278148 0.531139 0.687522
v 0.007140 0.676583 0.605982
v -0.212567 1.604234 -1.057178
v -0.111396 1.663503 -0.396879
v 0.834944 1.381526 -0.844567
v 0.834944 1.405868 -0.521464
v -0.948039 -0.637822 -0.948039
v 1.000000 -0.697938 0.936363
v 1.000000 -0.697938 -1.000000
v 1.000000 1.070660 -0.920635
v -0.936942 -0.636924 0.235817
v 1.000000 -0.697938 0.267939
v 0.078346 -0.918594 -0.942814
v -0.334012 1.338662 -1.045988
v 0.028429 -0.910000 0.934500
v 0.007140 -0.910000 0.267939
v 1.000000 1.293414 -0.926431
v 1.000000 1.293414 0.194370
v -0.192580 1.572158 0.142980
v 0.323232 0.976004 -1.141596
v 1.000000 0.851185 -1.473033
v 1.000000 -0.697938 -1.332581
v 0.340477 -0.910000 -1.152395
v 1.000000 -0.697938 -0.366030
v -0.936363 -0.634715 -0.366030
v 0.007140 -0.910000 -0.366030
v -0.314546 1.340418 -0.471079
v 1.000000 1.342337 -0.366030
v -0.936008 1.000991 -0.943762
v -0.925659 0.998670 0.229810
v 0.083110 -0.008794 -0.939566
v 1.000000 0.049602 -1.310713
v 0.365272 -0.008794 -1.131774
v -0.918034 0.996387 -0.366030
v 1.000000 1.086606 0.180985
v 1.000000 0.030348 0.913046
v -0.345034 1.337067 0.100697
v 0.031316 -0.028740 0.915636
v 0.025531 0.632675 0.529605
v -0.200057 1.574257 -1.008930
v -0.113446 1.620426 -0.412370
v -1.341133 -0.043468 -1.000000
v -1.013950 -0.512149 -1.000000
v -1.341133 -0.043468 0.267939
v -1.013950 -0.512149 0.267939
v 0.074637 -0.339196 -0.953975
v 0.074637 -0.669598 -0.953975
v 1.000000 -0.224463 -1.396219
v 1.000000 -0.498528 -1.396219
v 0.323173 -0.339196 -1.180725
v 0.323173 -0.669598 -1.180725
v -1.341133 -0.043468 -0.366030
v -1.013950 -0.512149 -0.366030
v 0.007140 -0.339196 1.000000
v 0.007140 -0.669598 1.000000
v 0.801758 -0.224463 1.000000
v 0.932006 -0.498528 1.000000
v -1.261155 -0.026124 -0.945188
v -0.979228 -0.482055 -0.946613
v -1.251815 -0.030887 0.231812
v -0.967766 -0.482855 0.233815
v 0.082567 -0.312061 -0.939936
v 0.080959 -0.615327 -0.941033
v 1.000000 -0.199578 -1.315006
v 1.000000 -0.448758 -1.323794
v 0.361531 -0.309196 -1.135563
v 0.353179 -0.609598 -1.142496
v -1.248242 -0.034806 -0.366030
v -0.964620 -0.483488 -0.366030
v 0.030353 -0.322493 0.921924
v 0.029391 -0.616247 0.928212
v 0.801758 -0.212414 0.920818
v 0.932006 -0.455176 0.928590
v 0.051809 1.601133 -0.865298
v -0.097733 1.568166 -0.931524
v 0.085733 1.621642 -0.533366
v -0.054502 1.602670 -0.473159
v 0.834944 1.356976 -0.833968
v 0.923236 1.302141 -0.874275
v 0.923580 1.334875 -0.423976
v 0.834944 1.381890 -0.510865
v 0.776891 0.592124 0.533178
v 0.728992 0.678052 0.539337
v 0.728992 0.906435 0.381051
v 0.757995 0.954263 0.327999
v 0.098364 0.656362 0.515355
v 0.278148 0.741391 0.539337
v 0.169376 1.054703 0.352744
v -0.019298 1.132195 0.224400
v 0.795319 0.184817 0.803335
v 0.728992 0.263083 0.826939
v 0.728992 0.491466 0.668654
v 0.790844 0.512326 0.575489
v 0.217425 0.155232 0.804156
v 0.278148 0.250098 0.826939
v 0.278148 0.520487 0.668654
v 0.217404 0.548643 0.575885
v -0.970406 1.098958 -1.000000
v -0.970406 1.098958 0.267939
v -0.970406 1.098958 -0.366030
vt 0.000000 0.000000
vt 0.000000 0.000000
vt 0.000000 0.000000
vt 0.000000 0.000000
vt 0.000000 0.000000
vt 0.000000 0.000000
vt 0.000000 0.000000
vt 0.000000 0.000000
vt 0.000000 0.000000
vt 0.000000 0.000000
vt 0.000000 0.000000
vt 0.000000 0.000000
vt 0.000000 0.000000
vt 0.000000 0.000000
vt 0.000000 0.000000
vt 0.000000 0.000000
vt 0.000000 0.000000
vt 0.000000 0.000000
vt 0.000000 0.000000
vt 0.000000 0.000000
vt 0.000000 0.000000
vt 0.000000 0.000000
vt 0.000000 0.000000
vt 0.000000 0.000000
vt 0.000000 0.000000
vt 0.000000 0.000000
vt 0.000000 0.000000
vt 0.000000 0.000000
vt 0.000000 0.000000
vt 0.000000 0.000000
vt 0.000000 0.000000
vt 0.000000 0.000000
vt 0.000000 0.000000
vt 0.000000 0.000000
vt 0.000000 0.000000
vt 0.000000 0.000000
vt 0.000000 0.000000
vt 0.000000 0.000000
vt 0.000000 0.000000
vt 0.000000 0.000000
vt 0.000000 0.000000
vt 0.000000 0.000000
vt 0.000000 0.000000
vt 0.000000 0.000000
vt 0.000000 0.000000
vt 0.000000 0.000000
vt 0.000000 0.000000
vt 0.000000 0.000000
vt 0.000000 0.000000
vt 0.000000 0.000000
vt 0.000000 0.000000
vt 0.000000 0.000000
vt 0.000000 0.000000
vt 0.000000 0.000000
vt 0.000000 0.000000
vt 0.000000 0.000000
vt 0.000000 0.000000
vt 0.000000 0.000000
vt 0.000000 0.000000
vt 0.000000 0.000000
vt 0.000000 0.000000
vt 0.000000 0.000000
vt 0.000000 0.000000
vt 0.000000 0.000000
vt 0.000000 0.000000
vt 0.000000 0.000000
vt 0.000000 0.000000
vt 0.000000 0.000000
vt 0.000000 0.000000
vt 0.000000 0.000000
vt 0.000000 0.000000
vt 0.000000 0.000000
vt 0.000000 0.000000
vt 0.000000 0.000000
vt 0.000000 0.000000
vt 0.000000 0.000000
vt 0.000000 0.000000
vt 0.000000 0.000000
vt 0.000000 0.000000
vt 0.000000 0.000000
vt 0.000000 0.000000
vt 0.000000 0.000000
vt 0.000000 0.000000
vt 0.000000 0.000000
vt 0.000000 0.000000
vt 0.000000 0.000000
vt 0.000000 0.000000
vt 0.000000 0.000000
vt 0.000000 0.000000
vt 0.000000 0.000000
vt 0.000000 0.000000
vt 0.000000 0.000000
vt 0.000000 0.000000
vt 0.000000 0.000000
vt 0.000000 0.000000
vt 0.000000 0.000000
vt 0.000000 0.000000
vt 0.000000 0.000000
vt 0.000000 0.000000
vt 0.000000 0.000000
vt 0.000000 0.000000
vt 0.000000 0.000000
vt 0.000000 0.000000
vt 0.000000 0.000000
vt 0.000000 0.000000
vt 0.000000 0.000000
vt 0.000000 0.000000
vt 0.000000 0.000000
vt 0.000000 0.000000
vt 0.000000 0.000000
vt 0.000000 0.000000
vt 0.000000 0.000000
vt 0.328480 0.696256
vt 0.328480 0.978202
vt 0.120594 0.978202
vt 0.120594 0.696256
vt 0.612451 0.305552
vt 0.243424 0.305552
vt 0.243424 0.125522
vt 0.612451 0.125522
vt 0.782624 0.530640
vt 0.782624 0.653698
vt 0.318893 0.784757
vt 0.318893 0.627781
vt 0.508510 0.696256
vt 0.508510 0.978202
vt 0.508510 0.410255
vt 0.328480 0.410255
vt 0.226523 0.597985
vt 0.226523 0.316039
vt 0.301721 0.392998
vt 0.301721 0.521026
vt 0.369319 0.769077
vt 0.249633 0.769077
vt 0.249633 0.589046
vt 0.369319 0.589046
vt 0.500910 0.340687
vt 0.500910 0.719728
vt 0.243897 0.719728
vt 0.243897 0.340687
vt 0.285744 0.822363
vt 0.567690 0.822363
vt 0.567690 0.901293
vt 0.285745 0.901293
vt 0.147594 0.597985
vt 0.147594 0.316039
vt 0.507738 0.646356
vt 0.218178 0.646356
vt 0.218178 0.519408
vt 0.507738 0.415952
vt 0.567690 0.400596
vt 0.567690 0.687066
vt 0.285745 0.687066
vt 0.285745 0.400596
vt 0.688541 0.978202
vt 0.688541 0.696256
vt 0.801056 0.696256
vt 0.801056 0.978202
vt 0.573607 0.594775
vt 0.573607 0.956382
vt 0.461092 0.881245
vt 0.461092 0.594775
vt 0.797296 0.646356
vt 0.797296 0.519408
vt 0.688540 0.410255
vt 0.642048 0.589696
vt 0.364451 0.832844
vt 0.364451 0.471238
vt 0.419128 0.316039
vt 0.449728 0.013380
vt 0.643627 0.316039
vt 0.573607 0.500950
vt 0.461092 0.500950
vt 0.567690 0.306771
vt 0.285745 0.306771
vt 0.612451 0.485583
vt 0.243423 0.485583
vt 0.544910 0.726128
vt 0.601173 0.819972
vt 0.319227 0.819875
vt 0.319260 0.726049
vt 0.442824 0.015111
vt 0.643627 0.597985
vt 0.555773 0.521026
vt 0.555773 0.392998
vt 0.391906 0.521026
vt 0.391907 0.392998
vt 0.465587 0.392998
vt 0.465587 0.521026
vt 0.369319 0.949107
vt 0.249633 0.949107
vt 0.694909 0.656715
vt 0.694909 0.403700
vt 0.757922 0.340687
vt 0.757922 0.719728
vt 0.563923 0.403700
vt 0.563923 0.656715
vt 0.149569 0.286095
vt 0.007649 0.282230
vt 0.006278 0.075401
vt 0.148574 0.074731
vt 0.461803 0.306805
vt 0.238461 0.309162
vt 0.433477 0.005887
vt 0.503671 0.800068
vt 0.341323 0.792038
vt 0.336023 0.418229
vt 0.505235 0.419872
vt 0.284532 0.285460
vt 0.283535 0.074096
vt 0.285473 0.486316
vt 0.157352 0.487041
vt 0.350276 0.290668
vt 0.358406 0.381365
vt 0.352177 0.389204
vt 0.341074 0.284178
vt 0.678306 0.493591
vt 0.607302 0.284764
vt 0.869820 0.285837
vt 0.465570 0.808205
vt 0.136945 0.809476
vt 0.129047 0.287444
vt 0.467231 0.288137
vt 0.571911 0.891835
vt 0.526365 0.926410
vt 0.403645 0.768547
vt 0.451322 0.733698
vt 0.658230 0.316936
vt 0.737318 0.318033
vt 0.733835 0.586184
vt 0.662547 0.586096
vt 0.538791 0.425080
vt 0.541641 0.714087
vt 0.189025 0.596351
vt 0.189042 0.427080
vt 0.694172 0.546442
vt 0.814555 0.703513
vt 0.651223 0.828613
vt 0.528289 0.671329
vt 0.418496 0.073450
vt 0.489297 0.073105
vt 0.492761 0.273394
vt 0.413703 0.279072
vt 0.432015 0.471888
vt 0.508642 0.464621
vt 0.893291 0.419923
vt 0.891866 0.589423
vt 0.409384 0.488221
vt 0.668365 0.795142
vt 0.669383 0.418230
vt 0.123008 0.624608
vt 0.498796 0.621879
vt 0.499649 0.884909
vt 0.125107 0.888394
vt 0.425919 0.407615
vt 0.503347 0.400878
vt 0.744415 0.506859
vt 0.865302 0.664553
vt 0.588665 0.491801
vt 0.542769 0.282867
vt 0.537705 0.581299
vt 0.537598 0.362240
vt 0.621036 0.362240
vt 0.621027 0.637323
vt 0.170935 0.561082
vt 0.779294 0.687815
vt 0.779297 0.903593
vt 0.173095 0.712134
vt 0.862977 0.623970
vt 0.862978 0.888694
vt 0.442854 0.445764
vt 0.441503 0.565952
vt 0.435014 0.575154
vt 0.435014 0.439535
vt 0.470464 0.292018
vt 0.476693 0.284179
vt 0.478594 0.382715
vt 0.487796 0.389205
vt 0.533550 0.437634
vt 0.540040 0.428432
vt 0.608253 0.358462
vt 0.469307 0.327175
vt 0.498441 0.581266
vt 0.399388 0.571777
vt 0.387517 0.556911
vt 0.507308 0.572681
vt 0.773867 0.323559
vt 0.809552 0.291568
vt 0.802943 0.809479
vt 0.773556 0.766592
vt 0.396764 0.745034
vt 0.496172 0.752612
vt 0.507308 0.763341
vt 0.387076 0.756964
vt 0.551071 0.156860
vt 0.731006 0.162727
vt 0.730173 0.188271
vt 0.550238 0.182404
vt 0.350179 0.793739
vt 0.154189 0.425550
vt 0.179083 0.419767
vt 0.375073 0.787956
vt 0.573325 0.880242
vt 0.781211 0.880242
vt 0.781211 0.905799
vt 0.591396 0.905799
vt 0.525443 0.942781
vt 0.347607 0.872626
vt 0.368967 0.858594
vt 0.526276 0.917237
vt 0.710047 0.805473
vt 0.707474 0.884360
vt 0.687073 0.868966
vt 0.687914 0.792694
vt 0.837346 0.353946
vt 0.834288 0.447722
vt 0.808744 0.446889
vt 0.814018 0.361709
vt 0.843462 0.166394
vt 0.824567 0.191350
vt 0.824952 0.734042
vt 0.802819 0.721264
vt 0.371135 0.150993
vt 0.370302 0.176537
vt 0.500995 0.765083
vt 0.150631 0.215326
vt 0.144251 0.119748
vt 0.164668 0.143474
vt 0.172026 0.228507
vt 0.238461 0.587219
vt 0.300501 0.528097
vt 0.434072 0.527104
vt 0.463926 0.522864
vt 0.602939 0.517278
vt 0.434797 0.361139
vt 0.532200 0.557822
vt 0.540040 0.564051
vt 0.299117 0.362704
vt 0.505979 0.319284
vt 0.153612 0.316135
vt 0.176238 0.319403
vt 0.840404 0.260170
vt 0.819293 0.276530
vt 0.497090 0.095820
vt 0.862986 0.094524
vt 0.862980 0.359247
vt 0.497943 0.358849
vt 0.166609 0.258978
vt 0.779298 0.256261
vt 0.779295 0.472038
vt 0.168773 0.410030
vt 0.371614 0.638139
vt 0.370723 0.362240
vt 0.454161 0.362240
vt 0.454688 0.618558
vt 0.478236 0.280970
vt 0.499024 0.490011
vt 0.844894 0.427686
vt 0.966802 0.586638
vt 0.916051 0.625594
vt 0.794655 0.467274
vt 0.498051 0.337136
vt 0.419814 0.343344
vt 0.118796 0.097037
vt 0.120905 0.360823
vt 0.631035 0.769077
vt 0.500177 0.769077
vt 0.500177 0.589046
vt 0.631035 0.589046
vt 0.782624 0.284524
vt 0.782624 0.407582
vt 0.318893 0.456153
vt 0.318893 0.284524
vt 0.601270 0.538496
vt 0.581929 0.632315
vt 0.319292 0.632224
vt 0.319324 0.538399
vt 0.650452 0.189762
vt 0.650452 0.320619
vt 0.364451 0.283587
vt 0.364451 0.189761
vt 0.650452 0.451477
vt 0.364451 0.377412
vt 0.567690 0.119120
vt 0.567690 0.212945
vt 0.285745 0.212945
vt 0.285745 0.119120
vt 0.573607 0.313299
vt 0.573607 0.407125
vt 0.461092 0.407125
vt 0.461092 0.313299
vt 0.631035 0.949107
vt 0.500177 0.949107
vt 0.549012 0.710219
vt 0.732786 0.709850
vt 0.732907 0.361758
vt 0.552361 0.357354
vt 0.493833 0.503495
vt 0.580325 0.506630
vt 0.579549 0.384653
vt 0.493871 0.380634
vt 0.325146 0.503773
vt 0.409037 0.501298
vt 0.407558 0.387394
vt 0.326318 0.386088
vt 0.640038 0.578290
vn -1.0000 0.0000 0.0000
vn 1.0000 0.0000 0.0000
vn 0.9675 -0.2471 0.0547
vn 0.9841 -0.1584 -0.0810
vn 0.9853 -0.1526 0.0770
vn 0.9256 0.3279 0.1891
vn 0.9534 -0.2606 -0.1520
vn 0.8195 -0.3848 -0.4246
vn 0.9873 -0.0872 -0.1327
vn 0.0356 -0.0593 -0.9976
vn 0.0000 -1.0000 0.0000
vn 0.0000 0.0260 0.9997
vn -0.2277 0.4487 -0.8642
vn 0.0960 -0.9899 0.1041
vn -0.0074 0.9622 0.2724
vn 0.0000 0.0646 -0.9979
vn 0.0046 -0.3831 0.9237
vn 0.0000 0.0000 -1.0000
vn 0.1115 -0.0005 0.9938
vn -0.1030 0.9862 -0.1299
vn 0.0000 0.0000 1.0000
vn 0.0000 1.0000 0.0000
vn -0.1030 -0.0278 -0.9943
vn 0.0555 -0.9302 0.3628
vn 0.0000 -0.5696 -0.8219
vn -0.0507 0.9231 -0.3813
vn 0.2816 0.4812 0.8301
vn 0.0000 0.5696 0.8219
vn 0.1422 -0.9722 -0.1862
vn -0.0378 0.0257 0.9990
vn -0.0057 0.4748 -0.8801
vn 0.0728 -0.9860 0.1500
vn -0.0132 0.7015 0.7126
vn 0.9728 0.2212 -0.0689
vn 0.8868 -0.4511 0.0999
vn 0.9808 0.1905 -0.0422
vn 0.8819 0.4602 -0.1019
vn 0.9782 -0.2028 0.0449
vn 0.0118 -0.9711 -0.2383
vn 0.0304 -0.9987 -0.0407
vn 0.0934 -0.9955 -0.0181
vn -0.1145 0.9934 0.0057
vn -0.0987 0.9949 0.0203
vn -0.0244 0.9972 0.0701
vn 0.4969 0.2112 -0.8417
vn 0.8392 -0.2270 0.4942
vn 0.7916 0.3881 -0.4719
vn 0.5538 -0.1199 0.8240
vn -0.1519 0.9600 0.2353
vn -0.1282 0.9691 0.2110
vn 0.1066 -0.9942 0.0149
vn 0.1186 -0.9756 -0.1846
vn 0.2556 -0.3960 0.8819
vn 0.3804 0.2958 0.8762
vn 0.4111 0.3253 0.8516
vn -0.2761 -0.4530 -0.8477
vn -0.3879 -0.2955 -0.8730
vn -0.3509 -0.2373 -0.9058
vn 0.9454 0.3254 0.0173
vn 0.9015 -0.4258 -0.0768
vn 0.7986 0.5694 0.1952
vn 0.2233 -0.9748 0.0000
vn -0.4634 0.8862 -0.0031
vn -0.4761 0.1198 0.8712
vn -0.2905 -0.9569 0.0000
vn 0.0714 0.5921 0.8027
vn -0.9512 0.3087 0.0000
vn 0.2133 0.9695 0.1204
vn 0.0719 0.0607 -0.9956
vn -0.0813 -0.0833 0.9932
vn -0.6867 0.7266 -0.0248
vn -0.3646 -0.0784 -0.9278
vn 0.2886 -0.9505 0.1151
vn -0.3771 -0.1426 -0.9151
vn 0.0764 0.7613 -0.6439
vn -0.7051 0.7089 0.0139
vn -0.2814 -0.9595 -0.0155
vn 0.2310 -0.9729 0.0128
vn -0.1018 -0.1370 -0.9853
vn -0.0841 0.4966 0.8639
vn -0.6740 0.0000 -0.7387
vn -0.3048 -0.0050 -0.9524
vn -0.4567 0.8896 -0.0044
vn -0.0837 0.4974 0.8635
vn -0.0256 0.5309 0.8470
vn 0.0568 0.5350 0.8429
vn -0.0183 0.5216 0.8530
vn 0.0115 0.5052 0.8629
vn 0.0015 0.5003 0.8658
vn 0.2520 0.9301 -0.2672
vn 0.1251 0.9871 -0.1001
vn 0.0060 0.9969 -0.0791
vn 0.2594 0.9654 -0.0258
vn -0.2110 0.9775 0.0034
vn 0.0783 -0.5020 -0.8613
vn 0.5016 -0.8650 0.0156
vn -0.2089 0.9779 0.0000
vn 0.2789 0.9603 0.0018
vn 0.9579 0.2552 -0.1312
vn 0.2781 0.9605 -0.0089
vn 0.1057 0.1108 0.9882
vn -0.2295 -0.9681 -0.1006
vn -0.0906 -0.0414 0.9950
vn 0.0724 0.1000 -0.9923
vn 0.8184 -0.5722 0.0534
vn 0.3652 0.0978 0.9258
vn -0.2787 0.9529 -0.1197
vn 0.3303 0.1117 0.9372
vn -0.0905 -0.7847 0.6132
vn 0.8418 -0.5370 -0.0543
vn 0.2717 0.9624 0.0042
vn -0.2210 0.9751 -0.0199
vn 0.4898 -0.8716 -0.0181
vn 0.9528 -0.3035 0.0105
vn 0.5686 -0.0097 0.8226
vn 0.2729 -0.0160 0.9619
vn -0.0042 -0.0003 1.0000
vn 0.0004 -0.0264 -0.9997
vn 0.4670 -0.1209 -0.8759
vn 0.9525 -0.3032 -0.0289
vn -0.0586 -0.8854 0.4611
vn -0.2511 -0.8559 0.4520
vn 0.1252 0.8800 -0.4582
vn 0.0883 -0.4837 -0.8707
vn -0.0028 -0.5216 -0.8532
vn 0.6995 -0.7139 -0.0336
vn -0.2425 -0.9678 0.0675
vn -0.0113 -0.9967 0.0805
vn 0.9427 0.2513 0.2196
vn -0.0597 -0.5508 -0.8325
vn -0.0612 -0.6340 -0.7709
vn -0.0277 -0.4957 -0.8680
vn -0.0082 -0.4968 -0.8678
vn -0.0239 0.8867 -0.4617
vn 0.0294 -0.5457 -0.8375
vn -0.0160 -0.5033 -0.8640
vn -0.1551 -0.9834 0.0943
vn -0.0633 -0.2727 -0.9600
vn -0.2555 -0.9374 0.2367
vn 0.7933 -0.6082 0.0264
vn 0.8799 0.4460 0.1641
vn 0.9815 0.1902 -0.0225
vn 0.8478 0.5301 -0.0155
vn 0.5819 0.0238 -0.8129
vn 0.5355 0.1941 -0.8219
vn 0.0063 -0.0254 -0.9997
vn 0.0037 -0.0253 -0.9997
vn -0.0066 -0.0074 1.0000
vn -0.0054 -0.0053 1.0000
vn 0.2768 -0.0390 0.9601
vn 0.2763 -0.0317 0.9606
vn 0.6099 -0.0308 0.7918
vn 0.5846 -0.0204 0.8110
vn 0.9818 0.1900 0.0033
vn 0.8460 0.5332 0.0027
vn -0.9971 -0.0764 0.0000
vn -0.8200 -0.5724 0.0000
vn -0.5876 -0.0160 0.8090
vn -0.5429 -0.2223 0.8098
vn 0.0428 0.0012 -0.9991
vn 0.0397 0.0162 -0.9991
vn -0.3034 0.0000 -0.9529
vn -0.5105 -0.8575 0.0641
vn -0.2273 -0.6833 0.6938
vn 0.1752 -0.9832 0.0513
vn -0.2318 -0.8546 -0.4647
vn 0.0553 0.2876 0.9561
vn -0.6753 -0.4022 -0.6183
vn -0.1683 -0.8741 -0.4557
vn 0.0325 0.1492 -0.9883
vn 0.3561 -0.4069 -0.8412
vn -0.7080 -0.4067 -0.5773
vn -0.0617 -0.9650 -0.2548
vn -0.0115 0.2584 -0.9660
vn 0.7395 -0.3388 -0.5817
vn 0.0327 -0.0082 -0.9994
usemtl Material
s off
f 9/1/1 22/2/1 15/3/1 2/4/1
f 65/5/1 70/6/1 26/7/1 13/8/1
f 1/9/1 14/10/1 17/11/1 4/12/1
f 83/13/1 86/14/1 19/15/1 6/16/1
f 3/17/1 16/18/1 18/19/1 5/20/1
f 6/16/1 19/15/1 25/21/1 12/22/1
f 8/23/1 21/24/1 24/25/1 11/26/1
f 2/4/1 15/3/1 21/24/1 8/23/1
f 7/27/1 20/28/1 16/18/1 3/17/1
f 4/12/1 17/11/1 22/2/1 9/1/1
f 101/29/1 104/30/1 20/28/1 7/27/1
f 54/31/1 56/32/1 14/10/1 1/9/1
f 5/20/1 18/19/1 23/33/1 10/34/1
f 27/35/2 28/36/2 41/37/2 40/38/2
f 75/39/3 30/40/3 43/41/3 80/42/3
f 31/43/2 32/44/2 45/45/2 44/46/2
f 89/47/2 34/48/2 47/49/2 92/50/2
f 35/51/4 36/52/4 49/53/4 48/54/4
f 34/48/2 29/55/2 42/56/2 47/49/2
f 38/57/5 37/58/5 50/59/5 51/60/5
f 28/36/2 38/57/2 51/60/2 41/37/2
f 39/61/6 35/51/6 48/54/6 52/62/6
f 32/44/2 27/35/2 40/38/2 45/45/2
f 107/63/7 39/61/7 52/62/7 110/64/7
f 58/65/8 31/43/8 44/46/8 60/66/8
f 36/52/9 33/67/9 46/68/9 49/53/9
f 55/69/10 26/7/10 43/41/10 59/70/10
f 1/9/11 4/12/11 32/44/11 31/43/11
f 18/19/12 16/18/12 48/54/12 49/53/12
f 101/29/13 7/27/13 39/61/13 107/63/13
f 23/33/14 18/19/14 49/53/14 46/68/14
f 83/13/15 6/16/15 34/48/15 89/47/15
f 25/21/16 19/15/16 47/49/16 42/56/16
f 54/31/17 1/9/17 31/43/17 58/65/17
f 3/17/18 5/20/18 36/52/18 35/51/18
f 24/25/19 21/24/19 51/60/19 50/59/19
f 5/20/20 10/34/20 33/67/20 36/52/20
f 6/16/21 12/22/21 29/55/21 34/48/21
f 21/24/22 15/3/22 41/37/22 51/60/22
f 15/3/22 22/2/22 40/38/22 41/37/22
f 8/23/23 11/26/23 37/58/23 38/57/23
f 16/18/24 20/28/24 52/62/24 48/54/24
f 66/71/25 25/21/25 42/56/25 76/72/25
f 2/4/11 8/23/11 38/57/11 28/36/11
f 22/2/22 17/11/22 45/45/22 40/38/22
f 9/1/11 2/4/11 28/36/11 27/35/11
f 17/11/22 14/10/22 44/46/22 45/45/22
f 7/27/26 3/17/26 35/51/26 39/61/26
f 106/73/27 24/25/27 50/59/27 112/74/27
f 65/5/28 13/8/28 30/40/28 75/39/28
f 95/75/29 23/33/29 46/68/29 99/76/29
f 4/12/11 9/1/11 27/35/11 32/44/11
f 13/8/30 53/77/30 57/78/30 30/40/30
f 14/10/31 56/32/31 60/66/31 44/46/31
f 53/77/32 55/69/32 59/70/32 57/78/32
f 56/32/33 54/31/33 58/65/33 60/66/33
f 30/40/34 57/78/34 59/70/34 43/41/34
f 13/8/1 26/7/1 55/69/1 53/77/1
f 12/22/28 61/79/28 71/80/28 29/55/28
f 61/79/28 62/81/28 72/82/28 71/80/28
f 62/81/28 63/83/28 73/84/28 72/82/28
f 63/83/28 64/85/28 74/86/28 73/84/28
f 64/85/28 65/5/28 75/39/28 74/86/28
f 26/7/25 70/6/25 80/42/25 43/41/25
f 70/6/25 69/87/25 79/88/25 80/42/25
f 69/87/25 68/89/25 78/90/25 79/88/25
f 68/89/25 67/91/25 77/92/25 78/90/25
f 67/91/25 66/71/25 76/72/25 77/92/25
f 29/55/2 71/80/2 76/72/2 42/56/2
f 71/80/35 72/82/35 77/92/35 76/72/35
f 72/82/36 73/84/36 78/90/36 77/92/36
f 73/84/37 74/86/37 79/88/37 78/90/37
f 74/86/38 75/39/38 80/42/38 79/88/38
f 12/22/1 25/21/1 66/71/1 61/79/1
f 61/79/1 66/71/1 67/91/1 62/81/1
f 62/81/1 67/91/1 68/89/1 63/83/1
f 63/83/1 68/89/1 69/87/1 64/85/1
f 64/85/1 69/87/1 70/6/1 65/5/1
f 19/15/39 86/14/39 92/50/39 47/49/39
f 86/14/40 85/93/40 91/94/40 92/50/40
f 85/93/41 84/95/41 90/96/41 91/94/41
f 94/97/42 81/98/42 87/99/42 98/100/42
f 81/98/43 82/101/43 88/102/43 87/99/43
f 82/101/44 83/13/44 89/47/44 88/102/44
f 98/100/45 87/99/45 90/96/45 100/103/45
f 87/99/46 88/102/46 91/94/46 90/96/46
f 88/102/47 89/47/47 92/50/47 91/94/47
f 94/97/1 96/104/1 84/95/1 81/98/1
f 81/98/1 84/95/1 85/93/1 82/101/1
f 82/101/1 85/93/1 86/14/1 83/13/1
f 10/34/1 23/33/1 95/75/1 93/105/1
f 93/105/1 95/75/1 96/104/1 94/97/1
f 33/67/2 97/106/2 99/76/2 46/68/2
f 97/106/48 98/100/48 100/103/48 99/76/48
f 10/34/49 93/105/49 97/106/49 33/67/49
f 93/105/50 94/97/50 98/100/50 97/106/50
f 84/95/51 96/104/51 100/103/51 90/96/51
f 96/104/52 95/75/52 99/76/52 100/103/52
f 20/28/53 104/30/53 110/64/53 52/62/53
f 104/30/54 105/107/54 111/108/54 110/64/54
f 105/107/55 106/73/55 112/74/55 111/108/55
f 11/26/56 103/109/56 109/110/56 37/58/56
f 103/109/57 102/111/57 108/112/57 109/110/57
f 102/111/58 101/29/58 107/63/58 108/112/58
f 37/58/59 109/110/59 112/74/59 50/59/59
f 109/110/60 108/112/60 111/108/60 112/74/60
f 108/112/61 107/63/61 110/64/61 111/108/61
f 11/26/1 24/25/1 106/73/1 103/109/1
f 103/109/1 106/73/1 105/107/1 102/111/1
f 102/111/1 105/107/1 104/30/1 101/29/1
f 126/113/62 119/114/62 114/115/62 123/116/62
f 138/117/63 249/118/63 248/119/63 145/120/63
f 203/121/64 146/122/64 248/123/64 193/124/64
f 137/125/62 135/126/62 119/114/62 126/113/62
f 136/127/65 137/125/65 126/113/65 118/128/65
f 143/129/66 145/130/66 125/131/66 120/132/66
f 118/128/65 126/113/65 123/116/65
f 201/133/67 249/134/67 247/135/67 191/136/67
f 10/137/68 153/138/68 130/139/68 129/140/68
f 117/141/69 122/142/69 152/143/69 128/144/69
f 145/130/70 143/129/70 129/145/70 130/146/70
f 138/147/71 145/148/71 130/149/71 153/150/71
f 142/151/72 131/152/72 132/153/72 141/154/72
f 116/155/73 121/156/73 134/157/73 133/158/73
f 140/159/74 122/160/74 131/161/74 142/162/74
f 122/142/75 117/141/75 132/153/75 131/152/75
f 122/163/76 138/147/76 153/150/76 152/164/76
f 113/165/77 121/156/77 137/125/77 136/127/77
f 121/156/78 116/155/78 135/126/78 137/125/78
f 247/166/79 122/167/79 140/168/79
f 151/169/80 248/170/80 146/171/80
f 195/172/81 140/159/81 142/162/81 199/173/81
f 199/174/82 142/151/82 141/154/82 197/175/82
f 122/176/83 247/177/83 249/118/83 138/117/83
f 205/178/21 144/179/21 146/180/21 203/181/21
f 145/130/84 248/182/84 151/169/84
f 146/171/85 144/183/85 147/184/85 149/185/85
f 115/186/86 124/187/86 150/188/86 148/189/86
f 144/183/28 143/129/28 120/132/28 115/186/28 148/189/28 147/184/28
f 151/169/87 124/187/87 125/131/87 145/130/87
f 193/190/67 248/191/67 249/134/67 201/133/67
f 151/169/88 150/188/88 124/187/88
f 146/171/89 149/185/89 150/188/89 151/169/89
f 127/192/90 154/193/90 128/194/90 152/195/90
f 154/193/91 155/196/91 10/137/91 128/194/91
f 139/197/92 127/192/92 152/195/92 153/138/92
f 155/196/93 139/197/93 153/138/93 10/137/93
f 165/198/94 164/199/94 157/200/94 161/201/94
f 188/202/95 187/203/95 179/204/95
f 176/205/96 186/206/96 179/207/96 183/208/96
f 175/209/97 165/198/97 161/201/97 173/210/97
f 174/211/98 160/212/98 165/198/98 175/209/98
f 125/213/99 124/214/99 236/215/99 237/216/99
f 160/212/100 164/199/100 165/198/100
f 178/217/101 180/218/101 163/219/101
f 177/220/102 167/221/102 168/222/102 190/223/102
f 159/224/103 166/225/103 189/226/103 163/227/103
f 186/228/104 168/229/104 167/230/104 184/231/104
f 176/232/105 190/233/105 168/234/105 186/235/105
f 182/236/106 181/237/106 170/238/106 169/239/106
f 158/240/107 171/241/107 172/242/107 162/243/107
f 180/244/108 182/245/108 169/239/108 163/227/108
f 163/227/109 169/239/109 170/238/109 159/224/109
f 163/246/110 189/247/110 190/233/110 176/232/110
f 156/248/111 174/211/111 175/209/111 162/243/111
f 162/243/112 175/209/112 173/210/112 158/240/112
f 163/249/113 176/205/113 183/208/113 178/250/113
f 209/251/114 217/252/114 183/253/114 179/254/114
f 211/255/115 215/256/115 182/245/115 180/244/115
f 215/257/116 213/258/116 181/237/116 182/236/116
f 207/259/117 211/260/117 180/218/117 178/217/117
f 221/261/118 219/262/118 187/263/118 185/264/118
f 219/265/119 209/266/119 179/267/119 187/268/119
f 217/252/120 207/269/120 178/270/120 183/253/120
f 148/271/121 150/272/121 245/273/121 241/274/121
f 120/275/122 125/213/122 237/216/122 233/276/122
f 124/214/123 115/277/123 232/278/123 236/215/123
f 147/279/1 148/271/1 241/274/1 240/280/1
f 186/228/124 188/202/124 179/204/124
f 188/202/125 186/228/125 238/281/125 235/282/125
f 127/283/126 139/284/126 225/285/126 223/286/126
f 224/287/127 189/288/127 166/289/127 228/290/127
f 155/291/1 154/292/1 227/293/1 230/294/1
f 135/295/2 116/296/2 158/297/2 173/298/2
f 143/299/2 144/300/2 185/301/2 184/302/2
f 114/303/2 119/304/2 161/305/2 157/306/2
f 10/307/2 129/308/2 167/309/2 177/310/2
f 117/311/2 128/312/2 166/313/2 159/314/2
f 129/308/2 143/299/2 184/302/2 167/309/2
f 197/315/2 141/316/2 181/317/2 213/318/2
f 116/296/2 133/319/2 171/320/2 158/297/2
f 132/321/2 117/311/2 159/314/2 170/322/2
f 119/323/2 135/295/2 173/298/2 161/324/2
f 228/290/128 166/289/128 177/220/128 229/325/128
f 141/316/2 132/321/2 170/322/2 181/317/2
f 206/326/129 114/327/129 157/328/129 222/329/129
f 185/330/130 239/331/130 242/332/130 231/333/130 234/334/130 184/231/130
f 184/231/131 234/334/131 238/281/131 186/228/131
f 231/333/132 242/332/132 246/335/132 235/282/132
f 188/202/133 235/282/133 246/335/133
f 149/336/134 147/279/134 240/280/134 244/337/134
f 150/272/2 149/336/2 244/337/2 245/273/2
f 187/203/135 243/338/135 239/331/135 185/330/135
f 187/203/136 188/202/136 246/335/136 243/338/136
f 226/339/137 190/223/137 189/288/137 224/287/137
f 128/312/2 10/307/2 177/310/2 166/313/2
f 139/284/138 155/291/138 230/294/138 225/285/138
f 229/325/139 177/220/139 190/223/139 226/339/139
f 144/300/140 205/340/140 221/341/140 185/301/140
f 205/340/141 206/326/141 222/329/141 221/341/141
f 133/319/2 198/342/2 214/343/2 171/320/2
f 198/342/2 197/315/2 213/318/2 214/343/2
f 174/344/142 156/345/142 208/346/142 218/347/142
f 218/347/143 208/346/143 207/269/143 217/252/143
f 164/348/144 160/349/144 210/350/144 220/351/144
f 220/351/145 210/350/145 209/266/145 219/265/145
f 157/352/146 164/353/146 220/354/146 222/355/146
f 222/355/147 220/354/147 219/262/147 221/261/147
f 156/248/148 162/243/148 212/356/148 208/357/148
f 208/357/149 212/356/149 211/260/149 207/259/149
f 172/358/150 171/359/150 214/360/150 216/361/150
f 216/361/151 214/360/151 213/258/151 215/257/151
f 162/243/152 172/242/152 216/362/152 212/363/152
f 212/363/153 216/362/153 215/256/153 211/255/153
f 160/364/154 174/344/154 218/347/154 210/365/154
f 210/365/155 218/347/155 217/252/155 209/251/155
f 136/366/156 202/367/156 192/368/156 113/369/156
f 202/367/157 201/133/157 191/136/157 192/368/157
f 123/370/158 204/371/158 194/372/158 118/373/158
f 204/371/159 203/121/159 193/124/159 194/372/159
f 114/374/21 206/375/21 204/376/21 123/377/21
f 206/375/21 205/178/21 203/181/21 204/376/21
f 113/378/160 192/379/160 196/380/160 121/381/160
f 192/379/161 191/382/161 195/383/161 196/380/161
f 134/384/162 200/385/162 198/386/162 133/387/162
f 200/385/162 199/174/162 197/175/162 198/386/162
f 121/388/81 196/389/81 200/390/81 134/391/81
f 196/389/81 195/172/81 199/173/81 200/390/81
f 118/392/156 194/393/156 202/367/156 136/366/156
f 194/393/157 193/190/157 201/133/157 202/367/157
f 228/290/163 229/325/163 230/394/163 227/395/163
f 224/287/164 228/290/164 227/395/164 223/396/164
f 223/396/165 225/397/165 226/339/165 224/287/165
f 225/397/166 230/394/166 229/325/166 226/339/166
f 154/292/167 127/283/167 223/286/167 227/293/167
f 234/334/168 231/333/168 232/398/168 233/399/168
f 238/281/169 234/334/169 233/399/169 237/400/169
f 231/333/170 235/282/170 236/401/170 232/398/170
f 237/400/171 236/401/171 235/282/171 238/281/171
f 242/332/172 239/331/172 240/402/172 241/403/172
f 246/335/173 242/332/173 241/403/173 245/404/173
f 239/331/174 243/338/174 244/405/174 240/402/174
f 245/404/175 244/405/175 243/338/175 246/335/175
f 115/277/1 120/275/1 233/276/1 232/278/1
f 191/382/176 247/406/176 140/168/176 195/383/176
