# Blender v2.79 (sub 0) OBJ File: 'SteinePack1.blend'
# www.blender.org
mtllib Stein012.mtl
o Cube.011_Cube.018
v -0.880439 0.658325 -2.129390
v -0.740006 1.568715 -1.990308
v -0.685532 0.318794 -2.921846
v -0.978078 1.104693 -3.277617
v 0.805243 0.501995 -2.220453
v 0.830555 1.477038 -2.050653
v 0.754787 -0.055826 -3.189591
v 0.428263 0.776759 -3.174767
v -0.852502 0.537905 -2.497108
v -1.012325 1.076606 -2.020400
v -0.752605 1.429507 -2.506354
v -0.949620 0.649563 -3.203201
v -0.069669 0.110529 -3.138940
v -0.223278 0.963669 -3.323808
v 0.745846 0.269597 -3.308547
v 1.069905 0.216154 -2.615770
v 0.835645 1.085584 -2.555139
v 1.121271 0.989452 -2.036584
v -0.188956 0.546755 -2.113521
v 0.070152 1.590012 -1.972847
v 0.134578 1.470542 -2.651492
v -0.179364 0.173295 -2.614605
v -0.040353 1.111585 -1.868997
v 1.409769 0.601010 -2.630982
v -0.099382 0.387714 -3.451772
v -1.174214 0.952598 -2.531882
v -0.907807 0.594300 -2.290609
v -1.000764 1.417849 -1.984827
v -0.935254 1.282886 -2.941525
v -0.868035 0.450377 -3.050918
v -0.491139 0.232851 -3.030107
v 0.070214 0.828847 -3.201728
v 0.829058 0.044707 -3.277794
v 0.998640 0.105389 -3.005905
v 0.927816 1.305844 -2.268910
v 1.031827 0.712622 -2.147466
v 0.395039 0.486615 -2.120681
v -0.513966 1.553340 -2.003052
v -0.819402 0.393686 -2.713311
v -1.020991 0.822043 -2.078156
v -0.681557 1.575751 -2.279466
v -1.058091 0.929519 -3.244029
v 0.443364 -0.055269 -3.175104
v -0.562323 1.077975 -3.364838
v 0.693137 0.585320 -3.183859
v 1.055653 0.421963 -2.367486
v 0.557309 0.912908 -2.948191
v 0.932873 1.312788 -2.013466
v -0.659603 0.620569 -2.079824
v 0.687644 1.537414 -2.045219
v 0.179891 1.601791 -2.254095
v -0.128573 1.298321 -3.047421
v 0.569006 1.267790 -2.596223
v -0.291240 1.487265 -2.615940
v -0.126160 0.338352 -2.403486
v -0.040094 0.171307 -2.811695
v -0.509529 0.334503 -2.504271
v 0.396188 0.154544 -2.649649
v -0.647481 1.106540 -1.908689
v 0.528024 1.003083 -1.881255
v -0.183739 0.758529 -1.877449
v 0.128898 1.453063 -1.924041
v 1.480334 0.833004 -2.302461
v 1.165340 0.366249 -2.979981
v 1.468808 0.417208 -2.620006
v 1.083426 0.879743 -2.608756
v 0.271177 0.285589 -3.444616
v -0.651111 0.519394 -3.428601
v -0.135451 0.221635 -3.386132
v -0.205314 0.662437 -3.498523
v -1.122120 0.798099 -2.913702
v -1.178420 0.985305 -2.209681
v -1.083781 0.719906 -2.561210
v -1.113707 1.242751 -2.495956
v -1.106292 1.358211 -2.219432
v -1.109381 0.760009 -2.325419
v -1.110499 0.576205 -2.829570
v -0.724918 0.847213 -3.484976
v -0.661928 0.330365 -3.251956
v 0.383169 0.095464 -3.411459
v 0.946224 0.662622 -2.903319
v 1.204680 0.225272 -2.992403
v 1.496130 0.623802 -2.377435
v 0.641191 1.356008 -1.932322
v 0.431180 0.702448 -1.939916
v -0.796451 0.820215 -1.909937
v 0.505641 0.050675 -2.954449
v -0.377744 0.275797 -2.711508
v -0.551031 0.457964 -2.283463
v -0.446757 1.326865 -3.046231
v 0.238502 1.103614 -2.968706
v 0.687911 1.462857 -2.342171
v -0.336505 1.611999 -2.288624
v 0.452464 0.331263 -2.368921
v -0.527761 1.404465 -1.947553
v 1.173000 1.120795 -2.257568
v 0.192965 0.553071 -3.340314
v -1.141771 1.074555 -2.894737
vt 0.096718 0.297719
vt 0.129595 0.284127
vt 0.134712 0.322284
vt 0.119871 0.336051
vt 0.299015 0.368560
vt 0.266499 0.325719
vt 0.318792 0.311197
vt 0.372772 0.316103
vt 0.354991 0.135320
vt 0.317026 0.149535
vt 0.289531 0.133395
vt 0.306260 0.120301
vt 0.133315 0.150277
vt 0.144833 0.167282
vt 0.125465 0.178560
vt 0.100674 0.184459
vt 0.241899 0.632928
vt 0.326860 0.660826
vt 0.285272 0.676658
vt 0.222966 0.671880
vt 0.174345 0.192138
vt 0.139226 0.201629
vt 0.286892 0.165850
vt 0.228403 0.173017
vt 0.207809 0.144916
vt 0.274897 0.136998
vt 0.271778 0.270548
vt 0.219093 0.275255
vt 0.236696 0.219702
vt 0.293288 0.205498
vt 0.183441 0.280888
vt 0.136235 0.230787
vt 0.188837 0.227763
vt 0.095211 0.611014
vt 0.161975 0.607420
vt 0.137729 0.654834
vt 0.067626 0.642587
vt 0.138084 0.550305
vt 0.190553 0.545979
vt 0.166201 0.569357
vt 0.112400 0.577410
vt 0.272760 0.544865
vt 0.342473 0.556185
vt 0.337545 0.615231
vt 0.245887 0.584416
vt 0.031743 0.114380
vt 0.093490 0.127740
vt 0.060620 0.176566
vt 0.010040 0.176035
vt 0.258152 0.000235
vt 0.266321 0.060874
vt 0.176896 0.082892
vt 0.130354 0.028080
vt 0.271626 0.113706
vt 0.211105 0.126341
vt 0.449161 0.124357
vt 0.409953 0.124748
vt 0.351598 0.096898
vt 0.382370 0.045646
vt 0.495013 0.282900
vt 0.466754 0.270590
vt 0.455700 0.177054
vt 0.495013 0.176034
vt 0.397843 0.254208
vt 0.324405 0.266978
vt 0.335482 0.194692
vt 0.382842 0.192449
vt 0.368803 0.437788
vt 0.330426 0.412553
vt 0.413587 0.364321
vt 0.459333 0.387671
vt 0.143115 0.446687
vt 0.163296 0.402063
vt 0.257646 0.417973
vt 0.257786 0.455390
vt 0.160613 0.356392
vt 0.176401 0.325185
vt 0.219192 0.329417
vt 0.228459 0.376178
vt 0.034664 0.357766
vt 0.071607 0.330127
vt 0.109312 0.374421
vt 0.085073 0.415102
vt 0.000235 0.238589
vt 0.044328 0.213642
vt 0.051453 0.264197
vt 0.011699 0.292995
vt 0.092400 0.208471
vt 0.089765 0.242822
vt 0.039517 0.603589
vt 0.000235 0.598203
vt 0.008251 0.561713
vt 0.052908 0.573462
vt 0.036494 0.629175
vt 0.004920 0.639580
vt 0.071928 0.539066
vt 0.021871 0.516752
vt 0.067642 0.487152
vt 0.098638 0.511575
vt 0.132419 0.500684
vt 0.109011 0.462407
vt 0.193356 0.455861
vt 0.199247 0.497628
vt 0.274863 0.509410
vt 0.273979 0.469499
vt 0.329438 0.508019
vt 0.311769 0.520783
vt 0.375996 0.570001
vt 0.397556 0.643267
vt 0.392636 0.692195
vt 0.315186 0.714475
vt 0.218115 0.714475
vt 0.123884 0.700866
vt 0.033750 0.672074
vn -0.9207 0.3349 -0.2005
vn -0.4422 0.8366 -0.3233
vn -0.4669 0.6279 -0.6227
vn -0.8092 0.0997 -0.5790
vn 0.2841 0.3730 -0.8832
vn 0.3848 0.5041 -0.7731
vn 0.2921 0.5560 -0.7782
vn 0.4059 0.5111 -0.7576
vn 0.7041 0.7028 -0.1014
vn 0.5994 0.7093 -0.3709
vn 0.5494 0.7688 0.3271
vn 0.5811 0.4945 0.6463
vn -0.0739 0.1962 0.9778
vn -0.0465 0.7677 0.6391
vn -0.2176 0.7849 0.5801
vn -0.5661 0.5075 0.6495
vn 0.0433 -0.8171 0.5748
vn 0.2405 -0.7050 0.6671
vn 0.2086 -0.6881 0.6949
vn 0.0656 -0.7451 0.6637
vn -0.0558 0.9871 -0.1498
vn -0.2589 0.9474 -0.1880
vn 0.3970 0.8209 -0.4104
vn 0.1221 0.9724 -0.1986
vn 0.0263 0.8136 0.5809
vn 0.3287 0.8541 0.4031
vn 0.4048 0.5985 -0.6913
vn 0.2596 0.7302 -0.6319
vn 0.2269 0.8436 -0.4867
vn 0.4263 0.6769 -0.6000
vn -0.0125 0.8666 -0.4988
vn -0.3354 0.8858 -0.3205
vn -0.0528 0.9327 -0.3567
vn -0.2291 -0.8508 0.4729
vn -0.0722 -0.8231 0.5632
vn -0.0626 -0.7667 0.6388
vn -0.2034 -0.7714 0.6029
vn -0.3312 -0.9396 0.0855
vn -0.1935 -0.9654 0.1749
vn -0.2241 -0.9443 0.2410
vn -0.3066 -0.8885 0.3415
vn -0.0075 -0.9393 0.3429
vn 0.3914 -0.9148 0.0996
vn 0.2692 -0.8731 0.4064
vn 0.0026 -0.9181 0.3964
vn -0.3030 -0.3345 0.8923
vn -0.1582 0.0542 0.9859
vn -0.6080 -0.0069 0.7938
vn -0.6256 -0.4123 0.6622
vn 0.1302 -0.4530 0.8819
vn 0.1588 -0.0812 0.9839
vn -0.0071 0.0516 0.9986
vn -0.0396 -0.3958 0.9174
vn 0.1804 0.2673 0.9466
vn 0.0331 0.2917 0.9559
vn 0.8829 -0.2948 0.3655
vn 0.9255 0.2831 0.2514
vn 0.5346 0.0593 0.8430
vn 0.3029 -0.4675 0.8304
vn 0.7669 -0.4452 -0.4622
vn 0.6021 0.3394 -0.7226
vn 0.7150 0.4177 -0.5606
vn 0.9031 -0.4267 -0.0473
vn 0.4794 0.5712 -0.6662
vn 0.4191 0.6296 -0.6542
vn 0.4734 0.6196 -0.6260
vn 0.4762 0.6251 -0.6184
vn 0.0172 -0.5347 -0.8448
vn 0.1343 0.0376 -0.9902
vn 0.4056 0.2331 -0.8838
vn 0.4867 -0.4848 -0.7266
vn -0.4831 -0.7508 -0.4504
vn -0.3920 -0.4012 -0.8279
vn -0.0067 -0.1766 -0.9843
vn -0.2416 -0.6998 -0.6723
vn -0.2988 0.0857 -0.9504
vn 0.0032 0.6211 -0.7837
vn 0.3157 0.5222 -0.7922
vn 0.1850 0.1984 -0.9625
vn -0.8260 -0.5630 -0.0267
vn -0.9565 -0.2198 -0.1919
vn -0.7607 -0.3824 -0.5244
vn -0.6566 -0.7018 -0.2762
vn -0.8172 -0.5402 0.2008
vn -0.9479 -0.0970 0.3032
vn -0.9978 -0.0626 -0.0228
vn -0.8496 -0.5104 0.1330
vn -0.8226 0.5661 0.0528
vn -0.8282 0.5361 -0.1631
vn -0.5190 -0.8040 0.2900
vn -0.5221 -0.8106 0.2651
vn -0.4402 -0.7374 0.5122
vn -0.4712 -0.8599 0.1964
vn -0.4132 -0.9093 0.0484
vn -0.3229 -0.9464 -0.0059
vn -0.2609 -0.9636 -0.0578
vn -0.0873 -0.9934 -0.0742
vn 0.2147 -0.9737 -0.0755
usemtl None
s 1
f 98/1/1 29/2/2 4/3/3 42/4/4
f 97/5/5 32/6/6 8/7/7 45/8/8
f 96/9/9 35/10/10 6/11/11 48/12/12
f 95/13/13 38/14/14 2/15/15 28/16/16
f 94/17/17 46/18/18 5/19/19 37/20/20
f 93/21/21 41/22/22 2/15/15 38/14/14
f 92/23/23 51/24/24 20/25/25 50/26/26
f 91/27/27 52/28/28 21/29/29 53/30/30
f 90/31/31 29/2/2 11/32/32 54/33/33
f 89/34/34 55/35/35 19/36/36 49/37/37
f 88/38/38 56/39/39 22/40/40 57/41/41
f 87/42/42 34/43/43 16/44/44 58/45/45
f 86/46/46 59/47/47 10/48/48 40/49/49
f 85/50/50 60/51/51 23/52/52 61/53/53
f 84/54/54 50/26/26 20/25/25 62/55/55
f 83/56/56 63/57/57 18/58/58 36/59/59
f 82/60/60 64/61/61 24/62/62 65/63/63
f 81/64/64 47/65/65 17/66/66 66/67/67
f 80/68/68 67/69/69 15/70/70 33/71/71
f 79/72/72 68/73/73 25/74/74 69/75/75
f 78/76/76 44/77/77 14/78/78 70/79/79
f 77/80/80 71/81/81 12/82/82 30/83/83
f 76/84/84 72/85/85 26/86/86 73/87/87
f 75/88/88 41/22/22 11/32/32 74/89/89
f 72/85/85 75/88/88 74/89/89 26/86/86
f 10/48/48 28/16/16 75/88/88 72/85/85
f 28/16/16 2/15/15 41/22/22 75/88/88
f 27/90/90 76/91/84 73/92/87 9/93/91
f 1/94/92 40/95/49 76/91/84 27/90/90
f 40/49/49 10/48/48 72/85/85 76/84/84
f 39/96/93 77/97/80 30/98/83 3/99/94
f 9/93/91 73/92/87 77/97/80 39/96/93
f 73/87/87 26/86/86 71/81/81 77/80/80
f 68/73/73 78/76/76 70/79/79 25/74/74
f 12/82/82 42/4/4 78/76/76 68/73/73
f 42/4/4 4/3/3 44/77/77 78/76/76
f 31/100/95 79/101/72 69/102/75 13/103/96
f 3/99/94 30/98/83 79/101/72 31/100/95
f 30/83/83 12/82/82 68/73/73 79/72/72
f 43/104/97 80/105/68 33/106/71 7/107/98
f 13/103/96 69/102/75 80/105/68 43/104/97
f 69/75/75 25/74/74 67/69/69 80/68/68
f 64/61/61 81/64/64 66/67/67 24/62/62
f 15/70/70 45/8/8 81/64/64 64/61/61
f 45/8/8 8/7/7 47/65/65 81/64/64
f 34/43/43 82/108/60 65/109/63 16/44/44
f 7/107/98 33/106/71 82/108/60 34/43/43
f 33/71/71 15/70/70 64/61/61 82/60/60
f 46/18/18 83/110/56 36/111/59 5/19/19
f 16/44/44 65/109/63 83/110/56 46/18/18
f 65/63/63 24/62/62 63/57/57 83/56/56
f 60/51/51 84/54/54 62/55/55 23/52/52
f 18/58/58 48/12/12 84/54/54 60/51/51
f 48/12/12 6/11/11 50/26/26 84/54/54
f 37/20/20 85/112/50 61/113/53 19/36/36
f 5/19/19 36/111/59 85/112/50 37/20/20
f 36/59/59 18/58/58 60/51/51 85/50/50
f 49/37/37 86/114/46 40/95/49 1/94/92
f 19/36/36 61/113/53 86/114/46 49/37/37
f 61/53/53 23/52/52 59/47/47 86/46/46
f 56/39/39 87/42/42 58/45/45 22/40/40
f 13/103/96 43/104/97 87/42/42 56/39/39
f 43/104/97 7/107/98 34/43/43 87/42/42
f 39/96/93 88/38/38 57/41/41 9/93/91
f 3/99/94 31/100/95 88/38/38 39/96/93
f 31/100/95 13/103/96 56/39/39 88/38/38
f 27/90/90 89/34/34 49/37/37 1/94/92
f 9/93/91 57/41/41 89/34/34 27/90/90
f 57/41/41 22/40/40 55/35/35 89/34/34
f 52/28/28 90/31/31 54/33/33 21/29/29
f 14/78/78 44/77/77 90/31/31 52/28/28
f 44/77/77 4/3/3 29/2/2 90/31/31
f 47/65/65 91/27/27 53/30/30 17/66/66
f 8/7/7 32/6/6 91/27/27 47/65/65
f 32/6/6 14/78/78 52/28/28 91/27/27
f 35/10/10 92/23/23 50/26/26 6/11/11
f 17/66/66 53/30/30 92/23/23 35/10/10
f 53/30/30 21/29/29 51/24/24 92/23/23
f 51/24/24 93/21/21 38/14/14 20/25/25
f 21/29/29 54/33/33 93/21/21 51/24/24
f 54/33/33 11/32/32 41/22/22 93/21/21
f 55/35/35 94/17/17 37/20/20 19/36/36
f 22/40/40 58/45/45 94/17/17 55/35/35
f 58/45/45 16/44/44 46/18/18 94/17/17
f 59/47/47 95/13/13 28/16/16 10/48/48
f 23/52/52 62/55/55 95/13/13 59/47/47
f 62/55/55 20/25/25 38/14/14 95/13/13
f 63/57/57 96/9/9 48/12/12 18/58/58
f 24/62/62 66/67/67 96/9/9 63/57/57
f 66/67/67 17/66/66 35/10/10 96/9/9
f 67/69/69 97/5/5 45/8/8 15/70/70
f 25/74/74 70/79/79 97/5/5 67/69/69
f 70/79/79 14/78/78 32/6/6 97/5/5
f 71/81/81 98/1/1 42/4/4 12/82/82
f 26/86/86 74/89/89 98/1/1 71/81/81
f 74/89/89 11/32/32 29/2/2 98/1/1
