# Blender v2.79 (sub 0) OBJ File: 'SteinePack1.blend'
# www.blender.org
mtllib Stein010.mtl
o Cube.008_Cube.012
v -0.095086 0.674275 2.816972
v -0.242013 1.309359 3.205651
v 0.128396 0.469298 2.149738
v -0.077699 1.049731 1.820371
v 0.480856 0.622358 2.859277
v 0.627858 1.293385 3.166017
v 0.524115 0.346451 2.171069
v 0.954895 1.052128 2.219996
v -0.151338 0.572616 2.472215
v -0.207430 0.994780 2.990736
v -0.245843 1.259943 2.572360
v -0.006122 0.773637 1.915190
v 0.329037 0.370670 2.107916
v 0.603098 1.063891 1.985863
v 0.916035 0.644561 2.138087
v 0.539550 0.432974 2.537082
v 0.800204 1.207603 2.692540
v 0.665583 0.950661 3.071007
v 0.143978 0.620555 2.888532
v 0.140315 1.310439 3.184449
v 0.328644 1.342465 2.604496
v 0.093107 0.338188 2.465754
v 0.209779 0.979080 3.195237
v 0.894142 0.794601 2.595573
v 0.694271 0.668643 1.946193
v -0.371832 0.974053 2.455928
v -0.050338 1.046019 1.458895
v -0.003904 0.891150 1.588458
v 0.341687 1.006907 1.521224
v 0.445210 0.835312 1.627131
v -0.167681 0.628729 2.656638
v -0.267185 1.177962 3.147992
v -0.123893 1.100741 2.182805
v 0.109550 0.596396 2.061990
v 0.213676 0.402783 2.118706
v 0.852836 1.072303 2.138237
v 0.720745 0.458030 2.151311
v 0.511837 0.358496 2.323854
v 0.721219 1.266177 2.984698
v 0.568949 0.767114 2.971773
v 0.333123 0.621976 2.869555
v -0.095627 1.314271 3.214034
v -0.010505 0.493252 2.285589
v -0.119397 0.818195 2.871799
v -0.284087 1.341650 2.949883
v -0.147545 0.941113 1.839272
v 0.441928 0.354405 2.126881
v 0.206937 1.111103 1.879364
v 0.987409 0.875829 2.171583
v 0.524834 0.534698 2.734296
v 0.890537 1.145211 2.418957
v 0.679127 1.159648 3.139059
v 0.006939 0.626813 2.884753
v 0.432210 1.293675 3.186112
v 0.174818 1.389966 2.906143
v 0.522498 1.216800 2.319147
v 0.590488 1.321746 2.657230
v 0.007086 1.313487 2.578668
v 0.081669 0.446438 2.681581
v 0.174177 0.309474 2.260494
v -0.047214 0.409868 2.478613
v 0.324333 0.365648 2.488866
v 0.006987 0.988340 3.153664
v 0.450212 0.946148 3.170073
v 0.214978 0.821123 3.074786
v 0.158139 1.142678 3.253982
v 0.823922 0.897866 2.869277
v 0.914394 0.702317 2.338807
v 0.734781 0.596587 2.572658
v 0.929695 1.019920 2.649466
v 0.860496 0.642430 2.029066
v 0.348580 0.654054 1.910841
v 0.549260 0.495656 2.028126
v 0.735459 0.873131 1.917003
v -0.232033 0.865530 2.180203
v -0.356423 1.005843 2.723413
v -0.262299 0.765532 2.441402
v -0.388454 1.156465 2.519330
v -0.060587 0.974942 1.494262
v 0.169109 1.037043 1.477545
v 0.240358 0.843527 1.614821
v 0.395413 0.921778 1.547813
v 0.559628 0.782611 1.750003
v 0.441230 1.019545 1.681576
v -0.002816 0.831976 1.699891
v -0.080224 1.044809 1.577825
v -0.133572 0.950603 1.606605
v 0.194910 1.066299 1.630840
v 0.306285 0.753423 1.751926
v 0.191219 0.944685 1.499257
v -0.388430 1.210635 2.863520
v -0.249300 0.800407 2.650098
v -0.117676 0.679520 2.228099
v 0.556974 0.899533 1.700009
v 0.330014 0.516696 2.017609
v 0.670802 0.471280 2.063296
v 0.968974 0.946104 2.382117
v 0.729840 0.500532 2.337022
v 0.684968 0.702741 2.806951
v 0.441917 1.127199 3.226338
v 0.401625 0.793554 3.049875
v 0.055770 0.816819 3.031091
v 0.340182 0.321151 2.283500
v 0.071980 0.363147 2.275433
v -0.067501 0.496085 2.687796
v 0.177634 1.170539 2.238856
v 0.743357 1.234499 2.384134
v 0.479604 1.349937 2.951517
v -0.103672 1.385315 2.925279
v 0.316559 0.471816 2.691154
v -0.068792 1.157197 3.252203
v 0.849171 1.111158 2.934868
v 0.917967 0.858934 2.047970
v -0.270106 1.015897 2.162491
vt 0.591994 0.978254
vt 0.583337 0.951612
vt 0.641230 0.934239
vt 0.645994 0.955344
vt 0.593020 0.770577
vt 0.569317 0.798767
vt 0.556107 0.785043
vt 0.571657 0.761985
vt 0.446994 0.804825
vt 0.447003 0.835950
vt 0.428480 0.853743
vt 0.418090 0.836667
vt 0.405028 0.952675
vt 0.428259 0.949841
vt 0.436072 0.963886
vt 0.426190 0.981268
vt 0.624919 0.153246
vt 0.620423 0.178897
vt 0.600663 0.176697
vt 0.597023 0.157876
vt 0.464996 0.946548
vt 0.461443 0.971619
vt 0.456513 0.869803
vt 0.465407 0.910466
vt 0.425780 0.917920
vt 0.424289 0.877046
vt 0.531964 0.823261
vt 0.547035 0.853113
vt 0.505754 0.886211
vt 0.495114 0.850086
vt 0.567461 0.903368
vt 0.516258 0.970319
vt 0.513278 0.931760
vt 0.623169 0.110337
vt 0.625877 0.127283
vt 0.594165 0.133862
vt 0.595027 0.116742
vt 0.668097 0.122529
vt 0.670180 0.133547
vt 0.650306 0.127796
vt 0.646579 0.112741
vt 0.670773 0.149451
vt 0.669157 0.167899
vt 0.645978 0.175699
vt 0.649475 0.151158
vt 0.561443 0.119681
vt 0.528458 0.110187
vt 0.549458 0.070018
vt 0.580479 0.089376
vt 0.564464 0.170600
vt 0.536321 0.181704
vt 0.525751 0.144192
vt 0.556652 0.143984
vt 0.399077 0.871088
vt 0.398027 0.916875
vt 0.605451 0.206609
vt 0.586876 0.238523
vt 0.552025 0.215833
vt 0.578484 0.193503
vt 0.671060 0.197031
vt 0.674762 0.233220
vt 0.634221 0.242244
vt 0.640665 0.206304
vt 0.534768 0.765338
vt 0.527135 0.798747
vt 0.486947 0.815797
vt 0.490658 0.779464
vt 0.702529 0.182557
vt 0.714869 0.212115
vt 0.701240 0.221317
vt 0.692217 0.189384
vt 0.708391 0.140693
vt 0.733413 0.138511
vt 0.732505 0.191507
vt 0.708208 0.168323
vt 0.791408 0.173451
vt 0.769085 0.169522
vt 0.789110 0.147582
vt 0.809253 0.137875
vt 0.675814 0.078470
vt 0.680311 0.044570
vt 0.729295 0.078490
vt 0.702974 0.109063
vt 0.611113 0.067403
vt 0.588279 0.037613
vt 0.630494 0.028862
vt 0.641052 0.062221
vt 0.472329 0.996459
vt 0.528603 0.996459
vt 0.691467 0.879097
vt 0.680536 0.887476
vt 0.673060 0.866121
vt 0.677179 0.851881
vt 0.761724 0.127591
vt 0.766769 0.072835
vt 0.788454 0.068459
vt 0.787798 0.112428
vt 0.659427 0.887485
vt 0.650553 0.851812
vt 0.681994 0.938459
vt 0.675877 0.920374
vt 0.685542 0.908939
vt 0.696688 0.915345
vt 0.785615 0.042509
vt 0.808401 0.053321
vt 0.742506 0.039730
vt 0.622736 0.891350
vt 0.600125 0.830905
vt 0.813526 0.099408
vt 0.550629 0.015120
vt 0.613136 0.000235
vt 0.508097 0.054721
vt 0.619992 0.091383
vt 0.643474 0.091612
vt 0.599043 0.100611
vt 0.668543 0.106040
vt 0.686068 0.120165
vt 0.653248 0.825893
vt 0.618495 0.796574
vt 0.760473 0.214853
vt 0.687701 0.132532
vt 0.689308 0.145175
vt 0.688239 0.157298
vt 0.684803 0.166438
vt 0.667792 0.275763
vt 0.614145 0.277773
vt 0.707713 0.260086
vt 0.504336 0.186937
vt 0.495484 0.135723
vt 0.517005 0.232281
vt 0.495484 0.093996
vt 0.557034 0.264470
vt 0.729857 0.244679
vt 0.682001 0.017469
vn -0.8639 0.2634 -0.4291
vn -0.3485 0.8720 -0.3437
vn -0.4865 0.8613 -0.1464
vn -0.9643 -0.0644 -0.2568
vn 0.7112 0.1265 -0.6915
vn 0.4728 0.6987 -0.5369
vn 0.8153 0.5240 -0.2463
vn 0.9709 0.0348 -0.2371
vn 0.9022 0.1643 0.3988
vn 0.6250 0.7474 0.2252
vn 0.4159 0.6409 0.6451
vn 0.6195 0.0276 0.7845
vn -0.2245 -0.2165 0.9501
vn -0.1233 0.6582 0.7427
vn -0.5277 0.5327 0.6616
vn -0.7420 -0.2132 0.6356
vn 0.0992 -0.8347 0.5416
vn 0.3288 -0.7824 0.5289
vn 0.2304 -0.7319 0.6413
vn 0.0750 -0.7433 0.6647
vn -0.1084 0.9941 -0.0045
vn -0.5815 0.8095 0.0811
vn 0.1865 0.9793 0.0778
vn 0.0287 0.9988 0.0402
vn 0.0616 0.7400 0.6697
vn 0.1563 0.6869 0.7097
vn 0.3207 0.9128 -0.2527
vn 0.0738 0.9307 -0.3581
vn 0.0289 0.9664 -0.2554
vn 0.2650 0.9569 -0.1182
vn -0.0660 0.9423 -0.3281
vn -0.3781 0.8694 -0.3182
vn -0.1162 0.9387 -0.3247
vn -0.5582 -0.7089 0.4310
vn -0.1061 -0.8460 0.5225
vn -0.0439 -0.7179 0.6947
vn -0.3982 -0.5990 0.6946
vn -0.5971 -0.6981 -0.3950
vn -0.2040 -0.9521 -0.2277
vn -0.2041 -0.9541 0.2191
vn -0.6616 -0.7497 0.0133
vn 0.0971 -0.9951 0.0167
vn 0.3424 -0.9238 0.1709
vn 0.3806 -0.8509 0.3621
vn 0.1273 -0.9310 0.3420
vn -0.3386 -0.5913 0.7319
vn -0.3117 -0.5846 0.7490
vn -0.6470 -0.5745 0.5013
vn -0.6717 -0.4911 0.5545
vn 0.1247 -0.6624 0.7386
vn 0.2072 -0.4652 0.8606
vn -0.0480 -0.4866 0.8723
vn -0.0656 -0.6398 0.7657
vn 0.1927 -0.0616 0.9793
vn 0.0107 -0.0455 0.9989
vn 0.5615 -0.6515 0.5100
vn 0.7656 -0.4142 0.4922
vn 0.5236 -0.4313 0.7346
vn 0.3642 -0.6520 0.6650
vn 0.6294 -0.7481 0.2101
vn 0.8601 -0.4729 0.1912
vn 0.8529 -0.4293 0.2970
vn 0.6357 -0.6904 0.3451
vn 0.9898 0.0517 0.1324
vn 0.7387 0.6725 -0.0447
vn 0.6653 0.7457 0.0345
vn 0.9696 0.1450 0.1969
vn 0.3485 -0.6848 -0.6399
vn 0.6235 -0.4244 -0.6566
vn 0.8523 -0.4991 -0.1562
vn 0.5824 -0.8013 -0.1368
vn -0.1560 -0.5577 -0.8152
vn -0.0829 -0.7531 -0.6526
vn 0.3687 -0.4566 -0.8096
vn 0.0872 -0.5620 -0.8225
vn 0.7437 0.1538 -0.6505
vn 0.4534 -0.5916 -0.6666
vn 0.3341 -0.6386 -0.6932
vn 0.4743 -0.1859 -0.8605
vn -0.7241 -0.5609 -0.4012
vn -0.8179 -0.4659 -0.3375
vn -0.5520 -0.7352 -0.3933
vn -0.4849 -0.5905 -0.6451
vn -0.8381 -0.4754 0.2676
vn -0.8926 -0.3934 0.2202
vn -0.9460 -0.2946 -0.1353
vn -0.8600 -0.4979 -0.1118
vn -0.9727 0.1864 0.1383
vn -0.8833 0.3968 -0.2495
vn 0.0568 -0.5091 -0.8588
vn 0.1328 0.5410 -0.8304
vn 0.4000 0.5193 -0.7552
vn -0.0638 -0.8807 -0.4693
vn -0.4038 -0.8494 -0.3396
vn -0.2426 -0.8154 -0.5256
vn -0.0328 -0.8070 -0.5896
vn 0.0712 0.9843 -0.1615
vn 0.4810 0.7798 -0.4007
vn -0.9247 -0.2360 -0.2987
vn -0.6049 0.7694 -0.2051
vn -0.3539 0.5163 -0.7798
vn -0.5438 -0.3802 -0.7481
vn -0.0034 0.9807 -0.1954
vn 0.3391 0.8233 -0.4552
vn -0.8290 -0.4707 0.3018
vn -0.8409 -0.5294 -0.1124
vn -0.7171 -0.4085 0.5647
vn -0.7249 -0.5023 -0.4713
vn -0.5719 -0.4622 -0.6778
vn 0.6438 0.1985 -0.7390
vn -0.3802 -0.5800 -0.7205
vn -0.0681 -0.7626 -0.6432
vn 0.1276 -0.8724 -0.4717
vn 0.3370 -0.9279 -0.1592
usemtl None
s 1
f 114/1/1 33/2/2 4/3/3 46/4/4
f 113/5/5 36/6/6 8/7/7 49/8/8
f 112/9/9 39/10/10 6/11/11 52/12/12
f 111/13/13 42/14/14 2/15/15 32/16/16
f 110/17/17 50/18/18 5/19/19 41/20/20
f 109/21/21 45/22/22 2/15/15 42/14/14
f 108/23/23 55/24/24 20/25/25 54/26/26
f 107/27/27 56/28/28 21/29/29 57/30/30
f 106/31/31 33/2/2 11/32/32 58/33/33
f 105/34/34 59/35/35 19/36/36 53/37/37
f 104/38/38 60/39/39 22/40/40 61/41/41
f 103/42/42 38/43/43 16/44/44 62/45/45
f 102/46/46 63/47/47 10/48/48 44/49/49
f 101/50/50 64/51/51 23/52/52 65/53/53
f 100/54/54 54/26/26 20/25/25 66/55/55
f 99/56/56 67/57/57 18/58/58 40/59/59
f 98/60/60 68/61/61 24/62/62 69/63/63
f 97/64/64 51/65/65 17/66/66 70/67/67
f 96/68/68 71/69/69 15/70/70 37/71/71
f 95/72/72 72/73/73 25/74/74 73/75/75
f 94/76/76 83/77/77 30/78/78 82/79/79
f 93/80/80 75/81/81 12/82/82 34/83/83
f 92/84/84 76/85/85 26/86/86 77/87/87
f 91/88/88 45/22/22 11/32/32 78/89/89
f 90/90/90 80/91/91 29/92/92 82/93/79
f 89/94/93 85/95/94 28/96/95 81/97/96
f 88/98/97 84/99/98 29/92/92 80/91/91
f 87/100/99 86/101/100 27/102/101 79/103/102
f 85/95/94 87/104/99 79/105/102 28/96/95
f 12/82/82 46/106/4 87/104/99 85/95/94
f 46/4/4 4/3/3 86/101/100 87/100/99
f 86/101/100 88/98/97 80/91/91 27/102/101
f 4/3/3 48/107/103 88/98/97 86/101/100
f 48/107/103 14/108/104 84/99/98 88/98/97
f 83/77/77 89/94/93 81/97/96 30/78/78
f 25/74/74 72/73/73 89/94/93 83/77/77
f 72/73/73 12/82/82 85/95/94 89/94/93
f 81/97/96 90/109/90 82/79/79 30/78/78
f 28/96/95 79/105/102 90/109/90 81/97/96
f 79/103/102 27/102/101 80/91/91 90/90/90
f 76/85/85 91/110/88 78/111/89 26/86/86
f 10/48/48 32/112/16 91/110/88 76/85/85
f 32/16/16 2/15/15 45/22/22 91/88/88
f 31/113/105 92/84/84 77/87/87 9/114/106
f 1/115/107 44/49/49 92/84/84 31/113/105
f 44/49/49 10/48/48 76/85/85 92/84/84
f 43/116/108 93/80/80 34/83/83 3/117/109
f 9/114/106 77/87/87 93/80/80 43/116/108
f 77/87/87 26/86/86 75/81/81 93/80/80
f 84/99/98 94/118/76 82/93/79 29/92/92
f 14/108/104 74/119/110 94/118/76 84/99/98
f 74/120/110 25/74/74 83/77/77 94/76/76
f 35/121/111 95/72/72 73/75/75 13/122/112
f 3/117/109 34/83/83 95/72/72 35/121/111
f 34/83/83 12/82/82 72/73/73 95/72/72
f 47/123/113 96/68/68 37/71/71 7/124/114
f 13/122/112 73/75/75 96/68/68 47/123/113
f 73/75/75 25/74/74 71/69/69 96/68/68
f 68/61/61 97/125/64 70/126/67 24/62/62
f 15/70/70 49/127/8 97/125/64 68/61/61
f 49/8/8 8/7/7 51/65/65 97/64/64
f 38/43/43 98/60/60 69/63/63 16/44/44
f 7/124/114 37/71/71 98/60/60 38/43/43
f 37/71/71 15/70/70 68/61/61 98/60/60
f 50/18/18 99/56/56 40/59/59 5/19/19
f 16/44/44 69/63/63 99/56/56 50/18/18
f 69/63/63 24/62/62 67/57/57 99/56/56
f 64/51/51 100/128/54 66/129/55 23/52/52
f 18/58/58 52/130/12 100/128/54 64/51/51
f 52/12/12 6/11/11 54/26/26 100/54/54
f 41/20/20 101/50/50 65/53/53 19/36/36
f 5/19/19 40/59/59 101/50/50 41/20/20
f 40/59/59 18/58/58 64/51/51 101/50/50
f 53/37/37 102/46/46 44/49/49 1/115/107
f 19/36/36 65/53/53 102/46/46 53/37/37
f 65/53/53 23/52/52 63/47/47 102/46/46
f 60/39/39 103/42/42 62/45/45 22/40/40
f 13/122/112 47/123/113 103/42/42 60/39/39
f 47/123/113 7/124/114 38/43/43 103/42/42
f 43/116/108 104/38/38 61/41/41 9/114/106
f 3/117/109 35/121/111 104/38/38 43/116/108
f 35/121/111 13/122/112 60/39/39 104/38/38
f 31/113/105 105/34/34 53/37/37 1/115/107
f 9/114/106 61/41/41 105/34/34 31/113/105
f 61/41/41 22/40/40 59/35/35 105/34/34
f 56/28/28 106/31/31 58/33/33 21/29/29
f 14/108/104 48/107/103 106/31/31 56/28/28
f 48/107/103 4/3/3 33/2/2 106/31/31
f 51/65/65 107/27/27 57/30/30 17/66/66
f 8/7/7 36/6/6 107/27/27 51/65/65
f 36/6/6 14/108/104 56/28/28 107/27/27
f 39/10/10 108/23/23 54/26/26 6/11/11
f 17/66/66 57/30/30 108/23/23 39/10/10
f 57/30/30 21/29/29 55/24/24 108/23/23
f 55/24/24 109/21/21 42/14/14 20/25/25
f 21/29/29 58/33/33 109/21/21 55/24/24
f 58/33/33 11/32/32 45/22/22 109/21/21
f 59/35/35 110/17/17 41/20/20 19/36/36
f 22/40/40 62/45/45 110/17/17 59/35/35
f 62/45/45 16/44/44 50/18/18 110/17/17
f 63/47/47 111/131/13 32/112/16 10/48/48
f 23/52/52 66/129/55 111/131/13 63/47/47
f 66/55/55 20/25/25 42/14/14 111/13/13
f 67/57/57 112/132/9 52/130/12 18/58/58
f 24/62/62 70/126/67 112/132/9 67/57/57
f 70/67/67 17/66/66 39/10/10 112/9/9
f 71/69/69 113/133/5 49/127/8 15/70/70
f 25/74/74 74/120/110 113/133/5 71/69/69
f 74/119/110 14/108/104 36/6/6 113/5/5
f 75/81/81 114/134/1 46/106/4 12/82/82
f 26/86/86 78/111/89 114/134/1 75/81/81
f 78/89/89 11/32/32 33/2/2 114/1/1
