# Blender v2.79 (sub 0) OBJ File: 'SteinePack1.blend'
# www.blender.org
mtllib Stein001.mtl
o Cube.002
v -5.638680 0.293121 3.740149
v -5.641154 0.131141 3.976517
v -5.570436 0.368870 3.314162
v -5.144985 0.352347 2.982762
v -4.822738 0.354754 3.344705
v -5.270885 0.301135 3.796940
v -5.188419 0.430557 3.347418
v -5.281436 -0.435342 3.417385
v -5.206854 0.098213 4.116553
v -4.610332 0.203328 3.449017
v -5.209825 0.188467 2.822442
v -5.877678 0.222886 3.440855
v -5.330850 0.416922 3.001877
v -5.541763 0.392303 3.176504
v -5.816238 0.225966 3.049617
v -5.624324 0.226225 2.875344
v -4.901390 0.361632 3.536363
v -4.671132 0.159902 3.691218
v -4.936144 0.149695 3.909111
v -5.538537 -0.280392 3.758389
v -5.659642 0.110667 3.987753
v -5.994920 -0.001235 3.430948
v -5.708949 -0.353008 3.430747
v -5.254425 -0.378492 2.846065
v -5.216885 -0.039758 2.709562
v -4.538091 0.088439 3.432250
v -4.566385 -0.147050 3.342341
v -5.259192 -0.292128 3.961387
v -5.213019 0.050231 4.138683
v -5.762997 -0.285789 2.889951
v -5.906120 0.065558 2.942920
v -5.761510 -0.285826 2.888663
v -5.718651 0.064625 2.774903
v -4.736752 -0.102787 3.570315
v -4.626397 0.093309 3.697692
v -4.955116 -0.189585 3.822908
v -4.919740 0.106681 3.933581
v -4.861516 0.293328 3.105285
v -4.612505 0.167031 3.183896
v -4.684976 0.185463 2.994906
v -4.592146 -0.326503 2.799590
v -4.490672 -0.275307 2.924292
v -4.605460 -0.097643 2.780747
v -4.503734 -0.017349 3.102970
vt 0.064058 0.849294
vt 0.126752 0.835080
vt 0.153717 0.851421
vt 0.132693 0.888703
vt 0.263348 0.862193
vt 0.227380 0.813900
vt 0.278940 0.811478
vt 0.254468 0.701310
vt 0.180953 0.710416
vt 0.213093 0.647159
vt 0.116209 0.701607
vt 0.123261 0.646929
vt 0.167921 0.791724
vt 0.226111 0.777571
vt 0.104064 0.774754
vt 0.287810 0.762134
vt 0.208801 0.854258
vt 0.234869 0.889422
vt 0.055389 0.733176
vt 0.102220 0.799432
vt 0.041459 0.804778
vt 0.270020 0.283100
vt 0.319860 0.230309
vt 0.330562 0.283283
vt 0.270554 0.335790
vt 0.185470 0.071443
vt 0.186997 0.071784
vt 0.249634 0.131811
vt 0.173194 0.186534
vt 0.127609 0.131231
vt 0.104343 0.244587
vt 0.095707 0.188166
vt 0.305197 0.823183
vt 0.305197 0.761848
vt 0.027126 0.872730
vt 0.000245 0.822658
vt 0.294290 0.899733
vt 0.116760 0.940540
vt 0.248260 0.962095
vt 0.007052 0.714389
vt 0.216421 0.297005
vt 0.150741 0.282682
vt 0.216088 0.636279
vt 0.119990 0.641677
vt 0.263037 0.694152
vt 0.000245 0.207579
vt 0.057488 0.064730
vt 0.317298 0.208243
vt 0.316361 0.079394
vt 0.361824 0.209082
vt 0.056441 0.302563
vt 0.154846 0.000245
vt 0.219715 0.000245
vt 0.210190 0.352529
vt 0.126840 0.341976
vn -0.2685 0.6995 -0.6623
vn -0.0713 0.9085 -0.4116
vn 0.1554 0.8628 -0.4809
vn 0.1012 0.5930 -0.7988
vn 0.7137 0.6749 -0.1875
vn 0.3960 0.9182 -0.0056
vn 0.7150 0.6905 0.1096
vn 0.3966 0.6756 0.6214
vn 0.0305 0.9095 0.4145
vn 0.1311 0.6493 0.7491
vn -0.3220 0.8908 0.3205
vn -0.4160 0.6608 0.6247
vn 0.0575 0.9969 0.0537
vn 0.2770 0.9098 0.3090
vn -0.2878 0.9544 0.0786
vn 0.5832 0.6669 0.4638
vn 0.3461 0.8635 -0.3667
vn 0.5137 0.6882 -0.5123
vn -0.7238 0.6735 0.1498
vn -0.2567 0.9559 -0.1424
vn -0.6237 0.7317 -0.2749
vn 0.7511 -0.5766 0.3215
vn 0.8532 -0.4943 -0.1662
vn 0.9648 0.2387 -0.1107
vn 0.9639 0.1358 0.2288
vn -0.6347 -0.6735 -0.3789
vn -0.3978 -0.6618 -0.6354
vn -0.0548 -0.8010 -0.5960
vn 0.0618 -0.9886 0.1369
vn -0.5491 -0.8195 0.1643
vn 0.0639 -0.7430 0.6662
vn -0.4447 -0.7385 0.5067
vn 0.8221 0.0209 0.5689
vn -0.3930 0.2018 -0.8971
vn -0.8839 0.1360 -0.4474
vn 0.0065 0.1096 -0.9939
vn 0.5267 0.2273 -0.8191
vn -0.9789 -0.0730 0.1908
vn 0.6073 -0.6725 0.4229
vn 0.5407 -0.6645 0.5158
vn 0.0952 -0.0262 0.9951
vn -0.6666 0.0181 0.7451
vn 0.6150 0.0429 0.7873
vn 0.4271 -0.6542 -0.6241
usemtl None
s 1
f 16/1/1 13/2/2 4/3/3 11/4/4
f 39/5/5 5/6/6 10/7/7
f 19/8/8 6/9/9 9/10/10
f 9/10/10 6/9/9 1/11/11 2/12/12
f 5/6/6 7/13/13 6/9/9 17/14/14
f 7/13/13 3/15/15 1/11/11 6/9/9
f 10/7/7 5/6/6 17/14/14 18/16/16
f 11/4/4 4/3/3 38/17/17 40/18/18
f 12/19/19 3/15/15 14/20/20 15/21/21
f 27/22/22 42/23/23 44/24/24 26/25/25
f 4/3/3 13/2/2 14/20/20 3/15/15 7/13/13
f 30/26/26 32/27/27 24/28/28 8/29/29 23/30/30
f 23/30/30 8/29/29 28/31/31 20/32/32
f 26/33/25 10/7/7 18/16/16 35/34/33
f 16/1/1 33/35/34 31/36/35 15/21/21
f 44/37/24 39/5/5 10/7/7 26/33/25
f 25/38/36 11/4/4 40/18/18 43/39/37
f 22/40/38 12/19/19 15/21/21 31/36/35
f 8/29/29 27/22/22 34/41/39 36/42/40 28/31/31
f 29/43/41 9/10/10 2/12/12 21/44/42
f 2/12/12 1/11/11 3/15/15 12/19/19
f 19/8/8 37/45/43 35/34/33 18/16/16
f 13/2/2 16/1/1 15/21/21 14/20/20
f 33/35/34 16/1/1 11/4/4 25/38/36
f 6/9/9 19/8/8 18/16/16 17/14/14
f 37/45/43 19/8/8 9/10/10 29/43/41
f 23/30/30 20/32/32 21/46/42 22/47/38
f 41/48/44 24/28/28 25/49/36 43/50/37
f 8/29/29 42/23/23 27/22/22
f 20/32/32 28/31/31 29/51/41 21/46/42
f 32/27/27 30/26/26 31/52/35 33/53/34
f 30/26/26 23/30/30 22/47/38 31/52/35
f 24/28/28 32/27/27 33/53/34 25/49/36
f 36/42/40 34/41/39 35/54/33 37/55/43
f 34/41/39 27/22/22 26/25/25 35/54/33
f 28/31/31 36/42/40 37/55/43 29/51/41
f 21/44/42 2/12/12 12/19/19 22/40/38
f 5/6/6 39/5/5 40/18/18 38/17/17
f 41/48/44 43/50/37 44/24/24 42/23/23
f 39/5/5 44/37/24 43/39/37 40/18/18
f 5/6/6 38/17/17 4/3/3 7/13/13
f 24/28/28 41/48/44 42/23/23 8/29/29
