# Blender v2.79 (sub 0) OBJ File: 'SteinePack1.blend'
# www.blender.org
mtllib SteinNEU!!!3.mtl
o Cube.000_Cube.005
v -4.815351 -0.700778 -0.969619
v -5.376802 -0.186904 -0.439444
v -4.569963 -0.889355 -0.212461
v -4.494273 -0.565998 -0.370080
v -4.688891 -0.412873 -0.500651
v -5.336253 -0.259499 -0.725501
v -5.422989 -0.416864 -0.972546
v -4.753095 -0.605279 -0.829930
v -4.833805 -0.408257 -0.744243
v -4.661937 -0.666236 0.377253
v -4.791056 -0.284081 0.162457
v -4.511817 -0.389496 0.168978
v -5.640172 -0.270168 0.337073
v -5.382062 -0.274724 -0.143513
v -4.802305 -0.304119 -0.279893
v -4.885587 -0.266683 0.049338
v -5.658141 -0.409199 0.389366
v -4.831034 -0.346853 0.426752
v -4.661937 -0.666236 0.377253
v -5.653681 -0.657819 -0.980216
v -5.686409 -0.530501 -0.983143
v -5.770593 -0.656733 -0.205783
v -5.811825 -0.502898 -0.272614
v -5.778772 -0.433296 0.074462
v -5.503184 -0.676379 0.329904
vt 0.536535 0.392000
vt 0.589528 0.595315
vt 0.477274 0.653928
vt 0.476085 0.651590
vt 0.446589 0.473781
vt 0.678720 0.510337
vt 0.689385 0.537434
vt 0.658975 0.643660
vt 0.678315 0.400435
vt 0.691537 0.380091
vt 0.732426 0.425172
vt 0.390107 0.813193
vt 0.430794 0.898634
vt 0.402710 0.953980
vt 0.492635 0.886292
vt 0.473542 0.905617
vt 0.429053 0.706123
vt 0.466457 0.736672
vt 0.441536 0.785785
vt 0.575192 0.785469
vt 0.561126 0.732647
vt 0.573253 0.671036
vt 0.636174 0.654418
vt 0.584905 0.841790
vt 0.472293 0.827325
vt 0.475220 0.955245
vt 0.402699 0.955245
vt 0.619187 0.922235
vt 0.629277 0.950603
vt 0.671608 0.890463
vt 0.685637 0.811692
vt 0.390107 0.432245
vt 0.456177 0.372725
vt 0.544566 0.353019
vt 0.390107 0.622673
vn -0.6522 -0.7504 0.1069
vn 0.5836 -0.8118 0.0183
vn 0.7239 -0.3945 0.5660
vn 0.2593 -0.3472 0.9012
vn -0.3330 -0.6955 0.6366
vn 0.2348 -0.5518 -0.8002
vn 0.7107 0.1749 -0.6814
vn 0.9544 0.2251 -0.1957
vn -0.4667 -0.5268 -0.7103
vn -0.6317 0.3974 -0.6655
vn -0.0407 0.6363 -0.7703
vn 0.8766 0.4341 0.2077
vn 0.2260 0.9662 0.1242
vn 0.3420 0.9037 0.2574
vn 0.4314 0.7642 -0.4794
vn 0.5860 0.7823 -0.2112
vn -0.1604 0.9815 -0.1039
vn -0.0228 0.9047 -0.4254
vn -0.1920 0.9812 -0.0164
vn 0.3869 0.9221 0.0082
vn 0.1720 0.5307 0.8299
vn -0.2553 0.9392 0.2293
vn -0.5949 0.3775 0.7096
vn -0.9514 0.2528 0.1757
vn -0.9619 0.2729 0.0123
usemtl Material
s 1
f 22/1/1 3/2/2 10/3/3 19/4/4 25/5/5
f 1/6/6 8/7/7 4/8/8 3/2/2
f 20/9/9 21/10/10 7/11/11 8/7/7 1/6/6
f 4/12/8 12/13/12 10/14/3
f 4/12/8 16/15/13 11/16/14 12/13/12
f 8/17/7 9/18/15 5/19/16 4/12/8
f 2/20/17 6/21/18 7/22/11 21/23/10
f 5/19/16 2/20/17 14/24/19 15/25/20
f 11/16/14 18/26/21 19/27/4 10/14/3 12/13/12
f 8/17/7 7/22/11 6/21/18 9/18/15
f 9/18/15 6/21/18 2/20/17 5/19/16
f 11/16/14 16/15/13 13/28/22 17/29/23
f 13/28/22 16/15/13 15/25/20 14/24/19
f 24/30/24 17/29/23 13/28/22 14/24/19
f 23/31/25 24/30/24 14/24/19 2/20/17
f 17/32/23 24/33/24 25/5/5
f 20/9/9 22/1/1 23/34/25 21/10/10
f 22/1/1 25/5/5 24/33/24 23/34/25
f 20/9/9 1/6/6 3/2/2 22/1/1
f 23/31/25 2/20/17 21/23/10
f 18/26/21 11/16/14 17/29/23
f 5/19/16 15/25/20 16/15/13 4/12/8
f 3/2/2 4/8/8 10/3/3
f 18/35/21 17/32/23 25/5/5 19/4/4
